F_R_ATPS4r 	 13.8816
R_BIOMASS_Ecoli_core_w_GAM 	 0.227131
R_CS 	 1.68
R_CYTBD 	 11.1053
F_R_FBA 	 0.996591
F_R_G6PDH2r 	 0.868438
F_R_GLUDy 	 4.4455
R_GLUSy 	 0.829923
R_GND 	 0.2745
B_R_ICDHyr 	 1.68
R_MALS 	 0.571
R_NADH16 	 11.1053
R_PDH 	 8.10224
R_PFK 	 0.293891
R_PPC 	 2.08581
R_PPS 	 1.14372
F_R_TALA 	 0.0819942
