M_glc__D_e	0
M_gln__L_c	-0.888
M_gln__L_e	0
M_glu__L_c	-3.908
M_glu__L_e	0
M_glx_c	0
M_h2o_c	0
M_h2o_e	0
M_h_c	0
M_h_e	0
M_icit_c	1.68
M_lac__D_c	-0.0029168
M_lac__D_e	0
M_mal__L_c	0.341
M_mal__L_e	0
M_nad_c	0.504755
M_13dpg_c	0
M_nadh_c	-0.504755
M_nadp_c	-2.22045e-16
M_nadph_c	2.22045e-16
M_nh4_c	4.66958
M_nh4_e	0
M_2pg_c	0
M_o2_c	-4.09773
M_3pg_c	-0.278309
M_o2_e	0
M_oaa_c	-1.38996
M_6pgc_c	-0.2745
M_pep_c	-1.06
M_6pgl_c	0
M_pi_c	1.84588
M_ac_c	0
M_pi_e	0
M_pyr_c	-7.89301
M_pyr_e	0
M_q8_c	0
M_ac_e	0
M_q8h2_c	0
M_acald_c	0
M_r5p_c	-0.167004
M_acald_e	0
M_ru5p__D_c	0.2745
M_accoa_c	4.9917
M_s7p_c	0
M_succ_c	0
M_acon_C_c	2.91154e-13
M_succ_e	0
M_actp_c	0
M_succoa_c	0
M_adp_c	-0.269
M_xu5p__D_c	0.0671589
M_akg_c	2.91529
M_akg_e	0
M_amp_c	1.16498
M_atp_c	-0.895985
M_cit_c	1.68
M_co2_c	5
M_co2_e	0
M_coa_c	-4.9917
M_dhap_c	1.88121
M_e4p_c	0
M_etoh_c	0
M_etoh_e	0
M_f6p_c	-0.252
M_fdp_c	-0.7027
M_for_c	0
M_for_e	0
M_fru_e	0
M_fum_c	0
M_fum_e	0
M_g3p_c	1.79006
M_g6p_c	-1.045
M_biomass_c	0.930178
