F_R_ATPS4r 	 11.4647
R_BIOMASS_Ecoli_core_w_GAM 	 0.187188
R_CS 	 1.68
R_CYTBD 	 9.17177
R_FBP 	 0.7027
F_R_GLUDy 	 4.6633
R_GLUSy 	 0.840136
R_GND 	 0.2955
B_R_ICDHyr 	 1.68
B_R_MDH 	 0.341
R_NADH16 	 9.17177
R_PDH 	 7.38154
F_R_PGI 	 1.00663
R_PPC 	 2.06809
R_PPS 	 1.10526
B_R_TALA 	 0.94024
B_R_TKT2 	 1.00781
