F_R_ATPS4r 	 14.0494
R_BIOMASS_Ecoli_core_w_GAM 	 0.23485
R_CS 	 1.68
R_CYTBD 	 11.2395
F_R_FBA 	 0.7027
F_R_G6PDH2r 	 0.993424
F_R_GLUDy 	 3.57546
R_GLUN 	 0.827949
R_GND 	 0.2745
B_R_ICDHyr 	 1.68
R_MALS 	 0.571
R_NADH16 	 11.2395
R_PDH 	 8.13117
B_R_PGI 	 0.126568
R_PPC 	 2.09961
R_PPS 	 1.16152
B_R_TKT2 	 0.084781
