F_R_ATPS4r 	 13.6015
R_BIOMASS_Ecoli_core_w_GAM 	 0.220696
R_CS 	 1.68
R_CYTBD 	 10.8812
F_R_FBA 	 0.835381
F_R_G6PDH2r 	 0.869757
F_R_GLUDy 	 3.64902
R_GLUN 	 0.831568
R_GND 	 0.2745
B_R_ICDHyr 	 1.68
B_R_MDH 	 0.341
R_NADH16 	 10.8812
R_PDH 	 7.50712
R_PFK 	 0.132681
R_PPC 	 2.39444
R_PPS 	 1.449
B_R_TKT2 	 0.0796713
