B_R_ADK1 	 0.694555
F_R_ATPS4r 	 10.0067
R_BIOMASS_Ecoli_core_w_GAM 	 0.186036
R_CS 	 1.68
R_CYTBD 	 9.13582
R_FBP 	 0.7027
F_R_GLUDy 	 4.66958
R_GLUSy 	 0.840431
R_GND 	 0.2745
B_R_ICDHyr 	 1.68
B_R_MDH 	 0.341
R_NADH16 	 7.25169
R_PDH 	 6.93283
F_R_PGI 	 1.00686
R_PPC 	 0.963429
B_R_TALA 	 0.940607
B_R_TKT2 	 1.00777
