F_R_ATPS4r 	 11.4647
R_BIOMASS_Ecoli_core_w_GAM 	 0.187188
R_CS 	 1.68
R_CYTBD 	 9.17177
F_R_FBA 	 0.7027
F_R_GLUDy 	 3.82317
R_GLUN 	 0.840136
R_GND 	 0.2955
B_R_ICDHyr 	 1.68
R_MALS 	 0.571
R_NADH16 	 9.17177
R_PDH 	 7.95254
F_R_PGI 	 1.00663
R_PPC 	 1.76409
R_PPS 	 0.801257
B_R_TALA 	 0.58889
B_R_TKT2 	 0.656465
