B_R_ADK1 	 0.772633
F_R_ATPS4r 	 9.85053
R_BIOMASS_Ecoli_core_w_GAM 	 0.186036
R_CS 	 1.68
R_CYTBD 	 8.58928
F_R_FBA 	 0.7027
F_R_GLUDy 	 3.82915
R_GLUN 	 0.840431
R_GND 	 0.2745
B_R_ICDHyr 	 1.68
B_R_MDH 	 0.341
R_NADH16 	 7.40785
R_PDH 	 7.08898
F_R_PGI 	 1.00686
R_PPC 	 0.963429
B_R_TALA 	 0.589257
B_R_TKT2 	 0.656416
