Reactions	ColorReaction
R_ACONTa	-10
R_ACONTb	10
R_ATPS4r	10
R_BIOMASS_Ecoli_core_w_GAM	10
R_CYTBD	10
R_FBP	10
R_G6PDH2r	10
R_GLUDy	10
R_GLUSy	10
R_GND	10
R_MDH	-10
R_NADH16	10
R_NADTRHD	10
R_PGI	-10
R_PPC	10
R_TKT2	-10
