F_R_ACONTa 	 19.8765
F_R_ACONTb 	 15.6935
F_R_ADK1 	 22.9809
F_R_ATPS4r 	 57.3483
R_CS 	 21.5565
R_CYTBD 	 54.2868
B_R_ENO 	 11.1175
B_R_FBA 	 6.70556
R_FBP 	 7.42846
F_R_FUM 	 13.7415
F_R_G6PDH2r 	 4.13814
B_R_GAPD 	 11.1175
F_R_GLUDy 	 7.1552
R_GLUSy 	 1.4592
R_GND 	 2.29366
R_ICL 	 14.0135
R_MALS 	 4.01354
F_R_MDH 	 17.1841
R_NADH16 	 40.2732
R_NADTRHD 	 12.1278
R_PDH 	 22.0788
R_PFL 	 3.49126
B_R_PGI 	 3.09314
F_R_PGK 	 11.1175
R_PGL 	 1.99816
F_R_PGM 	 11.1175
R_PPC 	 14.3725
R_PPS 	 24.4299
B_R_RPI 	 2.29366
R_SUCDi 	 14.0135
B_R_TALA 	 2.29366
F_R_TKT1 	 2.29366
B_R_TKT2 	 2.29366
B_R_TPI 	 6.70556
