F_R_ACONTa 	 15.6362
F_R_ACONTb 	 15.2028
F_R_ADK1 	 17.712
F_R_ATPS4r 	 44.8003
R_CS 	 17.3162
R_CYTBD 	 43.954
B_R_ENO 	 9.10742
B_R_FBA 	 4.60098
R_FBP 	 5.32388
F_R_FUM 	 13.2508
F_R_G6PDH2r 	 6.62088
B_R_GAPD 	 9.20195
F_R_GLUDy 	 5.696
R_GLUN 	 1.464
R_GND 	 0.2745
R_ICL 	 13.5228
B_R_LDH_D 	 10
R_MALS 	 3.52283
F_R_MDH 	 16.2027
R_NADH16 	 30.4311
R_NADTRHD 	 12.5914
R_PDH 	 20.839
B_R_PGI 	 5.57588
F_R_PGK 	 9.10742
F_R_PGM 	 9.10742
R_PPC 	 11.1135
R_PPS 	 19.161
R_SUCDi 	 13.5228
B_R_TPI 	 4.60098
