F_R_ACONTa 	 17.9552
F_R_ACONTb 	 16.3301
F_R_ADK1 	 23.8338
R_AKGDH 	 2.95922
F_R_ATPS4r 	 53.8012
R_CS 	 19.6352
R_CYTBD 	 50.8165
B_R_ENO 	 8.8238
B_R_FBA 	 4.4119
R_FBP 	 5.1348
F_R_FUM 	 12.6872
F_R_G6PDH2r 	 6.4318
B_R_GAPD 	 8.8238
F_R_GLUDy 	 5.696
R_GLUN 	 1.464
R_GND 	 0.2745
F_R_ICDHyr 	 4.65006
R_ICL 	 10
B_R_LDH_D 	 5.08195
F_R_MDH 	 12.1162
R_NADH16 	 37.8573
R_NADTRHD 	 17.0524
R_PDH 	 19.6352
B_R_PGI 	 5.3868
F_R_PGK 	 8.8238
F_R_PGM 	 8.8238
R_PPC 	 17.519
R_PPS 	 25.2828
R_SUCDi 	 12.9592
B_R_SUCOAS 	 2.95922
B_R_TPI 	 4.4119
