F_R_ACONTa 	 19.6845
F_R_ACONTb 	 19.6845
F_R_ADK1 	 23.486
F_R_ATPS4r 	 58.4294
R_CS 	 21.3645
R_CYTBD 	 54.9638
B_R_ENO 	 11.1885
B_R_FBA 	 6.08685
R_FBP 	 6.80975
F_R_FUM 	 13.4285
F_R_G6PDH2r 	 6.081
B_R_GAPD 	 11.8782
F_R_GLUDy 	 7.16
R_GLUSy 	 1.464
R_GND 	 0.2955
F_R_ICDHyr 	 4.304
R_ICL 	 13.7005
R_MALS 	 3.70052
F_R_MDH 	 16.558
R_NADH16 	 41.2633
R_NADTRHD 	 16.3765
R_PDH 	 20.207
R_PFL 	 4.85806
B_R_PGI 	 5.036
F_R_PGK 	 11.1885
F_R_PGM 	 11.1885
R_PPC 	 14.8065
R_PPS 	 24.935
B_R_RPI 	 0.2955
R_SUCDi 	 13.7005
B_R_TALA 	 1.01288
F_R_TKT1 	 0.2955
B_R_TKT2 	 1.01288
B_R_TPI 	 6.08685
