F_R_ACONTa 	 18.8266
F_R_ACONTb 	 11.41
F_R_ADK1 	 17.5347
F_R_ATPS4r 	 48.5762
R_BIOMASS_Ecoli_core_w_GAM 	 0.0685547
R_CS 	 20.5066
R_CYTBD 	 48.0722
B_R_ENO 	 9.24012
B_R_FBA 	 5.20835
R_FBP 	 5.93125
F_R_FUM 	 15.08
F_R_G6PDH2r 	 0.900946
B_R_GAPD 	 8.79302
F_R_GLUDy 	 5.33971
R_GLUN 	 1.44647
R_GND 	 0.2745
B_R_ICDHyr 	 5.62204
R_ICL 	 15.352
B_R_LDH_D 	 4.70656
R_MALS 	 5.35203
F_R_MDH 	 19.8611
R_NADH16 	 32.7202
R_PDH 	 26.1155
F_R_PGK 	 9.13756
F_R_PGM 	 9.24012
R_PPC 	 10.768
R_PPS 	 18.9837
B_R_RPE 	 1.4443
B_R_RPI 	 1.7188
R_SUCDi 	 15.352
B_R_TALA 	 3.07682
F_R_TKT1 	 1.65726
B_R_TKT2 	 3.10157
B_R_TPI 	 5.20835
