F_R_ACONTa 	 20.0992
F_R_ACONTb 	 11.2225
F_R_ADK1 	 20.235
F_R_ATPS4r 	 51.8869
R_CS 	 21.7792
R_CYTBD 	 50.8173
B_R_ENO 	 11.1478
B_R_FBA 	 6.73673
R_FBP 	 7.45963
F_R_FUM 	 15.241
B_R_GAPD 	 11.1471
F_R_GLUDy 	 7.16
R_GLUSy 	 1.464
R_GND 	 0.2745
B_R_ICDHyr 	 5.9705
R_ICL 	 15.513
B_R_LDH_D 	 1.02382
R_MALS 	 5.513
F_R_MDH 	 20.183
R_NADH16 	 35.3043
R_PDH 	 27.2922
F_R_PGI 	 1.045
F_R_PGK 	 11.1478
F_R_PGM 	 11.1478
R_PPC 	 11.5962
R_PPS 	 21.684
B_R_RPE 	 2.05191
B_R_RPI 	 2.32641
R_SUCDi 	 15.513
B_R_TALA 	 4.37832
F_R_TKT1 	 2.32641
B_R_TKT2 	 4.37832
B_R_TPI 	 6.73673
