F_R_ACONTa 	 19.9166
F_R_ACONTb 	 12.0845
F_R_ADK1 	 19.0403
F_R_ATPS4r 	 53.352
R_BIOMASS_Ecoli_core_w_GAM 	 0.0685547
R_CS 	 21.5966
R_CYTBD 	 52.2975
B_R_ENO 	 11.0047
B_R_FBA 	 6.49164
R_FBP 	 7.21454
F_R_FUM 	 15.7545
F_R_G6PDH2r 	 0.900946
B_R_GAPD 	 11.0388
F_R_GLUDy 	 5.33971
R_GLUN 	 1.44647
R_GND 	 0.2745
B_R_ICDHyr 	 5.62204
R_ICL 	 16.0265
R_MALS 	 6.02651
F_R_MDH 	 21.21
R_NADH16 	 36.271
R_PDH 	 25.8566
R_PFL 	 2.02343
F_R_PGK 	 10.9021
F_R_PGM 	 11.0047
R_PPC 	 10.5091
R_PPS 	 20.4893
B_R_RPE 	 1.76513
B_R_RPI 	 2.03963
R_SUCDi 	 16.0265
B_R_TALA 	 3.71847
F_R_TKT1 	 1.97809
B_R_TKT2 	 3.74322
B_R_TPI 	 6.49164
