F_R_ACONTa 	 18.0854
F_R_ACONTb 	 13.1078
F_R_ADK1 	 14.6613
F_R_ATPS4r 	 44.0927
R_BIOMASS_Ecoli_core_w_GAM 	 0.0685547
R_CS 	 19.7654
R_CYTBD 	 45.5041
B_R_ENO 	 10.5034
B_R_FBA 	 6.12712
R_FBP 	 6.85002
F_R_FUM 	 16.7778
F_R_G6PDH2r 	 0.900946
B_R_GAPD 	 10.4009
F_R_GLUDy 	 6.78618
R_GLUSy 	 1.44647
R_GND 	 0.2745
B_R_ICDHyr 	 5.62204
R_ICL 	 17.0498
B_R_LDH_D 	 6.6234
R_MALS 	 7.04979
F_R_MDH 	 23.2566
R_NADH16 	 28.4543
R_PDH 	 21.9788
R_PFL 	 5.09327
F_R_PGK 	 10.4009
F_R_PGM 	 10.5034
R_PPC 	 6.63129
R_PPS 	 16.1103
B_R_RPE 	 1.674
B_R_RPI 	 1.9485
R_SUCDi 	 17.0498
B_R_TALA 	 3.53621
F_R_TKT1 	 1.88696
B_R_TKT2 	 3.56095
B_R_TPI 	 6.12712
