F_R_ACONTa 	 19.6378
F_R_ACONTb 	 11.4055
F_R_ADK1 	 20.1532
F_R_ATPS4r 	 51.9197
R_CS 	 21.3178
R_CYTBD 	 50.7887
B_R_ENO 	 11.3443
B_R_FBA 	 6.90459
R_FBP 	 7.62749
F_R_FUM 	 15.1495
B_R_G6PDH2r 	 0.2745
B_R_GAPD 	 11.3722
F_R_GLUDy 	 5.696
R_GLUN 	 1.464
R_GND 	 0.2745
B_R_ICDHyr 	 5.696
R_ICL 	 15.4215
R_MALS 	 5.4215
F_R_MDH 	 20
R_NADH16 	 35.3672
R_PDH 	 26.7393
F_R_PGI 	 1.3195
F_R_PGK 	 11.3443
F_R_PGM 	 11.3443
R_PPC 	 11.3178
R_PPS 	 21.6022
B_R_RPE 	 2.1625
B_R_RPI 	 2.437
R_SUCDi 	 15.4215
B_R_TALA 	 4.5995
F_R_TKT1 	 2.437
B_R_TKT2 	 4.5995
B_R_TPI 	 6.90459
