F_R_ACONTa 	 16.0142
F_R_ACONTb 	 16.0142
F_R_ADK1 	 19.1626
F_R_ATPS4r 	 47.9629
R_CS 	 17.6942
R_CYTBD 	 44.3703
B_R_ENO 	 9.36877
B_R_FBA 	 4.77521
R_FBP 	 5.49811
F_R_FUM 	 9.728
F_R_G6PDH2r 	 6.79511
B_R_GAPD 	 9.55042
F_R_GLUDy 	 5.66584
R_GLUN 	 1.464
R_GND 	 0.2745
F_R_ICDHyr 	 4.33416
R_ICL 	 10
F_R_MDH 	 9.157
R_NADH16 	 34.3703
R_NADTRHD 	 17.0696
R_PDH 	 17.6942
B_R_PGI 	 5.75011
F_R_PGK 	 9.36877
F_R_PGM 	 9.36877
R_PPC 	 12.3028
R_PPS 	 20.6116
R_SUCDi 	 10
B_R_TPI 	 4.77521
