B_R_ACKr 	 10
F_R_ACONTa 	 14.0083
F_R_ACONTb 	 11.68
F_R_ADK1 	 22.8627
F_R_ATPS4r 	 45.3823
R_CS 	 15.6883
R_CYTBD 	 42.3059
B_R_ENO 	 9.38791
B_R_FBA 	 4.78797
R_FBP 	 5.51087
F_R_FUM 	 9.728
F_R_G6PDH2r 	 1.045
B_R_GAPD 	 9.57594
F_R_GLUDy 	 7.16
R_GLUSy 	 1.464
R_GND 	 0.2955
R_ICL 	 10
F_R_MDH 	 9.157
R_NADH16 	 32.3059
R_NADTRHD 	 7.0365
R_PDH 	 25.6883
F_R_PGK 	 9.38791
F_R_PGM 	 9.38791
R_PPC 	 15.9838
R_PPS 	 24.3117
F_R_PTAr 	 10
R_SUCDi 	 10
B_R_TALA 	 2.88144
B_R_TKT2 	 2.88144
B_R_TPI 	 4.78797
