F_R_ACONTa 	 19.15
F_R_ACONTb 	 17.6154
F_R_ADK1 	 21.7856
F_R_ATPS4r 	 58.2473
R_CS 	 20.83
R_CYTBD 	 56.1078
B_R_ENO 	 14.4071
B_R_FBA 	 8.1341
R_FBP 	 8.857
F_R_FUM 	 15.5781
F_R_G6PDH2r 	 10
B_R_GAPD 	 16.2682
F_R_GLUDy 	 5.696
R_GLUN 	 1.464
R_GND 	 0.2745
R_ICL 	 15.9354
R_MALS 	 5.93544
F_R_MDH 	 20.9425
R_NADH16 	 40.2578
R_NADTRHD 	 15.9705
R_PDH 	 19.613
R_PFL 	 7.15244
B_R_PGI 	 9.085
F_R_PGK 	 14.4071
F_R_PGM 	 14.4071
R_PPC 	 9.88748
R_PPS 	 23.2346
R_SUCDi 	 15.8501
B_R_TPI 	 8.1341
