F_R_ACONTa 	 18.8589
F_R_ACONTb 	 10.6125
F_R_ADK1 	 19.3884
F_R_ATPS4r 	 51.1972
R_CS 	 20.5389
R_CYTBD 	 50.4486
B_R_ENO 	 12.1514
B_R_FBA 	 7.37162
R_FBP 	 8.09452
F_R_FUM 	 15.546
F_R_G6PDH2r 	 0.915
B_R_GAPD 	 12.5194
F_R_GLUDy 	 7.16
R_GLUSy 	 1.464
R_GND 	 0.2745
B_R_ICDHyr 	 6.8855
R_ICL 	 15.818
R_MALS 	 5.818
F_R_MDH 	 20.793
R_NADH16 	 34.6306
R_PDH 	 26.3569
F_R_PGK 	 12.1514
F_R_PGM 	 12.1514
R_PPC 	 9.74594
R_PPS 	 20.8374
B_R_RPE 	 1.94938
B_R_RPI 	 2.22388
R_SUCDi 	 15.818
B_R_TALA 	 4.17326
F_R_TKT1 	 2.22388
B_R_TKT2 	 4.17326
B_R_TPI 	 7.37162
