M_glc__D_e	0	0	0	0	0	0	0	0	0	0	0	0	0	0	0	0	0	0	0	0	0	0	0	0	0	0	0	0	0	0	0	0	0	0	0	0	0	0	0	0	0	0	0	0	0	0	0	0	0	0	0	0	0	0	0	0	0	0	0	0	0	0	0	0	0	0	0	0	0	0	0	0	0	0	0	0	0	0	0	0	0	0	0	0	0	0	0	0	0	0	0	0	0	0	0	0	0	0	0	0	
M_gln__L_c	-1.464	-1.464	-1.464	-1.464	-1.464	-1.464	-1.464	-1.464	-1.464	-1.464	-1.464	-1.464	-1.464	-1.464	-1.464	-1.464	-1.464	-1.464	-1.464	-1.464	-1.464	-1.464	-1.464	-1.464	-1.464	-1.464	-1.464	-1.464	-1.464	-1.464	-1.464	-1.464	-1.464	-1.464	-1.464	-1.464	-1.464	-1.464	-1.464	-1.464	-1.464	-1.464	-1.464	-1.464	-1.464	-1.464	-1.464	-1.464	-1.464	-1.464	-1.464	-1.464	-1.464	-1.464	-1.464	-1.464	-1.464	-1.464	-0.888	-0.888	-1.464	-1.464	-0.888	-0.888	-1.464	-1.464	-0.888	-0.888	-1.27539	-1.27539	-1.464	-1.464	-1.464	-1.464	-1.464	-1.464	-1.464	-1.464	-0.888	-0.888	-0.985111	-0.985111	-0.888	-0.888	-0.888	-0.888	-0.888	-0.888	-0.888	-0.888	-0.983421	-0.888	-1.464	-1.464	-1.464	-1.464	-1.464	-1.464	-0.888	-1.464	
M_gln__L_e	0	0	0	0	0	0	0	0	0	0	0	0	0	0	0	0	0	0	0	0	0	0	0	0	0	0	0	0	0	0	0	0	0	0	0	0	0	0	0	0	0	0	0	0	0	0	0	0	0	0	0	0	0	0	0	0	0	0	0	0	0	0	0	0	0	0	0	0	0	0	0	0	0	0	0	0	0	0	0	0	0	0	0	0	0	0	0	0	0	0	0	0	0	0	0	0	0	0	0	0	
M_glu__L_c	-4.232	-4.232	-4.232	-4.232	-4.232	-4.232	-4.232	-4.232	-4.232	-4.232	-4.232	-4.232	-4.232	-4.232	-4.232	-4.232	-4.232	-4.232	-4.232	-4.232	-4.232	-4.232	-4.232	-4.232	-4.232	-4.232	-4.232	-4.232	-4.232	-4.232	-4.232	-4.232	-4.232	-4.232	-4.232	-4.232	-4.232	-4.232	-4.232	-4.232	-4.232	-4.232	-4.232	-4.232	-4.232	-4.232	-4.232	-4.232	-4.232	-4.232	-4.232	-4.232	-4.232	-4.232	-4.232	-4.232	-4.232	-4.232	-3.908	-3.908	-4.232	-4.232	-3.908	-3.908	-4.232	-4.232	-3.908	-3.908	-3.908	-3.908	-4.232	-4.232	-4.232	-4.232	-4.20184	-4.20184	-4.232	-4.232	-3.908	-3.908	-3.908	-3.908	-3.908	-3.908	-3.908	-3.908	-3.908	-4.03843	-3.908	-4.03843	-3.908	-4.00342	-4.232	-4.232	-3.97478	-3.97478	-3.97478	-3.97478	-3.908	-4.232	
M_glu__L_e	0	0	0	0	0	0	0	0	0	0	0	0	0	0	0	0	0	0	0	0	0	0	0	0	0	0	0	0	0	0	0	0	0	0	0	0	0	0	0	0	0	0	0	0	0	0	0	0	0	0	0	0	0	0	0	0	0	0	0	0	0	0	0	0	0	0	0	0	0	0	0	0	0	0	0	0	0	0	0	0	0	0	0	0	0	0	0	0	0	0	0	0	0	0	0	0	0	0	0	0	
M_glx_c	10	10	10	10	10	10	10	10	10	10	10	10	10	10	10	10	10	10	10	10	10	10	9.99849	9.99849	10	10	10	10	10	10	10	10	10	10	10	10	10	10	10	10	10	10	10	10	10	10	10	10	10	10	10	10	10	10	0	0	10	10	8.16708	8.16708	10	10	4.32973	4.66779	10	10	9.07603	9.07603	6.30187	6.30187	10	10	10	10	10	10	10	10	8.60578	8.60579	5.57618	5.57618	0	0	10	10	10	10	10	10	10	10	0	0	10	10	10	10	8.2022	10	
M_h2o_c	3.232	3.232	10	10	0.0921893	0.0921893	10	10	10	10	10	10	0	0	5.39664	5.39664	10	10	10	10	1.23692	1.23692	0	0	0.152684	0.152684	9.86136	9.86136	2.04172	2.04172	10	10	1.45327	1.45327	10	10	10	10	10	10	10	10	10	10	6.27296	6.27296	10	10	10	10	5.96312	5.96312	10	10	7.87801	7.87801	5.49868	5.49868	0	0	2.46036	2.46036	3.6588	3.32074	10	10	0	0	1.43471	1.43471	2.24589	2.24589	10	10	10	10	1.65744	1.65744	0	0	2.62484	2.62484	5.1755	5.1755	3.6588	3.6588	3.75382	1.08445	3.75382	1.08445	3.32382	3.41924	0	0	5.39183	5.39183	5.39183	5.39183	0	2.2114	
M_h2o_e	0	0	0	0	0	0	0	0	0	0	0	0	0	0	0	0	0	0	0	0	0	0	0	0	0	0	0	0	0	0	0	0	0	0	0	0	0	0	0	0	0	0	0	0	0	0	0	0	0	0	0	0	0	0	0	0	0	0	0	0	0	0	0	0	0	0	0	0	0	0	0	0	0	0	0	0	0	0	0	0	0	0	0	0	0	0	0	0	0	0	0	0	0	0	0	0	0	0	0	0	
M_h_c	4.36063	4.36063	4.98732	4.98732	6.79669	6.79669	7.99852	7.99852	9.70852	9.70852	9.46102	9.46102	7.43102	7.43102	6.14327	6.14327	7.7495	7.7495	9.86564	9.86564	9.2135	9.2135	1.03729	1.03729	6.98718	6.98718	6.22341	6.22341	8.74622	8.74622	7.3484	7.3484	9.20277	9.20277	10	10	7.29921	7.29921	8.63249	8.63249	6.8345	6.8345	9.67301	9.67301	5.80494	5.80494	8.04365	8.04365	7.7495	7.7495	8.49943	8.49943	6.7045	6.7045	10	10	8.88647	8.88647	10	10	0.209857	0.209857	8.7914	8.7914	8.82331	8.82331	10	10	8.99559	8.99559	8.92939	8.92939	0	0	0.954388	0.954388	9.38594	9.38594	10	10	8.85046	8.85046	10	10	9.2762	9.2762	9.78442	7.19195	9.78442	7.19195	10	10	10	10	10	10	10	10	10	8.8949	
M_h_e	0	0	0	0	0	0	0	0	0	0	0	0	0	0	0	0	0	0	0	0	0	0	0	0	0	0	0	0	0	0	0	0	0	0	0	0	0	0	0	0	0	0	0	0	0	0	0	0	0	0	0	0	0	0	0	0	0	0	0	0	0	0	0	0	0	0	0	0	0	0	0	0	0	0	0	0	0	0	0	0	0	0	0	0	0	0	0	0	0	0	0	0	0	0	0	0	0	0	0	0	
M_icit_c	1.68	1.68	1.68	1.68	1.68	1.68	1.68	1.68	1.68	1.68	1.68	1.68	1.68	1.68	1.68	1.68	1.68	1.68	1.68	1.68	1.68	1.68	1.68	1.68	1.68	1.68	1.68	1.68	1.68	1.68	1.68	1.68	1.68	1.68	1.68	1.68	1.68	1.68	1.68	1.68	1.68	1.68	1.68	1.68	1.68	1.68	1.68	1.68	1.68	1.68	1.68	1.68	1.68	1.68	1.68	1.68	1.68	1.68	1.68	1.68	1.68	1.68	1.68	1.68	1.68	1.68	1.68	1.68	1.68	1.68	1.68	1.68	1.68	1.68	1.68	1.68	1.68	1.68	1.68	1.68	1.68	1.68	1.68	1.68	1.68	1.68	1.68	1.68	1.68	1.68	1.68	1.68	1.68	1.68	1.68	1.68	1.68	1.68	1.68	1.68	
M_lac__D_c	10	10	0	0	10	10	0	0	0	0	0	0	9.68152	9.68152	10	10	0	0	0	0	10	10	7.755	7.755	10	10	0	0	10	10	0	0	10	10	0	0	0	0	0	0	0	0	0	0	0	0	5.36747	5.36747	0	0	0	0	0	0	0	0	0	0	10	10	0	0	10	10	0	0	10	10	10	10	0	0	0	0	0	0	0	0	10	10	10	10	10	10	10	10	10	10	10	10	10	10	9.06251	9.06251	10	10	10	10	9.99996	10	
M_lac__D_e	0	0	0	0	0	0	0	0	0	0	0	0	0	0	0	0	0	0	0	0	0	0	0	0	0	0	0	0	0	0	0	0	0	0	0	0	0	0	0	0	0	0	0	0	0	0	0	0	0	0	0	0	0	0	0	0	0	0	0	0	0	0	0	0	0	0	0	0	0	0	0	0	0	0	0	0	0	0	0	0	0	0	0	0	0	0	0	0	0	0	0	0	0	0	0	0	0	0	0	0	
M_mal__L_c	0.571	0.571	0.571	0.571	0.571	0.571	0.571	0.571	0.571	0.571	0.571	0.571	0.571	0.571	0.571	0.571	0.571	0.571	0.571	0.571	0.571	0.571	0.571	0.571	0.571	0.571	0.571	0.571	0.571	0.571	0.571	0.571	0.571	0.571	0.571	0.571	0.571	0.571	0.571	0.571	0.571	0.571	0.571	0.571	0.571	0.571	0.571	0.571	0.571	0.571	0.571	0.571	0.571	0.571	0.571	0.571	0.571	0.571	0.571	0.571	0.571	0.571	0.571	0.571	0.571	0.571	0.571	0.571	0.571	0.571	0.571	0.571	0.571	0.571	0.571	0.571	0.571	0.571	0.571	0.571	0.571	0.571	0.571	0.571	0.571	0.571	0.571	0.571	0.571	0.571	0.571	0.571	0.571	0.571	0.571	0.571	0.571	0.571	0.571	0.571	
M_mal__L_e	0	0	0	0	0	0	0	0	0	0	0	0	0	0	0	0	0	0	0	0	0	0	0	0	0	0	0	0	0	0	0	0	0	0	0	0	0	0	0	0	0	0	0	0	0	0	0	0	0	0	0	0	0	0	0	0	0	0	0	0	0	0	0	0	0	0	0	0	0	0	0	0	0	0	0	0	0	0	0	0	0	0	0	0	0	0	0	0	0	0	0	0	0	0	0	0	0	0	0	0	
M_nad_c	0	0	0	0	0	0	0	0	0	0	0	0	0	0	0	0	0	0	0	0	0	0	0	0	0	0	0	0	0	0	0	0	0	0	0	0	0	0	1e-09	1e-09	0	0	0	0	0	0	0	0	0	0	0	0	0	0	0	0	0	0	0	0	0	0	0	0	-1e-09	-1e-09	0	0	0	0	0	0	0	-1e-09	0	-1e-09	0	0	0	-1e-09	0	0	0	0	0	-1e-09	0	0	0	0	0	0	0	0	0	0	0	1e-09	0	0	
M_13dpg_c	-0.0945386	-0.0945386	-1.8611	-1.8611	0.446809	0.446809	-0.397228	-0.397228	-0.0172289	-0.0172289	-0.0722289	-0.0722289	-0.111006	-0.111006	-0.285536	-0.285536	-0.103772	-0.103772	-0.645703	-0.645703	0.2055	0.2055	0	0	-0.275915	-0.275915	-0.311142	-0.311142	0.292899	0.292899	-1.12957	-1.12957	0.394355	0.394355	-0.434042	-0.434042	0	0	0	0	-0.367921	-0.367921	-0.790176	-0.790176	-0.882358	-0.882358	0.689742	0.689742	-0.44195	-0.44195	0	0	-0.570565	-0.570565	0.412645	0.412645	0	0	0	0	-3.00561	-3.00561	0	0	0	0	0	0	0	0	-0.188036	-0.188036	-1.43135	-1.43135	-0.181656	-0.181656	-0.0865796	-0.0865796	0	0	0	0	0	0	0	0	0	0	0	0	0	0	0	0	0	0	0	0	0	1.39363	
M_nadh_c	0	0	0	0	0	0	0	0	0	0	0	0	0	0	0	0	0	0	0	0	0	0	0	0	0	0	0	0	0	0	0	0	0	0	0	0	0	0	-9.99998e-10	-9.99998e-10	0	0	0	0	0	0	0	0	0	0	0	0	0	0	0	0	0	0	0	0	0	0	0	0	1.00001e-09	1.00001e-09	0	0	0	0	0	0	0	1.00001e-09	0	1e-09	0	0	0	1e-09	0	0	0	0	0	1e-09	0	0	0	0	0	0	0	0	0	0	0	-9.99997e-10	0	0	
M_nadp_c	0	0	-1.77636e-15	0	0	0	0	0	0	0	0	0	0	-8.88178e-16	0	-1.77636e-15	0	8.88178e-16	0	-6.30607e-14	0	0	0	-1.77636e-15	-3.55271e-15	1.77636e-15	-3.55271e-15	0	0	0	3.55271e-15	0	0	0	0	-2.34479e-13	0	1.77636e-15	0	-1.77636e-15	0	0	0	1.77636e-15	0	0	0	0	8.88178e-16	0	1.77636e-14	0	0	1.77636e-15	0	-1.77636e-15	0	1.77636e-15	-1.77636e-15	-1.77636e-15	0	-3.55271e-15	-1.77636e-15	0	9.9476e-14	3.55271e-15	-1.77636e-15	-1.77636e-15	-1.77636e-15	1.77636e-15	0	8.88178e-16	1.77636e-15	0	-3.55271e-15	7.10543e-15	0	0	0	0	0	0	0	0	0	0	0	0	-8.88178e-15	0	-1.77636e-15	0	0.0650091	0.0650091	0.550217	0.550217	0.550217	0.550217	-1.77636e-15	0	
M_nadph_c	0	0	1.77636e-15	0	0	0	0	0	0	0	0	0	0	8.88178e-16	0	1.77636e-15	0	-8.88178e-16	0	6.30607e-14	0	0	0	1.77636e-15	3.55271e-15	-1.77636e-15	3.55271e-15	0	0	0	-3.55271e-15	0	0	0	0	2.34479e-13	0	-1.77636e-15	0	1.77636e-15	0	0	0	-1.77636e-15	0	0	0	0	-8.88178e-16	0	-1.77636e-14	0	0	-1.77636e-15	0	1.77636e-15	0	-1.77636e-15	1.77636e-15	1.77636e-15	0	3.55271e-15	1.77636e-15	0	-9.9476e-14	-3.55271e-15	1.77636e-15	1.77636e-15	1.77636e-15	-1.77636e-15	0	-8.88178e-16	-1.77636e-15	0	3.55271e-15	-7.10543e-15	0	0	0	0	0	0	0	0	0	0	0	0	8.88178e-15	0	1.77636e-15	0	-0.0650091	-0.0650091	-0.550217	-0.550217	-0.550217	-0.550217	1.77636e-15	0	
M_nh4_c	7.16	7.16	7.16	7.16	7.16	7.16	7.16	7.16	7.16	7.16	7.16	7.16	7.16	7.16	7.16	7.16	7.16	7.16	7.16	7.16	6.78618	6.78618	7.16	7.16	7.16	7.16	7.16	7.16	7.16	7.16	7.16	7.16	7.16	7.16	6.78618	6.78618	7.16	7.16	7.16	7.16	7.16	7.16	7.16	7.16	7.16	7.16	7.16	7.16	7.16	7.16	7.16	7.16	7.16	7.16	7.16	7.16	7.16	7.16	5.684	5.684	7.16	7.16	5.684	5.684	7.16	7.16	5.684	5.684	6.45878	6.45878	7.16	7.16	7.16	7.16	7.12984	7.12984	7.16	7.16	5.684	5.684	5.87822	5.87822	5.684	5.684	5.684	5.684	5.05536	5.81443	5.05536	5.81443	5.22296	5.12754	7.16	7.16	6.90278	6.90278	6.90278	6.90278	5.684	7.16	
M_nh4_e	0	0	0	0	0	0	0	0	0	0	0	0	0	0	0	0	0	0	0	0	0	0	0	0	0	0	0	0	0	0	0	0	0	0	0	0	0	0	0	0	0	0	0	0	0	0	0	0	0	0	0	0	0	0	0	0	0	0	0	0	0	0	0	0	0	0	0	0	0	0	0	0	0	0	0	0	0	0	0	0	0	0	0	0	0	0	0	0	0	0	0	0	0	0	0	0	0	0	0	0	
M_2pg_c	0	0	0	0	0	0	0	0	0	0	0	0	0	0	0	0	0	0	0	0	0	0	0	0	0	0	0	0	0	0	0	0	0	0	0	0	0	0.594713	0.882989	0.882989	0	0	0	0	0	0	0	0	0	0	0	0	0	0	0	0	0	0	4.22748	4.22748	0	0	0	0	0	0	3.11653	3.11653	0	0	0	0	0	0	0	0	0	0	3.69128	3.69128	0	0	2.0519	2.0519	0.4848	0.4848	0	0	0	0	0	0	1.7859	1.7859	0	0	0	0	3.55995	0	
M_o2_c	-21.977	-21.977	-28.0539	-28.0539	-20.6777	-20.6777	-25.2096	-25.2096	-25.3996	-25.3996	-25.3721	-25.3721	-20.3527	-20.3527	-22.9638	-22.9638	-25.3564	-25.3564	-25.0854	-25.0854	-20.9266	-20.9266	-23.1739	-23.1739	-20.3466	-20.3466	-24.8949	-24.8949	-21.5756	-21.5756	-28.9884	-28.9884	-21.3321	-21.3321	-24.9884	-24.9884	-25.7056	-25.7056	-25.8497	-25.8497	-25.2243	-25.2243	-25.0132	-25.0132	-22.8193	-22.8193	-22.6209	-22.6209	-25.1873	-25.1873	-23.3898	-23.3898	-25.123	-25.123	-19.4053	-19.4053	-23.1576	-23.1576	-17.2688	-17.2688	-25.1356	-25.1356	-18.654	-18.654	-25.4083	-25.4083	-17.6223	-17.6223	-18.9259	-18.9259	-21.1529	-21.1529	-24.5507	-24.5507	-22.1852	-22.1852	-20.9094	-20.9094	-17.4394	-17.4394	-18.8679	-18.8679	-17.4189	-17.4189	-19.0598	-19.0598	-19.4758	-18.7685	-19.4758	-18.7685	-19.4311	-19.4311	-14.504	-14.504	-22.1779	-22.1779	-22.1779	-22.1779	-16.9702	-19.0785	
M_3pg_c	0	0	0	0	0	0	0	0	0	0	0	0	0	0	0	0	0	0	0	0	0	0	0	0	0	0	0	0	0	0	0	0	0	0	0	0	0.594713	0	0	0	0	0	0	0	0	0	0	0	0	0	0	0	0	0	0	0	0	0	0	0	0	0	0	0	0	0	0	0	0	0	0	0	0	0	0	0	0	0	0	0	0	0	0	0	0	0	-0.172471	0	-0.172471	0	-0.178846	-0.178846	0	0	0	0	0	0	0	0	
M_o2_e	0	0	0	0	0	0	0	0	0	0	0	0	0	0	0	0	0	0	0	0	0	0	0	0	0	0	0	0	0	0	0	0	0	0	0	0	0	0	0	0	0	0	0	0	0	0	0	0	0	0	0	0	0	0	0	0	0	0	0	0	0	0	0	0	0	0	0	0	0	0	0	0	0	0	0	0	0	0	0	0	0	0	0	0	0	0	0	0	0	0	0	0	0	0	0	0	0	0	0	0	
M_oaa_c	10	10	10	10	10	10	10	10	10	10	10	10	10	10	10	10	10	10	10	10	10	10	10	10	10	10	9.44414	9.44414	10	10	10	10	10	10	10	10	10	10	10	10	10	10	10	10	9.4525	9.4525	3.7565	3.7565	10	10	10	10	10	10	9.7245	9.7245	10	10	7.17118	7.17118	10	10	10	10	10	10	7.82765	7.82765	10	10	9.4525	9.4525	10	10	3.76566	3.76566	9.4525	9.4525	7.48802	7.48802	10	10	10	10	4.6565	4.6565	8.41136	7.00266	8.41136	7.00266	8.44201	8.44201	9.17054	9.17054	8.42562	8.42562	8.42562	8.42562	7.46982	3.7565	
M_6pgc_c	-0.2745	-0.2745	-0.2745	-0.2745	-0.2745	-0.2745	-0.2745	-0.2745	-0.2745	-0.2745	-0.2745	-0.2745	-0.2745	-0.2745	-0.2745	-0.2745	-0.2745	-0.2745	-0.2745	-0.2745	-0.2745	-0.2745	-0.2745	-0.2745	-0.2745	-0.2745	-0.2955	-0.2955	-0.2745	-0.2745	-0.2745	-0.2745	-0.2745	-0.2745	-0.2745	-0.2745	-0.2745	-0.2745	-0.2745	-0.2745	-0.2745	-0.2745	-0.2745	-0.2745	-0.2955	-0.2955	-0.2955	-0.2955	-0.2745	-0.2745	-0.2745	-0.2745	-0.2745	-0.2745	-0.2955	-0.2955	-0.2745	-0.2745	-0.2955	-0.2955	-0.2745	-0.2745	-0.2955	-0.2955	-0.2745	-0.2745	-0.2955	-0.2955	-0.2745	-0.2745	-0.2955	-0.2955	-0.2745	-0.2745	-0.2745	-0.2745	-0.2955	-0.2955	-0.2955	-0.2955	-0.2745	-0.2745	-0.2955	-0.2955	-0.2955	-0.2955	-0.2955	-0.2955	-0.2955	-0.2955	-0.2955	-0.2955	-0.2955	-0.2955	-0.2955	-0.2955	-0.2955	-0.2955	-0.2955	-0.2955	
M_pep_c	-1.06	-1.06	-1.06	-1.06	-1.06	-1.06	-1.06	-1.06	-1.06	-1.06	-1.06	-1.06	-1.06	-1.06	-1.06	-1.06	-1.06	-1.06	-1.06	-1.06	-1.06	-1.06	-1.06	-1.06	-1.06	-1.06	-1.06	-1.06	-1.06	-1.06	-1.06	-1.06	-1.06	-1.06	-1.06	-1.06	-1.06	-1.06	-1.06	-1.06	-1.06	-1.06	-1.06	-1.06	-1.06	-1.06	-1.06	-1.06	-1.06	-1.06	-1.06	-1.06	-1.06	-1.06	-1.06	-1.06	-1.06	-1.06	-1.06	-1.06	-1.06	-1.06	-1.06	-1.06	-1.06	-1.06	-1.06	-1.06	-1.06	-1.06	-1.06	-1.06	-1.06	-1.06	-1.06	-1.06	-1.06	-1.06	-1.06	-1.06	-1.06	-1.06	-1.06	-1.06	-1.06	-1.06	-1.06	-1.06	-1.06	-1.06	-1.06	-1.06	-1.06	-1.06	-1.06	-1.06	-1.06	-1.06	-1.06	-1.06	
M_6pgl_c	6.62088	6.62088	10	10	1.045	1.045	7.21999	7.21999	0	0	1.045	1.045	0	0	7.00287	7.00287	4.02003e-13	0	0	1.24093e-12	0.900946	0.900946	10	10	0.915	0.915	7.05408	7.05408	1.045	1.045	8.69093	8.69093	0	0	0.900946	0.900946	1.045	1.045	0	0	0.915	0.915	0.915	0.915	8.19652	8.19652	5.05232	5.05232	0	0	1.045	1.045	1.045	1.045	5.60651	5.60651	0	0	2.0199	2.0199	10	10	2.0199	2.0199	6.2778	6.2778	0	0	0	0	1.045	1.045	9.14049	9.14049	6.79511	6.79511	0	0	1.045	1.045	1.045	1.045	2.0199	2.0199	2.0199	2.0199	1.94647	1.045	1.94647	1.045	0	0	2.0199	2.0199	2.0199	2.0199	2.0199	2.0199	1.3172	1.045	
M_pi_c	0	0	0	0	0	1e-09	0	0	0	0	0	0	0	0	0	0	0	0	0	0	0	0	-3.7222	-3.7222	0	0	0	0	1e-09	0	0	0	0	0	0	0	0	0	1e-09	1e-09	0	0	0	0	0	0	0	0	0	0	0	0	0	0	0	0	0	0	0	0	0	0	0	0	1e-09	1e-09	0	0	0	0	0	0	0	-1e-09	0	-1e-09	0	-1e-09	0	0	0	0	0	0	0	1e-09	1.72605	0	1.72605	0	0	0	0	0	0	0	0	0	0	0	
M_ac_c	0	0	0	0	0	0	0	0	0	0	0	0	0	0	0	0	0	0	0	0	0	0	0	0	0	0	5.68764	5.68764	0	0	0	0	0	0	0	0	0	0	0	0	0	0	0	0	10	10	0	0	0	0	5.83181	5.83181	0	0	0	0	5.63829	5.63829	0	0	0	0	0	0	0	0	0	0	0	0	10	10	0	0	0	0	10	10	0	0	0	0	0	0	0	0	0	0	0	0	0	0	0	0	0	0	0	0	0	0	
M_pi_e	0	0	0	0	0	0	0	0	0	0	0	0	0	0	0	0	0	0	0	0	0	0	0	0	0	0	0	0	0	0	0	0	0	0	0	0	0	0	0	0	0	0	0	0	0	0	0	0	0	0	0	0	0	0	0	0	0	0	0	0	0	0	0	0	0	0	0	0	0	0	0	0	0	0	0	0	0	0	0	0	0	0	0	0	0	0	0	0	0	0	0	0	0	0	0	0	0	0	0	0	
M_pyr_c	-50	-50	-50	-50	-50	-50	-50	-50	-50	-50	-50	-50	-50	-50	-50	-50	-48.0787	-48.0787	-50	-50	-50	-50	-47.6397	-47.6397	-50	-50	-50	-50	-50	-50	-50	-50	-50	-50	-47.3289	-47.3289	-46.3568	-46.3568	-47.5819	-47.5819	-47.1943	-47.1943	-50	-50	-50	-50	-50	-50	-44.6202	-44.6202	-50	-50	-43.6877	-43.6877	-46.7351	-46.7351	-50	-50	-50	-50	-42.2021	-42.2021	-50	-50	-47.2086	-47.2086	-50	-50	-50	-50	-50	-50	-37.3303	-37.3303	-38.3057	-38.3057	-50	-50	-50	-50	-50	-50	-49.3715	-49.3715	-50	-50	-50	-50	-50	-50	-50	-50	-50	-50	-48.463	-48.4629	-48.4629	-48.463	-50	-50	
M_pyr_e	0	0	0	0	0	0	0	0	0	0	0	0	0	0	0	0	0	0	0	0	0	0	0	0	0	0	0	0	0	0	0	0	0	0	0	0	0	0	0	0	0	0	0	0	0	0	0	0	0	0	0	0	0	0	0	0	0	0	0	0	0	0	0	0	0	0	0	0	0	0	0	0	0	0	0	0	0	0	0	0	0	0	0	0	0	0	0	0	0	0	0	0	0	0	0	0	0	0	0	0	
M_q8_c	0	1.77636e-15	-3.55271e-15	-3.55271e-15	0	1.77636e-15	1.77636e-15	-3.55271e-15	0	0	0	0	3.55271e-15	-3.55271e-15	1.77636e-15	-1.77636e-15	1.77636e-15	0	0	0	0	1.77636e-15	0	0	1.77636e-15	-3.55271e-15	-1.77636e-15	-1.77636e-15	0	3.55271e-15	0	0	-1.77636e-14	0	3.55271e-15	0	-1.77636e-15	-1.77636e-15	-1.77636e-15	-1.77636e-15	0	3.55271e-15	0	0	0	0	0	-1.77636e-15	-3.55271e-15	3.55271e-15	-1.77636e-15	-1.77636e-15	3.55271e-15	-1.77636e-15	0	0	-1.77636e-15	-1.77636e-15	-3.55271e-15	3.55271e-15	3.55271e-15	0	-7.10543e-15	0	-3.55271e-15	1.77636e-15	3.55271e-15	1.77636e-15	-3.55271e-15	3.55271e-15	-1.77636e-15	-1.77636e-15	0	-1.77636e-15	-1.77636e-15	-1.77636e-15	-1.77636e-15	-1.77636e-15	0	-1.77636e-15	1.77636e-15	0	8.88178e-16	2.66454e-15	-1.77636e-15	-1.77636e-15	-1.77636e-15	-1.77636e-15	-1.77636e-15	1.77636e-15	-1.77636e-15	0	0	0	-1.77636e-15	-1.77636e-15	0	-1.77636e-15	-3.55271e-15	0	
M_ac_e	0	0	0	0	0	0	0	0	0	0	0	0	0	0	0	0	0	0	0	0	0	0	0	0	0	0	0	0	0	0	0	0	0	0	0	0	0	0	0	0	0	0	0	0	0	0	0	0	0	0	0	0	0	0	0	0	0	0	0	0	0	0	0	0	0	0	0	0	0	0	0	0	0	0	0	0	0	0	0	0	0	0	0	0	0	0	0	0	0	0	0	0	0	0	0	0	0	0	0	0	
M_q8h2_c	0	-1.77636e-15	3.55271e-15	3.55271e-15	0	-1.77636e-15	-1.77636e-15	3.55271e-15	0	0	0	0	-3.55271e-15	3.55271e-15	-1.77636e-15	1.77636e-15	-1.77636e-15	0	0	0	0	-1.77636e-15	0	0	-1.77636e-15	3.55271e-15	1.77636e-15	1.77636e-15	0	-3.55271e-15	0	0	1.77636e-14	0	-3.55271e-15	0	1.77636e-15	1.77636e-15	1.77636e-15	1.77636e-15	0	-3.55271e-15	0	0	0	0	0	1.77636e-15	3.55271e-15	-3.55271e-15	1.77636e-15	1.77636e-15	-3.55271e-15	1.77636e-15	0	0	1.77636e-15	1.77636e-15	3.55271e-15	-3.55271e-15	-3.55271e-15	0	7.10543e-15	0	3.55271e-15	-1.77636e-15	-3.55271e-15	-1.77636e-15	3.55271e-15	-3.55271e-15	1.77636e-15	1.77636e-15	0	1.77636e-15	1.77636e-15	1.77636e-15	1.77636e-15	1.77636e-15	0	1.77636e-15	-1.77636e-15	0	-8.88178e-16	-2.66454e-15	1.77636e-15	1.77636e-15	1.77636e-15	1.77636e-15	1.77636e-15	-1.77636e-15	1.77636e-15	0	0	0	1.77636e-15	1.77636e-15	0	1.77636e-15	3.55271e-15	0	
M_acald_c	0	0	0	0	0	0	0	0	0	0	0	0	0	0	0	0	0	0	0	0	0	0	0	0	0	0	0	0	0	0	0	0	0	0	0	0	0	0	0	0	0	0	0	0	0	0	0	0	0	0	0	0	0	0	0	0	0	0	3.52326	3.52326	0	0	0	0	0	0	3.06878	3.06878	0	0	0	0	0	0	0	0	0	0	3.30391	3.30391	0	0	1.70904	1.70904	0	0	3.40438	0	3.40438	0	1.52766	1.52766	2.74403	2.74403	0	0	0	0	3.85707	0	
M_r5p_c	0	0	0	0	0	0	0	0	0	0	0	0	0	0	0	0	0	0	0	0	-0.0615416	-0.0615416	0	0	0	0	0	0	0	0	0	0	0	0	-0.0615416	-0.0615416	0	0	0	0	0	0	0	0	0	0	0	0	0	0	0	0	0	0	0	0	0	0	0	0	0	0	0	0	0	0	0	0	0	0	0	0	0	0	0	0	0	0	0	0	0	0	0	0	0	0	-0.103494	0	-0.103494	0	-0.10732	-0.10732	0	0	0	0	0	0	0	0	
M_acald_e	0	0	0	0	0	0	0	0	0	0	0	0	0	0	0	0	0	0	0	0	0	0	0	0	0	0	0	0	0	0	0	0	0	0	0	0	0	0	0	0	0	0	0	0	0	0	0	0	0	0	0	0	0	0	0	0	0	0	0	0	0	0	0	0	0	0	0	0	0	0	0	0	0	0	0	0	0	0	0	0	0	0	0	0	0	0	0	0	0	0	0	0	0	0	0	0	0	0	0	0	
M_ru5p__D_c	0.2745	0.2745	0.2745	0.2745	0.2745	0.2745	0.2745	0.2745	0.2745	0.2745	0.2745	0.2745	0.2745	0.2745	0.2745	0.2745	0	0	0.2745	0.2745	0.2745	0.2745	0.2745	0.2745	0.2745	0.2745	0.2955	0.2955	0.2745	0.2745	0.2745	0.2745	0.2745	0.2745	0.2745	0.2745	0.2745	0.2745	0.2745	0.2745	0	0	0.2745	0.2745	0.2955	0.2955	0.2955	0.2955	0.2745	0.2745	0.2745	0.2745	0.2745	0.2745	0.2955	0.2955	0.2745	0.2745	0.2955	0.2955	0.2745	0.2745	0.2955	0.2955	0.2745	0.2745	0.2955	0.2955	0.2745	0.2745	0.2955	0.2955	0.2745	0.2745	0.2745	0.2745	0.2955	0.2955	0.2955	0.2955	0.2745	0.2745	0.2955	0.2955	0.2955	0.2955	0.2955	0.2955	0.2955	0.2955	0.2955	0.2955	0.2955	0.2955	0.2955	0.2955	0.2955	0.2955	0.2955	0.2955	
M_accoa_c	1.77636e-15	7.10543e-15	1.42109e-14	1.42109e-14	1.77636e-15	7.10543e-15	1.77636e-15	8.88178e-16	1.77636e-15	1.77636e-15	1.77636e-15	1.77636e-15	-1.77636e-15	-5.32907e-15	-3.55271e-15	0	5.32907e-15	-3.55271e-15	1.77636e-15	-1.77636e-15	-3.55271e-15	4.44089e-15	0	0	3.55271e-15	5.32907e-15	0	0	0	0	0	0	0	0	-2.66454e-15	1.77636e-15	0	0	0	0	-5.32907e-15	3.55271e-15	-1.77636e-15	3.55271e-15	0	0	0	0	0	0	0	3.55271e-15	-3.55271e-15	0	0	0	0	0	0	0	0	-1.77636e-15	1.33227e-15	-2.66454e-15	0	0	0	0	-7.10543e-15	1.77636e-15	0	0	0	0	0	0	0	0	0	0	1.06581e-14	-1.77636e-15	0	0	0	0	1.33227e-15	7.10543e-15	1.11022e-15	0	-2.09832e-14	1.9984e-15	0	1.77636e-15	0	0	0	3.55271e-15	0	0	
M_s7p_c	0	0	0	0	2.24659	2.24659	0	0	3.23313	3.23313	2.76563	2.76563	3.32691	3.32691	0	0	6.91384	6.91384	3.8616	3.8616	2.38723	2.38723	0	0	2.96931	2.96931	0	0	2.4005	2.4005	0	0	2.82155	2.82155	3.02677	3.02677	2.39604	2.39604	2.77441	2.77441	6.39714	6.39714	3.48358	3.48358	0	0	0	0	3.65785	3.65785	2.47705	2.47705	3.26397	3.26397	0	0	2.9028	2.9028	0	0	1.22151	1.22151	0	0	0	0	1.00995	1.00995	1.00995	1.00995	2.88144	2.88144	0	0	0	0	3.30248	3.30248	0.48745	0.48745	0.48745	0.48745	0	0	0	0	0	1.4551	0	1.4551	0.971879	0.971879	0	0	0	0	0	0	0	1.29977	
M_succ_c	0	0	0.0853786	0.0853786	0	0	7.46901	7.46901	1.95902	1.95902	2.75652	2.75652	0	0	0	0	8.47322e-13	8.49099e-13	2.11614	2.11614	0	0	0	0	0	0	0	0	1.82965e-12	8.88178e-16	8.88178e-16	-8.88178e-16	8.88178e-16	-8.88178e-16	2.02343	2.02343	4.44089e-16	0	0	0	0	0	2.83851	2.83851	0	0	0	0	8.88178e-16	8.88178e-16	0	0	8.88178e-16	5.32907e-15	10	10	0	0	0	4.54747e-13	0	0	0	0.338056	7.35161	7.35161	0	0	0	0	0	0	1.10725	1.10725	0	0	-9.7522e-13	0	-1.77636e-15	1.77636e-15	0	0	0	0	0	0	0	0	0	0	0	0	6.199	6.199	0	0	0	0	0	0	
M_acon_C_c	0.433376	0.433376	1.53454	1.53454	1.2454	1.2454	0	0	4.24333	4.24333	3.62916	3.62916	5.54333	5.54333	4.55042	4.55042	8.23623	8.23623	8.17129	8.17129	5.38993	5.38993	0	0	5.89923	5.89923	0	0	5.41807	5.41807	0	0	5.57026	5.57026	6.74611	6.74611	0.464254	0.464254	1.22098	1.22098	8.24644	8.24644	8.2355	8.2355	1.28681	1.28681	4.50523	4.50523	6.6259	6.6259	0.333041	0.333041	5.96675	5.96675	1.59686	1.59686	0.526559	0.526559	0	0	0.247833	0.247833	0.338056	0	0	0	0	0	0	0	2.3283	2.3283	1.14909	1.14909	0	0	2.48048	2.48048	0	0	0	0	2.07736	2.07736	2.0103	2.0103	0	0	0	0	0	0	0	0	0	0	0	0	0	3.2448	
M_succ_e	0	0	0	0	0	0	0	0	0	0	0	0	0	0	0	0	0	0	0	0	0	0	0	0	0	0	0	0	0	0	0	0	0	0	0	0	0	0	0	0	0	0	0	0	0	0	0	0	0	0	0	0	0	0	0	0	0	0	0	0	0	0	0	0	0	0	0	0	0	0	0	0	0	0	0	0	0	0	0	0	0	0	0	0	0	0	0	0	0	0	0	0	0	0	0	0	0	0	0	0	
M_actp_c	0	0	0	0	0	0	0	0	0	0	0	0	0	0	0	0	0	0	0	0	0	0	0	0	0	0	0	0	0	0	0	0	0	0	0	0	0	0	0	0	0	0	0	0	0	0	0	0	0	0	0.432691	0.432691	0	0	0	0	0.626209	0.626209	0	0	0	0	0	0	0	0	0	0	0	0	0	0	0	0	0	0	0	0	0	0	0	0	0	0	0	0	0	2.47659	0	2.47659	1.98984	1.98984	0	0	4.4119	4.4119	4.4119	4.4119	0	0	
M_succoa_c	0	0	0	0	0	0	0	0	0	0	0	0	0	0	0	0	0	0	0	0	0	0	0	0	0	0	0	0	0	0	0	0	0	0	0	0	-4.44089e-16	0	0	0	0	0	0	0	0	0	0	0	0	0	0	0	0	0	0	0	0	0	0	0	0	0	0	0	0	0	0	0	0	0	0	0	0	0	0	0	0	0	0	0	0	0	-8.88178e-16	8.88178e-16	0	0	0	0	0	0	0	0	0	0	0	0	0	0	0	0	
M_adp_c	-0.269	-0.269	-0.269	-0.269	-0.269	-0.269	-0.269	-0.269	-0.269	-0.269	-0.269	-0.269	-0.269	-0.269	-0.269	-0.269	-0.269	-0.269	-0.269	-0.269	-0.269	-0.269	-0.269	-0.269	-0.269	-0.269	-0.269	-0.269	-0.269	-0.269	-0.269	-0.269	-0.269	-0.269	-0.269	-0.269	-0.269	-0.269	-0.269	-0.269	-0.269	-0.269	-0.269	-0.269	-0.269	-0.269	-0.269	-0.269	-0.269	-0.269	-0.269	-0.269	-0.269	-0.269	-0.269	-0.269	-0.269	-0.269	-0.269	-0.269	-0.269	-0.269	-0.269	-0.269	-0.269	-0.269	-0.269	-0.269	-0.269	-0.269	-0.269	-0.269	-0.269	-0.269	-0.269	-0.269	-0.269	-0.269	-0.269	-0.269	-0.269	-0.269	-0.269	-0.269	-0.269	-0.269	-0.003	-0.269	-0.003	-0.269	-0.269	-0.269	-0.003	-0.003	-0.269	-0.269	-0.269	-0.269	-0.269	-0.269	
M_xu5p__D_c	0	0	0	0	2.24659	2.24659	0	0	3.23313	3.23313	2.76563	2.76563	3.32691	3.32691	0	0	-8.88178e-16	0	3.8616	3.8616	2.41198	2.41198	0	0	2.96931	2.96931	0	0	2.4005	2.4005	0	0	2.82155	2.82155	3.05152	3.05152	2.39604	2.39604	2.77441	2.77441	0	0	3.48358	3.48358	0	0	0	0	3.65785	3.65785	2.47705	2.47705	3.26397	3.26397	0	0	2.9028	2.9028	0	0	1.22151	1.22151	0	0	0	0	1.00995	1.00995	1.00995	1.00995	2.88144	2.88144	0	0	0	0	3.30248	3.30248	0.48745	0.48745	0.48745	0.48745	0	0	0	0	0.041619	1.4551	0.041619	1.4551	1.01504	1.01504	0	0	0	0	0	0	0	1.29977	
M_akg_c	5.696	5.696	5.696	5.696	5.696	5.696	5.696	5.696	5.696	5.696	5.696	5.696	-0.2745	-0.2745	0.41175	0.41175	-0.2745	-0.2745	-0.2745	-0.2745	0	1.77636e-15	-5.32907e-15	0	-1.1895	-1.1895	10	10	0.41175	0.41175	8.69503	8.69503	0.41175	0.41175	0	1.77636e-15	10	10	10	10	-1.1895	-1.1895	-1.1895	-1.1895	5.696	5.696	10	10	0.41175	0.41175	10	10	0.41175	0.41175	5.696	5.696	10	10	10	10	0	0	10	10	4.83011	4.83011	10	10	10	10	5.696	5.696	4.44089e-16	0	10	10	5.696	5.696	10	10	10	10	10	10	10	10	10	10	10	10	10	10	10	10	10	10	10	10	10	10	
M_akg_e	0	0	0	0	0	0	0	0	0	0	0	0	0	0	0	0	0	0	0	0	0	0	0	0	0	0	0	0	0	0	0	0	0	0	0	0	0	0	0	0	0	0	0	0	0	0	0	0	0	0	0	0	0	0	0	0	0	0	0	0	0	0	0	0	0	0	0	0	0	0	0	0	0	0	0	0	0	0	0	0	0	0	0	0	0	0	0	0	0	0	0	0	0	0	0	0	0	0	0	0	
M_amp_c	1.449	1.449	1.449	1.449	1.449	1.449	1.449	1.449	1.449	1.449	1.449	1.449	1.449	1.449	1.449	1.449	1.449	1.449	1.449	1.449	1.449	1.449	1.449	1.449	1.449	1.449	1.449	1.449	1.449	1.449	1.449	1.449	1.449	1.449	1.449	1.449	1.449	1.449	1.449	1.449	1.449	1.449	1.449	1.449	1.449	1.449	1.449	1.449	1.449	1.449	1.449	1.449	1.449	1.449	1.449	1.449	1.449	1.449	1.35679	1.35679	1.449	1.449	1.449	1.449	1.449	1.449	0.801317	0.801317	1.449	1.449	1.449	1.449	1.449	1.449	1.449	1.449	1.449	1.449	1.08869	1.08869	1.449	1.449	0.269	0.269	1.449	1.449	0.003	1.449	0.003	1.449	0.269	0.269	0.003	0.003	1.449	1.449	1.449	1.449	1.37437	1.449	
M_atp_c	-1.18	-1.18	-1.18	-1.18	-1.18	-1.18	-1.18	-1.18	-1.18	-1.18	-1.18	-1.18	-1.18	-1.18	-1.18	-1.18	-1.18	-1.18	-1.18	-1.18	-1.18	-1.18	-1.18	-1.18	-1.18	-1.18	-1.18	-1.18	-1.18	-1.18	-1.18	-1.18	-1.18	-1.18	-1.18	-1.18	-1.18	-1.18	-1.18	-1.18	-1.18	-1.18	-1.18	-1.18	-1.18	-1.18	-1.18	-1.18	-1.18	-1.18	-1.18	-1.18	-1.18	-1.18	-1.18	-1.18	-1.18	-1.18	-1.08779	-1.08779	-1.18	-1.18	-1.18	-1.18	-1.18	-1.18	-0.532317	-0.532317	-1.18	-1.18	-1.18	-1.18	-1.18	-1.18	-1.18	-1.18	-1.18	-1.18	-0.819692	-0.819692	-1.18	-1.18	0	0	-1.18	-1.18	0	-1.18	0	-1.18	0	0	0	0	-1.18	-1.18	-1.18	-1.18	-1.10537	-1.18	
M_cit_c	1.68	1.68	1.68	1.68	1.68	1.68	1.68	1.68	1.68	1.68	1.68	1.68	1.68	1.68	1.68	1.68	1.68	1.68	1.68	1.68	1.68	1.68	1.68	1.68	1.68	1.68	1.68	1.68	1.68	1.68	1.68	1.68	1.68	1.68	1.68	1.68	1.68	1.68	1.68	1.68	1.68	1.68	1.68	1.68	1.68	1.68	1.68	1.68	1.68	1.68	1.68	1.68	1.68	1.68	1.68	1.68	1.68	1.68	1.68	1.68	1.68	1.68	1.68	1.68	1.68	1.68	1.68	1.68	1.68	1.68	1.68	1.68	1.68	1.68	1.68	1.68	1.68	1.68	1.68	1.68	1.68	1.68	1.68	1.68	1.68	1.68	1.68	1.68	1.68	1.68	1.68	1.68	1.68	1.68	1.68	1.68	1.68	1.68	1.68	1.68	
M_co2_c	10	10	10	10	10	10	10	10	10	10	10	10	10	10	10	10	10	10	10	10	10	10	10	10	10	10	10	10	10	10	10	10	10	10	10	10	10	10	10	10	10	10	10	10	10	10	10	10	10	10	10	10	10	10	10	10	10	10	9.17566	9.17566	10	10	10	10	10	10	8.97367	8.97367	10	10	10	10	9.71625	9.71625	10	10	10	10	9.07817	9.07817	10	10	10	10	10	10	10	10	10	10	10	10	10	10	10	10	10	10	9.24595	10	
M_co2_e	0	0	0	0	0	0	0	0	0	0	0	0	0	0	0	0	0	0	0	0	0	0	0	0	0	0	0	0	0	0	0	0	0	0	0	0	0	0	0	0	0	0	0	0	0	0	0	0	0	0	0	0	0	0	0	0	0	0	0	0	0	0	0	0	0	0	0	0	0	0	0	0	0	0	0	0	0	0	0	0	0	0	0	0	0	0	0	0	0	0	0	0	0	0	0	0	0	0	0	0	
M_coa_c	-1.77636e-15	-7.10543e-15	-1.42109e-14	-1.42109e-14	-1.77636e-15	-7.10543e-15	-1.77636e-15	-8.88178e-16	-1.77636e-15	-1.77636e-15	-1.77636e-15	-1.77636e-15	1.77636e-15	5.32907e-15	3.55271e-15	0	-5.32907e-15	3.55271e-15	-1.77636e-15	1.77636e-15	3.55271e-15	-4.44089e-15	0	0	-3.55271e-15	-5.32907e-15	0	0	0	0	0	0	0	0	2.66454e-15	-1.77636e-15	4.44089e-16	0	0	0	5.32907e-15	-3.55271e-15	1.77636e-15	-3.55271e-15	0	0	0	0	-8.88178e-16	8.88178e-16	0	-3.55271e-15	4.44089e-15	0	0	0	0	0	0	0	0	1.77636e-15	-1.33227e-15	2.66454e-15	0	-8.88178e-16	0	0	7.10543e-15	-1.77636e-15	0	0	0	0	0	0	0	0	0	0	-1.06581e-14	1.77636e-15	8.88178e-16	-8.88178e-16	0	0	-4.44089e-16	-7.10543e-15	0	0	2.04281e-14	-2.22045e-16	0	0	0	0	0	-3.55271e-15	0	0	
M_dhap_c	0	0	0	0	0	0	0	0	0	0	0	0	0	0	0	0	0	0	0	0	0	0	0	0	0	0	0	0	0	0	0	0	0	0	0	0	0	0	0	0	0	0	0	0	0	0	0	0	0	0	0	0	0	0	0	0	0	0	9.16544e-13	0	0	0	0	0	0	0	0	0	0	0	0	0	0	0	0	0	0	0	0	0	0	0	0	0	9.09495e-13	0	0	0	-9.09495e-13	0	0	0	0	0	0	0	0	-2e-09	0.702697	0	
M_e4p_c	0	0	0	0	0	0	0	0	0	0	0	0	0	0	0	0	0	0	0	0	0	0	0	0	0	0	0	0	0	0	0	0	0	0	0	0	0	0	0	0	0	0	0	0	0	0	0	0	0	0	0	0	0	0	0	0	0	0	0	0	0	0	0	0	0	0	0	0	0	0	0	0	0	0	0	0	0	0	0	0	0	0	0	0	0	0	0	0	0	0	0	0	0	0	0	0	0	0	0	0	
M_etoh_c	0	0	0	0	0	0	0	0	0	0	0	0	0	0	0	0	0	0	0	0	0	0	0	0	0	0	0	0	0	0	0	0	0	0	0	0	0	0	0	0	0	0	0	0	0	0	0	0	0	0	0	0	0	0	0	0	0	0	0	0	0	0	0	0	0	0	0	0	0	0	0	0	0	0	0	0	0	0	0	0	0	0	0	0	0	0	0	0	0	0	0	0	0	0	0	0	0	0	0	0	
M_etoh_e	0	0	0	0	0	0	0	0	0	0	0	0	0	0	0	0	0	0	0	0	0	0	0	0	0	0	0	0	0	0	0	0	0	0	0	0	0	0	0	0	0	0	0	0	0	0	0	0	0	0	0	0	0	0	0	0	0	0	0	0	0	0	0	0	0	0	0	0	0	0	0	0	0	0	0	0	0	0	0	0	0	0	0	0	0	0	0	0	0	0	0	0	0	0	0	0	0	0	0	0	
M_f6p_c	-0.252	-0.252	-0.228	-0.228	-0.252	-0.252	-0.245732	-0.245732	-0.252	-0.252	-0.252	-0.252	-0.252	-0.252	-0.252	-0.252	-0.252	-0.252	-0.252	-0.252	-0.252	-0.252	-0.228	-0.228	-0.252	-0.252	-0.252	-0.252	-0.252	-0.252	-0.252	-0.252	-0.252	-0.252	-0.252	-0.252	-0.252	-0.252	-0.252	-0.252	-0.252	-0.252	-0.252	-0.252	-0.252	-0.252	-0.252	-0.252	-0.252	-0.252	-0.252	-0.252	-0.252	-0.252	-0.252	-0.252	-0.252	-0.252	-0.252	-0.252	-0.252	-0.252	-0.252	-0.252	-0.228	-0.228	-0.252	-0.252	-0.252	-0.252	-0.252	-0.252	-0.228	-0.228	-0.252	-0.252	-0.252	-0.252	-0.252	-0.252	-0.252	-0.252	-0.252	-0.252	-0.252	-0.252	-0.252	-0.252	-0.252	-0.252	-0.252	-0.252	-0.252	-0.252	-0.252	-0.252	-0.252	-0.252	-0.252	-0.252	
M_fdp_c	-0.7229	-0.7229	-0.7229	-0.7229	-0.7229	-0.7229	-0.7229	-0.7229	-0.7229	-0.7229	-0.7229	-0.7229	-0.7229	-0.7229	-0.7229	-0.7229	-0.7229	-0.7229	-0.7229	-0.7229	-0.7229	-0.7229	-0.7229	-0.7229	-0.7229	-0.7229	-0.7229	-0.7229	-0.7229	-0.7229	-0.7229	-0.7229	-0.7229	-0.7229	-0.7229	-0.7229	-0.7229	-0.7229	-0.7229	-0.7229	-0.7229	-0.7229	-0.7229	-0.7229	-0.7229	-0.7229	-0.7229	-0.7229	-0.7229	-0.7229	-0.7229	-0.7229	-0.7229	-0.7229	-0.7229	-0.7229	-0.7229	-0.7229	-0.7229	-0.7229	-0.7229	-0.7229	-0.7229	-0.7229	-0.7229	-0.7229	-0.7229	-0.7229	-0.7229	-0.7229	-0.7229	-0.7229	-0.7229	-0.7229	-0.7229	-0.7229	-0.7229	-0.7229	-0.7229	-0.7229	-0.7229	-0.7229	-0.7229	-0.7229	-0.7229	-0.7229	-0.7229	-0.7229	-0.7229	-0.7229	-0.7229	-0.7229	-0.7229	-0.7229	-0.7229	-0.7229	-0.7229	-0.7229	-0.7229	-0.7229	
M_for_c	0	0	7.15244	7.15244	0	0	0	0	0	0	0	0	0	0	0	0	0	0	0	0	0	0	9.25499	9.25499	0	0	0	0	0	0	8.28983	8.28983	0	0	0	0	0	0	0	0	0	0	0	0	0	0	0	0	0	0	0	0	0	0	0	0	0	0	0	0	10	10	0	0	0	0	0	0	0	0	0	0	0	0	0	0	0	0	0	0	0	0	0	0	0	0	0	0	0	0	0	0	0	0	0	0	0	0	0	0	
M_for_e	0	0	0	0	0	0	0	0	0	0	0	0	0	0	0	0	0	0	0	0	0	0	0	0	0	0	0	0	0	0	0	0	0	0	0	0	0	0	0	0	0	0	0	0	0	0	0	0	0	0	0	0	0	0	0	0	0	0	0	0	0	0	0	0	0	0	0	0	0	0	0	0	0	0	0	0	0	0	0	0	0	0	0	0	0	0	0	0	0	0	0	0	0	0	0	0	0	0	0	0	
M_fru_e	0	0	0	0	0	0	0	0	0	0	0	0	0	0	0	0	0	0	0	0	0	0	0	0	0	0	0	0	0	0	0	0	0	0	0	0	0	0	0	0	0	0	0	0	0	0	0	0	0	0	0	0	0	0	0	0	0	0	0	0	0	0	0	0	0	0	0	0	0	0	0	0	0	0	0	0	0	0	0	0	0	0	0	0	0	0	0	0	0	0	0	0	0	0	0	0	0	0	0	0	
M_fum_c	0.272	0.272	0.272	0.272	0.272	0.272	0.272	0.272	0.272	0.272	0.272	0.272	0.272	0.272	0.272	0.272	0.272	0.272	0.272	0.272	0.272	0.272	0.272	0.272	0.272	0.272	0.272	0.272	0.272	0.272	0.272	0.272	0.272	0.272	0.272	0.272	0.272	0.272	0.272	0.272	0.272	0.272	0.272	0.272	0.272	0.272	0.272	0.272	0.272	0.272	0.272	0.272	0.272	0.272	0	0	0.272	0.272	0.272	0.272	0.272	0.272	0.272	0.272	0.272	0.272	0.272	0.272	0.272	0.272	0.272	0.272	0.272	0.272	0.272	0.272	0.272	0.272	0.272	0.272	0.272	0.272	0.272	0.272	0.272	0.272	0.272	0.272	0.272	0.272	0.272	0.272	0	0	0.272	0.272	0.272	0.272	0.272	0.272	
M_fum_e	0	0	0	0	0	0	0	0	0	0	0	0	0	0	0	0	0	0	0	0	0	0	0	0	0	0	0	0	0	0	0	0	0	0	0	0	0	0	0	0	0	0	0	0	0	0	0	0	0	0	0	0	0	0	0	0	0	0	0	0	0	0	0	0	0	0	0	0	0	0	0	0	0	0	0	0	0	0	0	0	0	0	0	0	0	0	0	0	0	0	0	0	0	0	0	0	0	0	0	0	
M_g3p_c	0	0	0	0	0	0	0	0	0	0	0	0	0	0	0	0	0	8.88178e-16	0	0	5.82867e-16	4.44089e-16	0	0	0	0	0	0	0	0	0	0	0	0	8.88178e-16	0	0	0	0	0	1.77636e-15	8.88178e-16	0	0	0	0	0	0	0	0	0	0	0	0	0	0	0	0	0	0	0	0	4.4119	4.4119	0	0	0	0	4.4119	4.4119	0	0	0	0	0	0	0	0	0	0	4.4119	4.4119	0	0	3.9271	3.9271	-0.0564912	0	-0.0564912	0	-0.0585794	-0.0585794	0	0	0	0	0	0	0.702697	0	
M_g6p_c	-1.045	-1.045	-0.915	-0.915	-1.045	-1.045	-1.045	-1.045	-1.045	-1.045	-1.045	-1.045	-1.045	-1.045	-1.045	-1.045	-1.045	-1.045	-1.045	-1.045	-0.915	-0.915	-0.915	-0.915	-0.915	-0.915	-1.045	-1.045	-1.045	-1.045	-1.045	-1.045	-1.045	-1.045	-0.915	-0.915	-1.045	-1.045	-1.045	-1.045	-0.915	-0.915	-0.915	-0.915	-1.045	-1.045	-1.045	-1.045	-1.045	-1.045	-1.045	-1.045	-1.045	-1.045	-1.045	-1.045	-1.045	-1.045	-1.045	-1.045	-1.045	-1.045	-1.045	-1.045	-0.915	-0.915	-1.045	-1.045	-1.045	-1.045	-1.045	-1.045	-0.915	-0.915	-1.045	-1.045	-1.045	-1.045	-1.045	-1.045	-1.045	-1.045	-1.045	-1.045	-1.045	-1.045	-1.045	-1.045	-1.045	-1.045	-1.045	-1.045	-1.045	-1.045	-1.045	-1.045	-1.045	-1.045	-1.045	-1.045	
M_biomass_c	0	0	0	0	0	0	0	0	0	0	0	0	0	0	0	0	0	0	0	0	0.342774	0.342774	0	0	0	0	0	0	0	0	0	0	0	0	0.342774	0.342774	0	0	0	0	0	0	0	0	0	0	0	0	0	0	0	0	0	0	0	0	0	0	0	0	0	0	0	0	0	0	0	0	0	0	0	0	0	0	0	0	0	0	0	0	0	0	0	0	0	0	0.576441	0	0.576441	0	0.597749	0.597749	0	0	0	0	0	0	0	0	
