Reactions	ColorReaction
R_ACALD	-10
R_ACONTa	10
R_ACONTb	10
R_ADK1	10
R_ATPS4r	10
R_CS	10
R_CYTBD	10
R_ENO	-10
R_FBP	10
R_G6PDH2r	10
R_GLUDy	10
R_GLUN	10
R_GND	10
R_ICDHyr	10
R_ICL	10
R_LDH_D	-10
R_MALS	10
R_MDH	10
R_NADH16	10
R_NADTRHD	10
R_PDH	10
R_PGI	-10
R_PPC	10
R_PPS	10
