B_R_ACONTa 	 1.72833
B_R_ADK1 	 8.49333
F_R_ATPS4r 	 40.2621
R_BIOMASS_Ecoli_core_w_GAM 	 0.500892
R_CS 	 1.59167
R_CYTBD 	 84.2975
B_R_ENO 	 13.8882
B_R_FBA 	 7.3385
R_FBP 	 7.2455
F_R_FUM 	 50.1476
B_R_GAPD 	 13.0582
F_R_GLUDy 	 10
R_GLUSy 	 4.12155
R_GND 	 0.228
B_R_ICDHyr 	 10
F_R_MDH 	 16.4498
R_ME2 	 5.80883
R_NADH16 	 0.55792
R_PFL 	 3.46891
F_R_PGI 	 0.402317
F_R_PGK 	 13.0582
F_R_PGM 	 13.8882
R_PPCK 	 13.9632
B_R_RPE 	 2.08586
B_R_RPI 	 2.31386
R_SUCDi 	 83.7396
B_R_TALA 	 3.76924
R_THD2 	 4.61028
F_R_TKT1 	 1.86421
B_R_TKT2 	 3.95006
B_R_TPI 	 7.3385
