B_R_ACKr 	 3.26096
B_R_ACONTa 	 3.32
B_R_ACONTb 	 3.32
B_R_ADK1 	 8.84429
F_R_ATPS4r 	 38.1012
R_BIOMASS_Ecoli_core_w_GAM 	 0.465492
R_CYTBD 	 88.8449
B_R_ENO 	 15.7902
B_R_FBA 	 8.52025
R_FBP 	 8.42725
F_R_FUM 	 54.8875
B_R_GAPD 	 15.0938
F_R_GLUDy 	 5.96591
R_GLUN 	 4.03409
R_GND 	 0.228
B_R_ICDHyr 	 13.32
F_R_MDH 	 26.9985
R_NADH16 	 0.365332
R_PFL 	 5.00553
F_R_PGI 	 0.409574
F_R_PGK 	 15.0938
F_R_PGM 	 15.7902
R_PPCK 	 23.092
F_R_PTAr 	 3.26096
R_PYK 	 7.24517
B_R_RPE 	 2.36465
B_R_RPI 	 2.59265
R_SUCDi 	 88.4795
B_R_TALA 	 4.37139
R_THD2 	 13.1905
F_R_TKT1 	 2.17478
B_R_TKT2 	 4.53943
B_R_TPI 	 8.52025
