B_R_ACONTa 	 1.77885
B_R_ACONTb 	 1.43675
B_R_ADK1 	 9.09608
F_R_ATPS4r 	 39.6317
R_BIOMASS_Ecoli_core_w_GAM 	 0.467928
R_CS 	 1.54115
R_CYTBD 	 85.067
B_R_ENO 	 15.6095
B_R_FBA 	 7.83719
R_FBP 	 7.74419
F_R_FUM 	 51.4749
B_R_GAPD 	 13.9007
F_R_GLUDy 	 10
R_GLUSy 	 4.04011
R_GND 	 0.228
B_R_ICDHyr 	 11.4368
F_R_MDH 	 18.0446
R_ME2 	 5.5414
R_PFL 	 3.29485
F_R_PGI 	 0.409075
F_R_PGK 	 13.9007
F_R_PGM 	 15.6095
R_PPCK 	 15.6674
B_R_RPE 	 2.19503
B_R_RPI 	 2.42303
R_SUCDi 	 85.0669
B_R_TALA 	 4.02908
R_THD2 	 5.80359
F_R_TKT1 	 2.00297
B_R_TKT2 	 4.19801
B_R_TPI 	 7.83719
