B_R_ACONTa 	 1.77067
B_R_ADK1 	 8.24737
F_R_ATPS4r 	 37.3735
R_BIOMASS_Ecoli_core_w_GAM 	 0.473271
R_CS 	 1.54933
R_CYTBD 	 84.0839
B_R_ENO 	 12.9701
B_R_FBA 	 6.89805
R_FBP 	 6.80505
F_R_FUM 	 50.0559
B_R_GAPD 	 12.2621
F_R_GLUDy 	 10
R_GLUSy 	 4.05331
R_GND 	 0.228
B_R_ICDHyr 	 10
B_R_LDH_D 	 1.15647
F_R_MDH 	 22.1669
R_NADH16 	 0.436013
R_PFL 	 3.32306
F_R_PGI 	 0.40798
F_R_PGK 	 12.2621
F_R_PGM 	 12.9701
R_PPCK 	 19.772
R_PYK 	 6.74121
B_R_RPE 	 1.96276
B_R_RPI 	 2.19076
R_SUCDi 	 83.6479
B_R_TALA 	 3.55781
R_THD2 	 9.99103
F_R_TKT1 	 1.7659
B_R_TKT2 	 3.72866
B_R_TPI 	 6.89805
