B_R_ACONTa 	 1.86645
B_R_ACONTb 	 0.457244
B_R_ADK1 	 4.84858
F_R_ATPS4r 	 42.0174
R_BIOMASS_Ecoli_core_w_GAM 	 0.487463
R_CS 	 1.45355
R_CYTBD 	 84.0347
B_R_ENO 	 13.2235
B_R_FBA 	 6.96542
R_FBP 	 6.87242
F_R_FUM 	 50.4427
F_R_G6PDH2r 	 0.23507
B_R_GAPD 	 12.4943
F_R_GLUDy 	 5.91163
R_GLUN 	 4.08837
R_GND 	 0.228
B_R_ICDHyr 	 10.4572
B_R_LDH_D 	 1.35532
F_R_MDH 	 12.1206
R_ME2 	 10.4332
R_PFL 	 3.28046
F_R_PGK 	 12.4943
F_R_PGM 	 13.2235
R_PPCK 	 9.79608
R_PPS 	 3.4955
B_R_RPE 	 1.88501
B_R_RPI 	 2.11301
R_SUCDi 	 84.0347
B_R_TALA 	 3.38444
F_R_TKT1 	 1.67541
B_R_TKT2 	 3.56042
B_R_TPI 	 6.96542
