B_R_ACONTa 	 1.98302
B_R_ADK1 	 7.81842
F_R_ATPS4r 	 36.6729
R_BIOMASS_Ecoli_core_w_GAM 	 0.480475
R_CS 	 1.33698
R_CYTBD 	 83.4484
B_R_ENO 	 11.9789
B_R_FBA 	 6.32173
R_FBP 	 6.22873
F_R_FUM 	 49.8564
B_R_GAPD 	 11.2601
F_R_GLUDy 	 5.92889
R_GLUN 	 4.07111
R_GND 	 0.228
B_R_ICDHyr 	 10
B_R_LDH_D 	 2.30885
F_R_MDH 	 21.9674
R_PFL 	 3.1377
F_R_PGI 	 0.406503
F_R_PGK 	 11.2601
F_R_PGM 	 11.9789
R_PPCK 	 19.772
R_PYK 	 7.72865
B_R_RPE 	 1.82207
B_R_RPI 	 2.05007
R_SUCDi 	 83.4484
B_R_TALA 	 3.26736
R_THD2 	 10.1027
F_R_TKT1 	 1.61874
B_R_TKT2 	 3.44081
B_R_TPI 	 6.32173
