B_R_ACKr 	 2.84242
B_R_ACONTa 	 3.32
B_R_ACONTb 	 3.32
B_R_ADK1 	 8.90888
F_R_ATPS4r 	 40.9755
R_BIOMASS_Ecoli_core_w_GAM 	 0.504653
R_CYTBD 	 88.6641
B_R_ENO 	 15.9307
B_R_FBA 	 8.54653
R_FBP 	 8.45353
F_R_FUM 	 55.0721
B_R_GAPD 	 15.1757
F_R_GLUDy 	 10
R_GLUSy 	 4.13085
R_GND 	 0.228
B_R_ICDHyr 	 13.32
F_R_MDH 	 20.0988
R_ME2 	 7.08434
R_PFL 	 4.73375
F_R_PGI 	 0.401546
F_R_PGK 	 15.1757
F_R_PGM 	 15.9307
R_PPCK 	 16.0077
F_R_PTAr 	 2.84242
B_R_RPE 	 2.38963
B_R_RPI 	 2.61763
R_SUCDi 	 88.6641
B_R_TALA 	 4.37206
R_THD2 	 6.71308
F_R_TKT1 	 2.16461
B_R_TKT2 	 4.55424
B_R_TPI 	 8.54653
