B_R_ACONTa 	 0.86
F_R_ACONTb 	 4.14
F_R_ATPS4r 	 6.85
R_CYTBD 	 2.7905
F_R_ENO 	 7.693
R_FRD7 	 4.4825
B_R_FUM 	 6.0985
F_R_G6PDH2r 	 0.237
R_GLCpts 	 6.73
F_R_GLUDy 	 2.036
R_GLUN 	 2.036
B_R_ICDHyr 	 3.569
R_ICL 	 8.1225
R_MALS 	 8.1225
R_ME2 	 1.296
R_NADH16 	 7.273
R_PDH 	 7.273
R_PFK 	 3.816
F_R_PGI 	 4.363
B_R_PGK 	 1.2125
R_PGL 	 0.237
B_R_PGM 	 2.693
R_PPC 	 6.0005
R_PPCK 	 6.0005
B_R_PTAr 	 0.8495
R_PYK 	 2.023
