B_R_ACONTa 	 0.86
F_R_ACONTb 	 4.14
R_ATPM 	 5.01925
F_R_ATPS4r 	 7.3765
R_CYTBD 	 3.32075
F_R_ENO 	 6.0185
R_FRD7 	 4.30075
B_R_FUM 	 5.91675
F_R_G6PDH2r 	 0.5855
R_GLCpts 	 7.0785
F_R_GLUDy 	 2.036
R_GLUN 	 2.036
B_R_ICDHyr 	 2.6215
R_ICL 	 8.30425
R_MALS 	 8.30425
R_ME1 	 1.6595
R_NADH16 	 7.6215
R_PDH 	 5.962
R_PFK 	 3.816
F_R_PGI 	 4.363
B_R_PGK 	 1.72775
R_PGL 	 0.237
B_R_PGM 	 1.72775
B_R_PTAr 	 2.34225
