B_R_ACONTa 	 0.86
F_R_ACONTb 	 4.14
F_R_ATPS4r 	 4.92025
R_CYTBD 	 1.0645
F_R_ENO 	 8.9725
R_FRD7 	 5.3485
B_R_FUM 	 6.5285
F_R_G6PDH2r 	 0.237
R_GLCpts 	 6.73
R_GLNS 	 4.92025
F_R_GLUDy 	 8.99225
R_GLUSy 	 6.95625
B_R_ICDHyr 	 3.1165
R_ICL 	 7.2565
R_MALS 	 7.2565
R_NADH16 	 6.413
R_PDH 	 7.2565
R_PFK 	 3.816
F_R_PGI 	 4.363
B_R_PGK 	 0.7825
R_PGL 	 0.237
B_R_PGM 	 3.9725
R_PYK 	 3.3025
R_THD2 	 0.8435
