B_R_ACONTa 	 0.86
F_R_ACONTb 	 4.14
F_R_ATPS4r 	 4.906
R_CYTBD 	 0.8465
F_R_ENO 	 7.693
R_FBP 	 3.4085
R_FRD7 	 5.1305
B_R_FUM 	 6.7465
F_R_G6PDH2r 	 0.237
R_GLCpts 	 6.73
F_R_GLUDy 	 4.072
R_GLUSy 	 2.036
B_R_ICDHyr 	 2.273
R_ICL 	 7.4745
R_MALS 	 7.4745
R_NADH16 	 5.977
R_PDH 	 5.977
R_PFK 	 7.2245
F_R_PGI 	 4.363
B_R_PGK 	 0.5645
R_PGL 	 0.237
B_R_PGM 	 2.693
B_R_PTAr 	 1.4975
R_PYK 	 2.023
