B_R_ACONTa 	 0.86
F_R_ACONTb 	 4.14
R_ATPM 	 3.1395
F_R_ATPS4r 	 4.906
R_CYTBD 	 0.8465
F_R_ENO 	 7.693
R_FRD7 	 5.1305
B_R_FUM 	 6.7465
F_R_G6PDH2r 	 0.237
R_GLCpts 	 6.71675
F_R_GLUDy 	 4.072
R_GLUSy 	 2.036
B_R_ICDHyr 	 2.273
R_ICL 	 7.4745
R_MALS 	 7.4745
R_NADH16 	 5.977
R_PDH 	 5.977
R_PFK 	 3.80275
F_R_PGI 	 4.34975
R_PGL 	 0.237
B_R_PGM 	 2.693
R_PPS 	 0.269
B_R_PTAr 	 1.4975
R_PYK 	 2.30525
