B_R_ACONTa 	 0.86
F_R_ACONTb 	 4.14
R_ATPM 	 4.7045
F_R_ATPS4r 	 6.85
R_CYTBD 	 2.7905
F_R_ENO 	 6.397
R_FRD7 	 4.4825
B_R_FUM 	 6.0985
F_R_G6PDH2r 	 0.237
R_GLCpts 	 6.73
F_R_GLUDy 	 4.072
R_GLUSy 	 2.036
B_R_ICDHyr 	 2.273
R_ICL 	 8.1225
R_MALS 	 8.1225
R_ME1 	 1.296
R_NADH16 	 7.273
R_PDH 	 5.977
R_PFK 	 3.816
F_R_PGI 	 4.363
B_R_PGK 	 1.2125
R_PGL 	 0.237
B_R_PGM 	 6.2125
B_R_PTAr 	 2.1455
R_PYK 	 0.727
