M_10fthf_c	2.22045e-16
M_12dgr120_c	0
M_12dgr140_c	0
M_12dgr141_c	0
M_12dgr160_c	0
M_12dgr161_c	0
M_12dgr180_c	0
M_12dgr181_c	0
M_12ppd__R_c	0
M_12ppd__S_c	0
M_13dpg_c	0
M_14dhncoa_c	0
M_14glucan_c	0
M_15dap_c	1
M_1ddecg3p_c	0
M_1hdec9eg3p_c	0
M_1hdecg3p_c	0
M_1odec11eg3p_c	0
M_1odecg3p_c	0
M_1pyr5c_c	0
M_5dh4dglc_c	0
M_2tdec7eg3p_c	0
M_5drib_c	0
M_2tdecg3p_c	0
M_1tdec7eg3p_c	0
M_1tdecg3p_c	0
M_2tpr3dpcoa_c	0
M_5fthf_c	0
M_23dappa_c	0
M_5mta_c	0
M_34hpp_c	0
M_23ddhb_c	0
M_35cgmp_c	0
M_5mthf_c	0
M_23dhacoa_c	0
M_5mtr_c	0
M_3amac_c	0
M_23dhb_c	0
M_3c2hmp_c	0
M_5prdmbz_c	0
M_23dhba_c	0
M_6hmhpt_c	0
M_3c3hmp_c	0
M_23dhbzs_c	0
M_3c4mop_c	0
M_6hmhptpp_c	0
M_23dhdp_c	0
M_3dhguln_c	0
M_23dhmb_c	0
M_3dhgulnp_c	0
M_6pgc_c	0.237
M_23dhmp_c	0
M_6pgl_c	0
M_3dhq_c	0
M_3dhsk_c	0
M_23doguln_c	-0
M_8aonn_c	0
M_25aics_c	-1
M_ACP_c	1e-09
M_3fe4s_c	0
M_25dkglcn_c	2.22045e-16
M_3haACP_c	0
M_LalaDglu_c	0
M_25drapp_c	0
M_LalaDgluMdap_c	0
M_3hadpcoa_c	0
M_26dap_LL_c	0
M_3hbcoa_c	0
M_LalaDgluMdapDala_c	0
M_LalaLglu_c	0
M_26dap__M_c	0.0142541
M_N1aspmd_c	0
M_3hcddec5eACP_c	0
M_3hcinnm_c	0
M_2agpe120_c	0
M_3hcmrs7eACP_c	0
M_Nmtrp_c	-0
M_Sfglutth_c	0
M_2agpe140_c	0
M_aacald_c	0
M_3hcpalm9eACP_c	0
M_2agpe141_c	0
M_3hcvac11eACP_c	0
M_3hdcoa_c	0
M_aacoa_c	0
M_2agpe160_c	0
M_aact_c	0
M_ac_c	0
M_3hddcoa_c	0
M_3hddecACP_c	0
M_3hdecACP_c	0
M_3hhcoa_c	0
M_2agpe161_c	0
M_3hhdcoa_c	0
M_3hhexACP_c	0
M_acACP_c	0
M_2agpe180_c	0
M_acac_c	0
M_3hmrsACP_c	0
M_2agpe181_c	0
M_3hocoa_c	0
M_acald_c	0
M_2agpg120_c	0
M_acanth_c	0
M_3hoctACP_c	1e-09
M_2agpg140_c	0
M_3hoctaACP_c	0
M_accoa_c	0
M_2agpg141_c	0
M_3hodcoa_c	0
M_2agpg160_c	0
M_3hpalmACP_c	0
M_acetol_c	0
M_acg5p_c	0
M_2agpg161_c	0
M_acg5sa_c	0
M_3hpp_c	0
M_3hpppn_c	0
M_2agpg180_c	0
M_acgam_c	0
M_acgam1p_c	0
M_3htdcoa_c	0
M_2agpg181_c	0
M_3ig3p_c	0
M_acgam6p_c	0
M_2ahbut_c	0
M_acglc__D_c	0
M_3mob_c	-8.88178e-16
M_2amsa_c	0
M_3mop_c	0
M_acglu_c	0
M_2aobut_c	0
M_acmalt_c	0
M_3ocddec5eACP_c	0
M_2cpr5p_c	0
M_3ocmrs7eACP_c	0
M_acmana_c	0
M_2dda7p_c	0
M_acmanap_c	0
M_3ocpalm9eACP_c	0
M_2ddecg3p_c	0
M_3ocvac11eACP_c	0
M_acmum6p_c	0
M_2ddg6p_c	0
M_acnam_c	0
M_3odcoa_c	0
M_3oddcoa_c	0
M_2ddglcn_c	0
M_3oddecACP_c	0
M_acon_C_c	0
M_acon_T_c	0
M_2dh3dgal_c	0
M_aconm_c	0
M_3odecACP_c	0
M_2dh3dgal6p_c	0
M_3ohcoa_c	0
M_acorn_c	0
M_2dhguln_c	0
M_3ohdcoa_c	0
M_2dhp_c	0
M_3ohexACP_c	0
M_2dmmq8_c	0
M_3omrsACP_c	0
M_acser_c	0
M_2dmmql8_c	-0.00225275
M_actACP_c	0
M_3oocoa_c	0
M_2dr1p_c	0
M_3ooctACP_c	0
M_actp_c	0
M_2dr5p_c	0
M_3ooctdACP_c	0
M_ade_c	0
M_2fe1s_c	0
M_3ohodcoa_c	0
M_2fe2s_c	-0.000252551
M_3opalmACP_c	0
M_adn_c	0
M_adocbi_c	0
M_3ophb_c	0
M_3otdcoa_c	0
M_2h3oppan_c	0
M_3oxdhscoa_c	0
M_adocbip_c	0
M_adocbl_c	-0.00225275
M_2hdec9eg3p_c	0
M_3pg_c	0
M_2hdecg3p_c	0
M_3php_c	0
M_adp_c	-0.269
M_2ippm_c	0
M_3psme_c	0
M_2mahmp_c	0
M_3sala_c	-0
M_adpglc_c	0
M_2mcacn_c	0
M_adphep_DD_c	0
M_adphep_LD_c	0
M_4abut_c	0
M_4abutn_c	0
M_2mcit_c	0
M_adprib_c	0
M_2me4p_c	0
M_ag_c	-2.22045e-16
M_4abz_c	0
M_4adcho_c	0
M_2mecdp_c	0
M_agdpcbi_c	0
M_2obut_c	0
M_agm_c	0
M_4ahmmp_c	-0
M_2odec11eg3p_c	0
M_4ampm_c	0
M_ahcys_c	-0.322474
M_2odecg3p_c	0
M_ahdt_c	0
M_4c2me_c	0
M_4crsol_c	0
M_2ohph_c	0
M_4fe4s_c	-0.0025053
M_aicar_c	0
M_air_c	0
M_2ombzl_c	0
M_akg_c	0
M_4h2opntn_c	0
M_2omhmbl_c	0
M_4hbz_c	0
M_ala_B_c	0
M_2ommbl_c	0
M_ala__D_c	0
M_4hthr_c	0
M_2omph_c	0
M_4mhetz_c	-0
M_ala__L_c	0
M_2oph_c	0
M_alaala_c	0
M_alac__S_c	0
M_4mop_c	0
M_2oxpaccoa_c	0
M_4mpetz_c	0
M_alatrna_c	0
M_2p4c2me_c	0
M_all__D_c	0
M_4pasp_c	0
M_2pg_c	0
M_4per_c	0
M_all6p_c	0
M_4ppan_c	0
M_2pglyc_c	-0
M_4ppcys_c	0
M_alltn_c	0
M_alltt_c	-0.845227
M_2sephchc_c	0
M_4r5au_c	0
M_allul6p_c	0
M_2shchc_c	0
M_altrn_c	0
M_56dura_c	0
M_apg140_c	-2.22045e-16
M_5aizc_c	0
M_5aop_c	0
M_5aprbu_c	0
M_amet_c	-0.0895882
M_ametam_c	0
M_amob_c	0
M_apg141_c	-2.22045e-16
M_amp_c	0
M_5apru_c	0
M_apg160_c	-2.22045e-16
M_5caiz_c	0
M_anhgm_c	0
M_apg161_c	-2.22045e-16
M_anhgm3p_c	0
M_anhgm4p_c	0
M_anhm_c	0
M_5dglcn_c	1.05127e-16
M_apg180_c	-2.22045e-16
M_anhm3p_c	0
M_anhm4p_c	0
M_apg181_c	-2.22045e-16
M_anth_c	0
M_ap4a_c	0
M_ap5a_c	-0
M_apoACP_c	-0
M_apg120_c	-2.22045e-16
M_appl_c	0
M_aps_c	0
M_ara5p_c	0
M_arab__L_c	0
M_aragund_c	0
M_arbt6p_c	0
M_arbtn_c	0
M_arbtn_fe3_c	0
M_ethso3_c	0
M_crn__D_c	0
M_arg__L_c	0
M_crnDcoa_c	0
M_etoh_c	0
M_argsuc_c	-1
M_f1p_c	0
M_crncoa_c	0
M_argtrna_c	0
M_csn_c	0
M_f6p_c	0.547
M_ascb6p_c	0
M_fad_c	0
M_ctbt_c	0
M_ctbtcoa_c	0
M_asn__L_c	-0.132
M_ctp_c	0
M_fadh2_c	-0.00225275
M_asntrna_c	0
M_fald_c	0
M_fc1p_c	0
M_cu_c	2.22045e-16
M_aso3_c	0
M_cu2_c	-0.00680877
M_fcl__L_c	0
M_aso4_c	-0
M_fdp_c	3.816
M_cyan_c	2.22045e-16
M_asp__L_c	-1.344
M_cynt_c	0
M_fe2_c	0
M_aspsa_c	0
M_fe3_c	0
M_fe3dhbzs_c	0
M_cys__D_c	0
M_asptrna_c	0
M_cys__L_c	0
M_fe3hox_c	0
M_athr__L_c	0
M_fe3hox_un_c	0
M_cyst__L_c	0
M_athtp_c	0
M_cystrna_c	0
M_fecrm_c	0
M_atp_c	-0.984477
M_fecrm_un_c	0
M_feenter_c	-0.00225275
M_cytd_c	0
M_dad_2_c	0
M_b2coa_c	0
M_dad_5_c	0
M_feoxam_c	0
M_bbtcoa_c	0
M_feoxam_un_c	0
M_fgam_c	0
M_dadp_c	0
M_betald_c	0
M_damp_c	0
M_flxr_c	0
M_bglycogen_c	0
M_flxso_c	0
M_dann_c	0
M_bmoco_c	0
M_datp_c	-0.250581
M_fmettrna_c	0
M_bmoco1gdp_c	0
M_fmn_c	0
M_db4p_c	0
M_bmocogdp_c	-0.00117184
M_dc2coa_c	0
M_fmnh2_c	0
M_btal_c	0
M_for_c	0
M_dca_c	0
M_btcoa_c	0
M_dcaACP_c	0
M_forcoa_c	0
M_btn_c	-2.02041e-05
M_fpram_c	0
M_dcacoa_c	0
M_btnso_c	2.22045e-16
M_dcamp_c	-1
M_fprica_c	0
M_but_c	0
M_frdp_c	0
M_dcdp_c	0
M_dcmp_c	0
M_but2eACP_c	0
M_dctp_c	-0.258733
M_dcyt_c	0
M_fru_c	0
M_frulys_c	0
M_butACP_c	0
M_frulysp_c	0
M_dd2coa_c	0
M_butso3_c	0
M_ddca_c	0
M_fruur_c	0
M_bwco_c	0
M_fuc__L_c	0
M_fum_c	1.616
M_ddcaACP_c	0
M_bwco1gdp_c	0
M_ddcacoa_c	0
M_g1p_c	0
M_bwcogdp_c	0
M_g3p_c	0
M_ddcap_c	0
M_ca2_c	-0.0500253
M_dgdp_c	0
M_g3pc_c	0
M_camp_c	0
M_g3pe_c	-2.22045e-16
M_dgmp_c	0
M_cbasp_c	-0.965174
M_dgslnt_c	0
M_g3pg_c	-2.22045e-16
M_cbi_c	0
M_g3pi_c	0
M_dgsn_c	0
M_cbl1_c	0
M_dgtp_c	-0.258733
M_g3ps_c	0
M_cbm_c	0
M_g6p_c	2.13
M_dha_c	0
M_cbp_c	6.66134e-16
M_dhap_c	0
M_cd2_c	0
M_dhcinnm_c	0
M_gagicolipa_c	0
M_gal_c	0
M_cddec5eACP_c	0
M_dhf_c	0
M_gal1p_c	0
M_cdec3eACP_c	0
M_galct__D_c	0
M_dhgly_c	0
M_cdg_c	0
M_dhmpt_c	0
M_galctn__D_c	0
M_cdp_c	0
M_galctn__L_c	0
M_dhmptp_c	0
M_cdpdddecg_c	0
M_dhna_c	0
M_galt1p_c	0
M_cdpdhdec9eg_c	0
M_galur_c	0
M_dhnpt_c	0
M_cdpdhdecg_c	0
M_dhor__S_c	0
M_gam1p_c	0
M_cdpdodec11eg_c	0
M_gam6p_c	0
M_dhpmp_c	0
M_cdpdodecg_c	0
M_dhpppn_c	0
M_gar_c	0
M_cdpdtdec7eg_c	0
M_garagund_c	-5e-10
M_dhpt_c	0
M_gbbtn_c	0
M_cdpdtdecg_c	0
M_gcald_c	0
M_dhptd_c	0
M_cechddd_c	0
M_dhptdn_c	0
M_gdp_c	0
M_cenchddd_c	0
M_gdpddman_c	0
M_didp_c	0
M_cgly_c	0
M_dimp_c	0
M_gdpfuc_c	0
M_chol_c	0
M_gdpmann_c	0
M_din_c	0
M_chor_c	4.44089e-16
M_gdpofuc_c	0
M_chtbs6p_c	0
M_gdptp_c	0
M_ditp_c	0
M_cinnm_c	-0
M_dmbzid_c	-0
M_gfgaragund_c	0
M_gg4abut_c	0
M_ggagicolipa_c	0
M_dmlz_c	0
M_dmpp_c	0
M_cit_c	0.86
M_dms_c	-2.22045e-16
M_ggbutal_c	0
M_gggagicolipa_c	0
M_citr__L_c	0
M_ggptrc_c	0
M_dmso_c	0
M_ckdo_c	0
M_dnad_c	0
M_ghb_c	0
M_cl_c	-0.0500253
M_gicolipa_c	0
M_dpcoa_c	0
M_cmp_c	0
M_dsbdox_c	0
M_glc__D_c	1e-09
M_co2_c	0
M_glcn_c	1.81899e-12
M_dsbdrd_c	0
M_coa_c	0
M_dscl_c	0
M_glcr_c	0
M_cobalt2_c	-0.000242449
M_glcur_c	0
M_dtbt_c	0
M_colipa_c	0
M_dtdp_c	0
M_gln__L_c	-2.036
M_cpe160_c	0
M_glntrna_c	0
M_dtdp4aaddg_c	0
M_dtdp4addg_c	0
M_cpe180_c	0
M_dtdp4d6dg_c	0
M_glu__D_c	0
M_glu__L_c	0
M_cpg160_c	0
M_glu1sa_c	0
M_dtdp4d6dm_c	0
M_cpg180_c	0
M_dtdpglu_c	0
M_glu5p_c	0
M_cpgn_c	0
M_glu5sa_c	0
M_dtdprmn_c	0
M_cpgn_un_c	0
M_dtmp_c	0
M_glucys_c	0
M_cph4_c	0
M_glutrna_c	0
M_dttp_c	-0.250581
M_cpmp_c	0
M_dudp_c	0
M_glx_c	0
M_gly_c	-0.772
M_cpppg3_c	0
M_glyald_c	0
M_dump_c	0
M_crn_c	0
M_duri_c	0
M_glyb_c	-2.22045e-16
M_glyc2p_c	0
M_glyc_c	0
M_glyc__R_c	0
M_dutp_c	0
M_dxyl_c	-0
M_dxyl5p_c	0
M_glyc3p_c	0
M_e4p_c	0
M_glyclt_c	0
M_egmeACP_c	0
M_glycogen_c	0
M_eig3p_c	0
M_glytrna_c	0
M_enter_c	0
M_lcts_c	0
M_gmeACP_c	0
M_leu__L_c	0
M_epmeACP_c	0
M_etha_c	0
M_gmhep17bp_c	0
M_leutrna_c	0
M_gmhep1p_c	0
M_lgt__S_c	0
M_gmhep7p_c	0
M_lipa_c	0
M_gmp_c	0
M_lipa_cold_c	0
M_gp4g_c	-0
M_lipidA_c	0
M_lipidAds_c	0
M_grdp_c	0
M_lipidX_c	0
M_grxox_c	0
M_lipoamp_c	0
M_ocdcap_c	0
M_grxrd_c	0
M_ocdcea_c	0
M_ocdceap_c	0
M_octa_c	0
M_lipoate_c	0
M_lipopb_c	-3.03061e-05
M_lys__L_c	1
M_gslnt_c	0
M_lystrna_c	0
M_lyx__L_c	0
M_octapb_c	0
M_octdp_c	0
M_gsn_c	0
M_octeACP_c	0
M_mal__D_c	0
M_gthox_c	-1
M_mal__L_c	0.728
M_od2coa_c	0
M_gthrd_c	0
M_odecoa_c	0
M_malACP_c	-1e-09
M_gtp_c	-0.287594
M_malcoa_c	-0.000313163
M_ogmeACP_c	0
M_gtspmd_c	0
M_ohpb_c	0
M_malcoame_c	0
M_gua_c	0
M_malt_c	0
M_malt6p_c	0
M_op4en_c	0
M_h_c	0
M_opmeACP_c	0
M_malthp_c	0
M_h2_c	0
M_malthx_c	0
M_orn_c	6.66134e-16
M_orot_c	0
M_maltpt_c	0
M_h2mb4p_c	0
M_orot5p_c	0
M_h2o_c	0
M_oxa_c	0
M_malttr_c	0
M_maltttr_c	0
M_h2o2_c	0
M_man_c	0
M_oxadpcoa_c	0
M_h2s_c	0
M_man1p_c	0
M_hco3_c	0
M_man6p_c	0.255
M_oxalcoa_c	0
M_hcys__L_c	0
M_oxam_c	0
M_man6pglyc_c	0
M_hdca_c	0
M_mana_c	0
M_mdhdhf_c	0
M_oxur_c	0
M_hdcap_c	0
M_pa120_c	0
M_melib_c	0
M_hdcea_c	0
M_meoh_c	0
M_pa140_c	0
M_hdceap_c	0
M_pa141_c	0
M_mercppyr_c	-0
M_pa160_c	0
M_hdcoa_c	0
M_pa161_c	0
M_met__D_c	0
M_hdd2coa_c	0
M_met__L_c	0
M_methf_c	0
M_pa180_c	-1
M_hdeACP_c	0
M_pa181_c	0
M_metsox_R__L_c	0
M_pac_c	0
M_hemeO_c	-0.00225275
M_pacald_c	0
M_metsox_S__L_c	0
M_mettrna_c	0
M_hexACP_c	-1e-09
M_mg2_c	-0.0833721
M_palmACP_c	0
M_hg2_c	2.22045e-16
M_pan4p_c	0
M_mi1p__D_c	-0
M_hgmeACP_c	0
M_micit_c	0
M_pant__R_c	0
M_hhlipa_c	0
M_pap_c	-1
M_mlthf_c	-0.00901101
M_his__L_c	-0.105
M_mmcoa__S_c	0
M_paps_c	0
M_hisp_c	0
M_pdx5p_c	0
M_mmet_c	0
M_mn2_c	-0.00664714
M_histd_c	0
M_mnl1p_c	0
M_moadamp_c	0
M_pe120_c	0
M_pe140_c	0
M_pe141_c	0
M_histrna_c	0
M_pe160_c	-0.124922
M_moadcoo_c	0
M_moadcosh_c	0
M_pe161_c	-0.0971613
M_hkndd_c	0
M_pe180_c	0
M_mobd_c	-7.07142e-05
M_hkntd_c	0
M_moco_c	0
M_pe181_c	-0.0500758
M_hlipa_c	0
M_pep_c	-1.06
M_mococdp_c	-7.07142e-05
M_mocogdp_c	-7.07142e-05
M_hmbil_c	0
M_mpt_c	0
M_pg120_c	0
M_hmgth_c	0
M_pg140_c	0
M_mptamp_c	0
M_hom__L_c	8.88178e-16
M_mql8_c	-0.00225275
M_pg141_c	0
M_hphhlipa_c	0
M_pg160_c	-0.0576523
M_mqn8_c	0
M_pg161_c	-0.0448429
M_hpmeACP_c	0
M_pg180_c	0
M_msa_c	0
M_mso3_c	0
M_hpyr_c	0
M_mthgxl_c	0
M_pg181_c	-0.0231134
M_hqn_c	0
M_pgp120_c	0
M_mththf_c	0
M_hx2coa_c	0
M_myrsACP_c	0
M_pgp140_c	0
M_hxa_c	0
M_n2o_c	0
M_hxan_c	0
M_n8aspmd_c	0
M_na1_c	0
M_pgp141_c	0
M_hxcoa_c	0
M_pgp160_c	0
M_pgp161_c	0
M_na15dap_c	0
M_iasp_c	0
M_nac_c	0
M_pgp180_c	0
M_ichor_c	0
M_pgp181_c	0
M_nad_c	0
M_icit_c	0
M_nadh_c	-0.0185069
M_phaccoa_c	0
M_icolipa_c	0
M_phe__L_c	0.29
M_nadp_c	0
M_nadph_c	-0.00451561
M_idon__L_c	0
M_ncam_c	0
M_pheme_c	-0.00225275
M_idp_c	0
M_phetrna_c	0
M_phhlipa_c	0
M_nh4_c	1e-09
M_ile__L_c	-0.087
M_ni2_c	-0.00310132
M_phom_c	0
M_iletrna_c	0
M_phphhlipa_c	0
M_nicrnt_c	0
M_imacp_c	0
M_nmn_c	0
M_phpyr_c	0
M_imp_c	0
M_phthr_c	0
M_no_c	0
M_indole_c	0
M_no2_c	0
M_no3_c	0
M_pi_c	0
M_inost_c	-2.22045e-16
M_pimACP_c	0
M_o16aund_c	5e-10
M_pmeACP_c	0
M_ins_c	0
M_pmtcoa_c	0
M_pnto__R_c	0
M_o2_c	-50
M_ipdp_c	0
M_o2s_c	0
M_poaac_c	0
M_iscs_c	0
M_ppa_c	0
M_oaa_c	0
M_oc2coa_c	0
M_ppal_c	0
M_iscssh_c	0
M_ppap_c	0
M_ocACP_c	0
M_iscu_c	0
M_occoa_c	0
M_ppbng_c	0
M_iscu_2fe2s_c	0
M_ppcoa_c	0
M_ocdca_c	0
M_iscu_2fe2s2_c	0
M_ocdcaACP_c	0
M_ppgpp_c	0
M_iscu_4fe4s_c	0
M_pphn_c	0
M_isetac_c	0
M_ppi_c	0
M_itp_c	0
M_ppp9_c	0
M_pro__L_c	-0.121
M_pppg9_c	0
M_k_c	-1
M_pppi_c	0
M_progly_c	0
M_kdo_c	0
M_protrna_c	0
M_pppn_c	0
M_kdo2lipid4_c	0
M_pram_c	0
M_prpp_c	0
M_ps120_c	0
M_kdo2lipid4L_c	0
M_ps140_c	0
M_pran_c	0
M_kdo2lipid4p_c	0
M_prbamp_c	0
M_ps141_c	0
M_kdo8p_c	0
M_ps160_c	0
M_prbatp_c	0
M_kdolipid4_c	0
M_preq0_c	0
M_ps161_c	0
M_kphphhlipa_c	0
M_ps180_c	0
M_preq1_c	0
M_lac__D_c	0
M_prfp_c	0
M_ps181_c	0
M_lac__L_c	0
M_psclys_c	0
M_prlp_c	-0.824953
M_pser__L_c	0
M_lald__D_c	0
M_ptrc_c	0
M_lald__L_c	0
M_pyam5p_c	0
M_ura_c	0
M_pydam_c	0
M_pydx_c	0
M_pydx5p_c	-0.00225275
M_taur_c	0
M_tcynt_c	-2.22045e-16
M_td2coa_c	0
M_tdcoa_c	0
M_uracp_c	0
M_tddec2eACP_c	0
M_pydxn_c	0
M_pyr_c	2.776
M_tdeACP_c	0
M_urate_c	0
M_tdec2eACP_c	0
M_q8_c	0
M_urdglyc_c	0
M_q8h2_c	-0.00225275
M_tdecoa_c	0
M_urea_c	0
M_thdp_c	0
M_quin_c	0
M_uri_c	0
M_quln_c	0
M_r15bp_c	0
M_thex2eACP_c	0
M_utp_c	0
M_thf_c	0
M_r1p_c	0
M_val__L_c	-0.3
M_r5p_c	0
M_thm_c	0
M_valtrna_c	0
M_thmmp_c	0
M_ragund_c	-0
M_rbflvrd_c	-0.00112638
M_thmnp_c	0
M_thmpp_c	-0.00225275
M_rbl__L_c	0
M_wco_c	0
M_rdmbzi_c	0
M_thptdn_c	-0
M_xan_c	0
M_thr__L_c	-0.307
M_rephaccoa_c	0
M_xdp_c	0
M_rhcys_c	0
M_rib__D_c	0
M_thrtrna_c	0
M_xmp_c	0
M_xtp_c	0
M_ribflv_c	-0.00112638
M_xtsn_c	0
M_rml_c	0
M_thym_c	0
M_xu5p__D_c	-3.55271e-15
M_thymd_c	0
M_rml1p_c	0
M_xu5p__L_c	0
M_rmn_c	0
M_tma_c	-2.22045e-16
M_xyl__D_c	0
M_tmao_c	2.22045e-16
M_ru5p__D_c	0
M_xylu__D_c	0
M_ru5p__L_c	0
M_s17bp_c	0
M_tmrs2eACP_c	0
M_toct2eACP_c	0
M_xylu__L_c	0
M_toctd2eACP_c	0
M_s7p_c	0
M_zn2_c	-0.00327306
M_sarcs_c	-0
M_tpalm2eACP_c	0
M_12ppd__R_e	0
M_trdox_c	0
M_sbt6p_c	0
M_sbzcoa_c	0
M_12ppd__S_e	0
M_scl_c	0
M_trdrd_c	0
M_14glucan_e	0
M_tre_c	0
M_sectrna_c	0
M_15dap_e	0
M_sel_c	0
M_tre6p_c	0
M_23camp_e	0
M_trnaala_c	-0
M_seln_c	0
M_23ccmp_e	0
M_selnp_c	0
M_trnaarg_c	-0
M_23cgmp_e	0
M_trnaasn_c	-0
M_ser__D_c	0
M_23cump_e	0
M_ser__L_c	0
M_trnaasp_c	-0
M_trnacys_c	-0
M_23dappa_e	0
M_seramp_c	0
M_26dap__M_e	0
M_sertrna_c	0
M_sertrna_sec_c	0
M_trnagln_c	-0
M_trnaglu_c	0
M_2ddglcn_e	0
M_trnagly_c	-0
M_sheme_c	-0.00225275
M_34dhpac_e	0
M_skm_c	0
M_trnahis_c	-0
M_3amp_e	0
M_trnaile_c	-0
M_skm5p_c	0
M_sl26da_c	0
M_3cmp_e	0
M_sl2a6o_c	0
M_trnaleu_c	-0
M_3gmp_e	0
M_trnalys_c	-0
M_slnt_c	0
M_trnamet_c	-0
M_3hcinnm_e	0
M_trnaphe_c	-0
M_so2_c	0
M_so3_c	0
M_3hpp_e	0
M_so4_c	-0.041681
M_trnapro_c	-0
M_3hpppn_e	0
M_trnasecys_c	-0
M_spmd_c	-0.0681281
M_3ump_e	0
M_stcoa_c	-0.00550561
M_suc6p_c	0
M_trnaser_c	-0
M_trnathr_c	-0
M_4abut_e	0
M_trnatrp_c	-0
M_sucarg_c	0
M_4hoxpacd_e	0
M_sucbz_c	0
M_trnatyr_c	-0
M_5dglcn_e	0
M_trnaval_c	-0
M_trp__L_c	-0.0185
M_trptrna_c	0
M_succ_c	12.605
M_succoa_c	0
M_sucglu_c	0
M_5mtr_e	0
M_sucgsa_c	0
M_suchms_c	0
M_tsul_c	0
M_LalaDglu_e	0
M_ttdca_c	0
M_ttdcap_c	0
M_sucorn_c	0
M_LalaDgluMdap_e	0
M_sucsal_c	0
M_ttdcea_c	0
M_LalaDgluMdapDala_e	0
M_ttdceap_c	0
M_sufbcd_c	0
M_sufbcd_2fe2s_c	0
M_LalaLglu_e	0
M_sufbcd_2fe2s2_c	0
M_tungs_c	0
M_tyr__L_c	-0.084
M_ac_e	0
M_tyrtrna_c	0
M_sufbcd_4fe4s_c	0
M_sufse_c	0
M_acac_e	0
M_sufsesh_c	0
M_u23ga_c	0
M_acald_e	0
M_u3aga_c	0
M_sulfac_c	0
M_acgal_e	0
M_t3c11vaceACP_c	0
M_u3hga_c	0
M_acgal1p_e	0
M_uLa4fn_c	0
M_t3c5ddeceACP_c	0
M_acgam_e	0
M_t3c7mrseACP_c	0
M_uLa4n_c	0
M_acgam1p_e	0
M_uaagmda_c	0
M_t3c9palmeACP_c	0
M_acmana_e	0
M_tag6p__D_c	0
M_uaccg_c	0
M_acmum_e	0
M_uacgam_c	0
M_uacmam_c	0
M_tagdp__D_c	0
M_tagur_c	0
M_acnam_e	0
M_tartr__D_c	0
M_uacmamu_c	0
M_acolipa_e	0
M_uagmda_c	0
M_tartr__L_c	0
M_acser_e	0
M_uama_c	0
M_ade_e	0
M_adn_e	0
M_adocbl_e	0
M_uamag_c	0
M_ag_e	0
M_uamr_c	0
M_agm_e	0
M_udcpdp_c	-0.000555612
M_akg_e	0
M_udcpp_c	0
M_ala_B_e	0
M_udp_c	0
M_ala__D_e	0
M_udpLa4fn_c	0
M_chtbs_e	0
M_ala__L_e	0
M_udpLa4n_c	0
M_alaala_e	0
M_udpLa4o_c	0
M_cit_e	0
M_all__D_e	0
M_cl_e	0
M_udpg_c	-1e-09
M_alltn_e	0
M_udpgal_c	0
M_cm_e	0
M_amp_e	0
M_cmp_e	0
M_udpgalfur_c	0
M_anhgm_e	0
M_udpglcur_c	0
M_co2_e	0
M_arab__L_e	0
M_cobalt2_e	0
M_colipa_e	0
M_ugmd_c	0
M_ugmda_c	0
M_um4p_c	0
M_colipap_e	0
M_arbt_e	0
M_cpgn_e	0
M_cpgn_un_e	0
M_ump_c	0
M_arbtn_e	0
M_unaga_c	0
M_unagamu_c	0
M_crn_e	0
M_arbtn_fe3_e	0
M_crn__D_e	0
M_unagamuf_c	0
M_arg__L_e	0
M_ascb__L_e	0
M_uppg3_c	0
M_csn_e	0
M_cu_e	0
M_asn__L_e	0
M_aso3_e	0
M_cu2_e	0
M_asp__L_e	0
M_cyan_e	0
M_btn_e	0
M_cynt_e	0
M_but_e	0
M_cys__D_e	0
M_glyb_e	0
M_butso3_e	0
M_glyc_e	0
M_cys__L_e	0
M_cytd_e	0
M_glyc__R_e	0
M_ca2_e	0
M_glyc2p_e	0
M_dad_2_e	0
M_cbi_e	0
M_damp_e	0
M_glyc3p_e	0
M_cbl1_e	0
M_glyclt_e	0
M_dca_e	0
M_cd2_e	0
M_dcmp_e	0
M_gmp_e	0
M_cgly_e	0
M_gsn_e	0
M_dcyt_e	0
M_chol_e	0
M_ddca_e	0
M_gthox_e	0
M_ppa_e	0
M_gthrd_e	0
M_gtp_e	0
M_gua_e	0
M_dgmp_e	0
M_dgsn_e	0
M_dha_e	0
M_dimp_e	0
M_ppal_e	0
M_din_e	0
M_h_e	0
M_pppn_e	0
M_h2_e	0
M_dms_e	0
M_ppt_e	0
M_dmso_e	0
M_h2o_e	0
M_h2o2_e	0
M_pro__L_e	0
M_h2s_e	0
M_dopa_e	0
M_progly_e	0
M_doxrbcn_e	0
M_dtmp_e	0
M_hacolipa_e	0
M_psclys_e	0
M_halipa_e	0
M_dump_e	0
M_pser__L_e	0
M_duri_e	0
M_hdca_e	0
M_eca4colipa_e	0
M_ptrc_e	0
M_hdcea_e	0
M_pydam_e	0
M_hg2_e	0
M_enlipa_e	0
M_enter_e	0
M_pydx_e	0
M_etha_e	0
M_his__L_e	0
M_pydxn_e	0
M_hom__L_e	0
M_ethso3_e	0
M_pyr_e	0
M_etoh_e	0
M_hxa_e	0
M_quin_e	0
M_hxan_e	0
M_f6p_e	0
M_r5p_e	0
M_fald_e	0
M_idon__L_e	0
M_rfamp_e	0
M_ile__L_e	0
M_fe2_e	0
M_rib__D_e	0
M_fe3_e	0
M_fe3dcit_e	0
M_imp_e	0
M_rmn_e	0
M_indole_e	0
M_fe3dhbzs_e	0
M_fe3hox_e	0
M_inost_e	0
M_sbt__D_e	0
M_ins_e	0
M_isetac_e	0
M_fe3hox_un_e	0
M_fecrm_e	0
M_sel_e	0
M_fecrm_un_e	0
M_k_e	0
M_ser__D_e	0
M_kdo2lipid4_e	0
M_feenter_e	0
M_ser__L_e	0
M_feoxam_e	0
M_lac__D_e	0
M_feoxam_un_e	0
M_skm_e	0
M_for_e	0
M_lac__L_e	0
M_slnt_e	0
M_lcts_e	0
M_fru_e	0
M_so2_e	0
M_frulys_e	0
M_leu__L_e	0
M_so3_e	0
M_lipa_e	0
M_fruur_e	0
M_so4_e	0
M_fuc__L_e	0
M_fum_e	0
M_lipa_cold_e	0
M_spmd_e	0
M_lipoate_e	0
M_fusa_e	0
M_succ_e	0
M_g1p_e	0
M_lys__L_e	0
M_sucr_e	0
M_lyx__L_e	0
M_g3pc_e	0
M_sulfac_e	0
M_g3pe_e	0
M_mal__D_e	0
M_tartr__D_e	0
M_mal__L_e	0
M_malt_e	0
M_g3pg_e	0
M_tartr__L_e	0
M_g3pi_e	0
M_g3ps_e	0
M_malthx_e	0
M_taur_e	0
M_maltpt_e	0
M_g6p_e	0
M_tcynt_e	0
M_gal_e	0
M_thm_e	0
M_gal_bD_e	0
M_malttr_e	0
M_maltttr_e	0
M_thr__L_e	0
M_man_e	0
M_gal1p_e	0
M_thrp_e	0
M_galct__D_e	0
M_man6p_e	0
M_thym_e	0
M_manglyc_e	0
M_galctn__D_e	0
M_thymd_e	0
M_galctn__L_e	0
M_galt_e	0
M_melib_e	0
M_tma_e	0
M_meoh_e	0
M_galur_e	0
M_tmao_e	0
M_gam_e	0
M_met__D_e	0
M_tre_e	0
M_met__L_e	0
M_gam6p_e	0
M_gbbtn_e	0
M_trp__L_e	0
M_gdp_e	0
M_metsox_R__L_e	0
M_tsul_e	0
M_metsox_S__L_e	0
M_glc__D_e	-50
M_mg2_e	0
M_ttdca_e	0
M_mincyc_e	0
M_glcn_e	0
M_glcr_e	0
M_ttdcea_e	0
M_glcur_e	0
M_minohp_e	0
M_ttrcyc_e	0
M_mmet_e	0
M_glcur1p_e	0
M_tungs_e	0
M_gln__L_e	0
M_mn2_e	0
M_tym_e	0
M_mnl_e	0
M_glu__L_e	0
M_tyr__L_e	0
M_gly_e	0
M_mobd_e	0
M_glyald_e	0
M_tyrp_e	0
M_mso3_e	0
M_uacgam_e	0
M_n2o_e	0
M_udpacgal_e	0
M_na1_e	0
M_nac_e	0
M_nh4_e	0
M_1ddecg3p_p	0
M_udpg_e	0
M_1hdec9eg3p_p	0
M_ni2_e	0
M_udpgal_e	0
M_nmn_e	0
M_1hdecg3p_p	0
M_udpglcur_e	0
M_1odec11eg3p_p	0
M_no_e	0
M_ump_e	0
M_no2_e	0
M_1odecg3p_p	0
M_ura_e	0
M_1tdec7eg3p_p	0
M_no3_e	0
M_urea_e	0
M_novbcn_e	0
M_1tdecg3p_p	0
M_uri_e	0
M_23camp_p	-0
M_o16a4colipa_e	0
M_val__L_e	0
M_o2_e	0
M_23ccmp_p	-0
M_23cgmp_p	-0
M_xan_e	0
M_23cump_p	-0
M_o2s_e	0
M_xmp_e	0
M_ocdca_e	0
M_23dappa_p	-0
M_ocdcea_e	0
M_xtsn_e	0
M_octa_e	0
M_26dap__M_p	-0
M_xyl__D_e	0
M_2agpe120_p	0
M_2agpe140_p	0
M_orn_e	0
M_xylu__L_e	0
M_orot_e	0
M_2agpe141_p	0
M_zn2_e	0
M_2agpe160_p	0
M_pacald_e	0
M_12dgr120_p	0
M_peamn_e	0
M_2agpe161_p	0
M_12dgr140_p	0
M_2agpe180_p	0
M_phe__L_e	0
M_2agpe181_p	0
M_12dgr141_p	0
M_2agpg120_p	0
M_pheme_e	0
M_pi_e	0
M_12dgr160_p	0
M_pnto__R_e	0
M_2agpg140_p	0
M_12dgr161_p	0
M_2agpg141_p	0
M_12dgr180_p	0
M_2agpg160_p	0
M_2agpg161_p	0
M_12dgr181_p	0
M_12ppd__R_p	0
M_2agpg180_p	0
M_cbi_p	-0
M_12ppd__S_p	0
M_cbl1_p	-0
M_2agpg181_p	0
M_2ddecg3p_p	0
M_14glucan_p	2.22045e-16
M_2ddglcn_p	0
M_cd2_p	0
M_15dap_p	1
M_cgly_p	0
M_2hdec9eg3p_p	0
M_1agpe120_p	0
M_2hdecg3p_p	0
M_chol_p	0
M_1agpe140_p	0
M_chtbs_p	-0
M_2odec11eg3p_p	0
M_1agpe141_p	0
M_2odecg3p_p	0
M_cit_p	0
M_1agpe160_p	0
M_cl_p	-0
M_2tdec7eg3p_p	0
M_1agpe161_p	0
M_2tdecg3p_p	0
M_1agpe180_p	0
M_34dhpac_p	0
M_3amp_p	0
M_clpn120_p	0
M_clpn140_p	0
M_1agpe181_p	0
M_clpn141_p	0
M_3cmp_p	0
M_3gmp_p	0
M_1agpg120_p	0
M_3hcinnm_p	0
M_clpn160_p	-0.0297404
M_1agpg140_p	0
M_clpn161_p	-0.0231336
M_3hpp_p	0
M_1agpg141_p	0
M_3hpppn_p	0
M_clpn180_p	-1
M_clpn181_p	-0.0119204
M_1agpg160_p	0
M_cm_p	-0
M_3ump_p	0
M_4abut_p	0
M_1agpg161_p	0
M_4hoxpacd_p	0
M_cmp_p	-0
M_1agpg180_p	0
M_co2_p	0
M_5dglcn_p	0
M_1agpg181_p	0
M_5mtr_p	0
M_cobalt2_p	0
M_g6p_p	-0
M_colipa_p	-0.0823416
M_colipap_p	0
M_cpgn_p	0
M_LalaDglu_p	-0
M_LalaDgluMdap_p	0
M_LalaDgluMdapDala_p	0
M_LalaLglu_p	-0
M_gal_p	0
M_ac_p	0
M_acac_p	0
M_cpgn_un_p	0
M_crn_p	0
M_gal_bD_p	-0
M_crn__D_p	0
M_acald_p	0
M_gal1p_p	0
M_acgal_p	0
M_csn_p	-0
M_galct__D_p	0
M_acgal1p_p	0
M_galctn__D_p	-0
M_acgam_p	0
M_ctbt_p	0
M_galctn__L_p	-0
M_cu_p	0
M_acgam1p_p	0
M_galt_p	-0
M_acmana_p	-0
M_cu2_p	0
M_galur_p	0
M_cyan_p	-0
M_acmum_p	-0
M_gam_p	-0
M_acnam_p	-0
M_cynt_p	-0
M_acolipa_p	0
M_gam6p_p	-0
M_acser_p	-0
M_cys__D_p	-0
M_gbbtn_p	0
M_cys__L_p	0
M_ade_p	0
M_gdp_p	0
M_adn_p	0
M_cytd_p	0
M_glc__D_p	0
M_dad_2_p	0
M_adocbl_p	-0
M_glcn_p	0
M_agm_p	0
M_akg_p	0
M_damp_p	-0
M_glcr_p	0
M_dca_p	-0
M_ala_B_p	-0
M_glcur_p	0
M_ala__D_p	4.44089e-16
M_dcmp_p	-0
M_glcur1p_p	0
M_dcyt_p	0
M_ala__L_p	0
M_ddca_p	0
M_alaala_p	0
M_gln__L_p	0
M_all__D_p	-0
M_dgmp_p	-0
M_glu__L_p	0
M_dgsn_p	0
M_alltn_p	0
M_gly_p	0
M_alpp_p	2.22045e-16
M_dha_p	0
M_glyald_p	0
M_dimp_p	-0
M_amp_p	-0
M_glyb_p	2.22045e-16
M_anhgm_p	0
M_anhgm3p_p	0
M_din_p	0
M_dms_p	-2.22045e-16
M_glyc_p	0
M_dmso_p	0
M_dopa_p	-0
M_anhgm4p_p	-4.44089e-16
M_arab__L_p	0
M_glyc__R_p	0
M_arbt_p	-0
M_doxrbcn_p	-0
M_glyc2p_p	2.22045e-16
M_dsbaox_p	-2.22045e-16
M_arbtn_p	0
M_glyc3p_p	0
M_arbtn_fe3_p	0
M_arg__L_p	0
M_dsbard_p	2.22045e-16
M_glyclt_p	0
M_dsbcox_p	2.22045e-16
M_ascb__L_p	-0
M_gmp_p	-0
M_asn__L_p	0
M_dsbcrd_p	-2.22045e-16
M_gsn_p	0
M_dsbgox_p	2.22045e-16
M_aso3_p	0
M_gthox_p	-2.22045e-16
M_asp__L_p	0
M_dsbgrd_p	-2.22045e-16
M_btn_p	-0
M_gthrd_p	0
M_but_p	0
M_dtmp_p	-0
M_gtp_p	-0
M_dump_p	-0
M_butso3_p	-0
M_gua_p	0
M_ca2_p	0
M_duri_p	0
M_h_p	0
M_eca2und_p	0
M_eca3und_p	0
M_h2_p	0
M_eca4colipa_p	0
M_h2o_p	0
M_eca4und_p	0
M_h2o2_p	-2.22045e-16
M_enlipa_p	0
M_murein4p3p_p	0
M_h2s_p	-0
M_murein4p4p_p	0
M_murein4px4p_p	0
M_enter_p	0
M_hdca_p	0
M_etha_p	0
M_murein4px4p4p_p	-0.540647
M_hdcea_p	0
M_murein4px4px4p_p	0
M_ethso3_p	0
M_etoh_p	0
M_hg2_p	-2.22045e-16
M_f6p_p	-0
M_murein5p3p_p	0
M_his__L_p	0
M_murein5p4p_p	0
M_fald_p	0
M_hom__L_p	0
M_fe2_p	-0.137317
M_murein5p5p_p	0
M_hxa_p	0
M_murein5p5p5p_p	-1
M_fe3_p	0
M_hxan_p	0
M_fe3dcit_p	-0
M_murein5px3p_p	0
M_murein5px4p_p	0
M_idon__L_p	0
M_murein5px4px4p_p	-1
M_fe3dhbzs_p	-0
M_fe3hox_p	0
M_ile__L_p	0
M_fe3hox_un_p	0
M_n2o_p	0
M_imp_p	-0
M_na1_p	0
M_fecrm_p	0
M_indole_p	0
M_fecrm_un_p	0
M_nac_p	-0
M_nh4_p	0
M_ni2_p	0
M_feenter_p	0
M_feoxam_p	0
M_inost_p	0
M_feoxam_un_p	0
M_nmn_p	2.22045e-16
M_no_p	0
M_ins_p	0
M_no2_p	0
M_for_p	0
M_isetac_p	-0
M_fru_p	0
M_no3_p	2.22045e-16
M_k_p	-0.875846
M_novbcn_p	-0
M_frulys_p	-0
M_kdo2lipid4_p	0
M_fruur_p	0
M_o16a2und_p	0
M_lac__D_p	0
M_o16a3und_p	0
M_fuc__L_p	0
M_fum_p	0
M_lac__L_p	0
M_fusa_p	-0
M_o16a4colipa_p	0
M_o16a4und_p	0
M_lcts_p	0
M_o16aund_p	0
M_leu__L_p	0
M_o2_p	0
M_g1p_p	0
M_lipa_p	0
M_g3pc_p	0
M_o2s_p	-0
M_lipa_cold_p	0
M_ocdca_p	0
M_g3pe_p	0
M_lipoate_p	-0
M_g3pg_p	0
M_ocdcea_p	0
M_octa_p	-0
M_g3pi_p	0
M_lpp_p	-2.22045e-16
M_g3ps_p	2.22045e-16
M_orn_p	0
M_lys__L_p	1
M_orot_p	-0
M_lyx__L_p	-0
M_pa120_p	0
M_mal__D_p	-0
M_pa140_p	0
M_so3_p	0
M_mal__L_p	0
M_so4_p	2.22045e-16
M_pa141_p	0
M_malt_p	2.22045e-16
M_pa160_p	0
M_spmd_p	0
M_malthx_p	0
M_succ_p	0
M_pa161_p	0
M_maltpt_p	-0
M_pa180_p	-1
M_sucr_p	-0
M_malttr_p	-0
M_sulfac_p	-0
M_pa181_p	0
M_maltttr_p	-0
M_pacald_p	0
M_tartr__D_p	2.22045e-16
M_man_p	-0
M_tartr__L_p	0
M_pe120_p	0
M_taur_p	-0
M_man6p_p	-0
M_tcynt_p	0
M_pe140_p	0
M_pe141_p	0
M_manglyc_p	-0
M_pe160_p	-0.321224
M_thm_p	-0
M_melib_p	0
M_thr__L_p	0
M_pe161_p	-0.249843
M_meoh_p	0
M_pe180_p	0
M_thrp_p	-0
M_met__D_p	-0
M_thym_p	0
M_pe181_p	-0.128771
M_met__L_p	-0
M_peamn_p	-0
M_thymd_p	0
M_metsox_R__L_p	-0
M_tma_p	-2.22045e-16
M_pg120_p	0
M_pg140_p	0
M_metsox_S__L_p	-0
M_pg141_p	0
M_tmao_p	2.22045e-16
M_mg2_p	0
M_tre_p	0
M_pg160_p	-0.0494191
M_mincyc_p	-0
M_pg161_p	-0.0384382
M_trp__L_p	0
M_minohp_p	-0
M_tsul_p	2.22045e-16
M_ttdca_p	0
M_pg180_p	-0.297463
M_pg181_p	-0.0198101
M_pgp120_p	0
M_mmet_p	-0
M_pgp140_p	0
M_ttdcea_p	0
M_ttrcyc_p	-0
M_mn2_p	0
M_tungs_p	-0
M_pgp141_p	0
M_pgp160_p	0
M_mnl_p	-0
M_pgp161_p	0
M_tym_p	-0
M_mobd_p	-0
M_tyr__L_p	0
M_pgp180_p	0
M_mso3_p	-0
M_pgp181_p	0
M_tyrp_p	-0
M_murein3p3p_p	-0.0135872
M_uLa4n_p	0
M_phe__L_p	0
M_murein3px3p_p	0
M_pheme_p	0
M_uacgam_p	-0
M_murein3px4p_p	-0.00611173
M_udcpdp_p	0
M_pi_p	0
M_udcpp_p	0
M_udpacgal_p	-0
M_udpg_p	-0
M_udpgal_p	-0
M_udpglcur_p	-0
M_ump_p	0
M_unagamuf_p	0
M_ura_p	0
M_urea_p	0
M_uri_p	0
M_val__L_p	0
M_xan_p	0
M_xmp_p	-0
M_xtsn_p	0
M_xyl__D_p	2.22045e-16
M_xylu__L_p	-0
M_zn2_p	0
M_pnto__R_p	-0
M_ppa_p	-0
M_ppal_p	0
M_pppn_p	0
M_ppt_p	-0
M_pro__L_p	0
M_progly_p	-0
M_psclys_p	-0
M_pser__L_p	-0
M_ptrc_p	0
M_pydam_p	-0
M_pydx_p	-0
M_pydxn_p	-0
M_pyr_p	0
M_quin_p	0
M_r5p_p	-0
M_rfamp_p	-0
M_rib__D_p	0
M_rmn_p	-0
M_sbt__D_p	-0
M_sel_p	-0
M_ser__D_p	-0
M_ser__L_p	0
M_skm_p	-0
M_slnt_p	-0
M_so2_p	0
M_biomass_c	10.102
