F_R_ACONTb 	 7.403
F_R_ATPS4r 	 12.7057
R_CS 	 0.86
R_CYTBD 	 8.265
F_R_ENO 	 6.149
R_FRD7 	 3.166
B_R_FUM 	 4.782
R_GLCpts 	 6.349
F_R_GLUDy 	 2.036
R_GLUN 	 2.036
B_R_ICDHyr 	 2.036
R_ICL 	 9.439
R_MALS 	 9.439
R_ME1 	 3.929
R_NADH16 	 11.431
R_PDH 	 7.502
R_PFK 	 3.672
F_R_PGI 	 4.219
R_PGL 	 0.237
R_PPC 	 9.89075
R_PPCK 	 9.03075
B_R_PTAr 	 2.797
