B_R_ACONTa 	 0.86
F_R_ACONTb 	 6.7759
F_R_ADK1 	 5.164
F_R_ATPS4r 	 14.413
R_CYTBD 	 10.5149
R_FRD7 	 1.6925
B_R_FUM 	 3.3085
R_GLCpts 	 6.493
F_R_GLUDy 	 2.036
R_GLUN 	 2.036
B_R_ICDHyr 	 2.036
R_ICL 	 10.9125
R_MALS 	 10.9125
R_ME1 	 6.876
R_NADH16 	 12.2074
R_PDH 	 5.16
R_PFK 	 3.816
F_R_PGI 	 4.363
R_PGL 	 0.183
R_PPS 	 5.433
B_R_PTAr 	 5.7525
