B_R_ACONTa 	 0.86
F_R_ACONTb 	 4.847
F_R_ATPS4r 	 4.28738
F_R_ENO 	 8.6045
R_FRD7 	 5.7165
B_R_FUM 	 7.3325
R_GLCpts 	 6.493
R_GLNS 	 3.37388
F_R_GLUDy 	 2.036
R_GLUN 	 5.40988
B_R_ICDHyr 	 2.036
R_ICL 	 6.8885
R_MALS 	 6.8885
B_R_MDH 	 1.172
R_NADH16 	 5.7165
R_PDH 	 6.8885
R_PFK 	 3.816
F_R_PGI 	 4.363
R_PGL 	 0.183
R_PYK 	 3.1715
