B_R_ACONTa 	 0.86
F_R_ACONTb 	 5.4385
R_CYTBD 	 2.344
F_R_ENO 	 9.1905
R_FORt2 	 27.1115
B_R_FORt 	 27.1115
R_FRD7 	 5.1305
B_R_FUM 	 6.7465
R_GLCpts 	 6.349
F_R_GLUDy 	 2.036
R_GLUN 	 2.036
B_R_ICDHyr 	 2.036
R_ICL 	 7.4745
R_MALS 	 7.4745
R_NADH16 	 7.4745
R_PDH 	 7.4745
R_PFK 	 3.672
F_R_PGI 	 4.219
R_PGL 	 0.237
R_PYK 	 3.9015
