B_R_ACONTa 	 0.86
F_R_ACONTb 	 7.4745
F_R_ATPS4r 	 6.77787
R_CYTBD 	 2.344
F_R_ENO 	 9.1905
R_FBP 	 6.77787
R_FRD7 	 5.1305
B_R_FUM 	 6.7465
R_GLCpts 	 6.349
F_R_GLUDy 	 2.036
R_GLUSy 	 2.036
R_ICL 	 7.4745
R_MALS 	 7.4745
R_NADH16 	 7.4745
R_PDH 	 7.4745
R_PFK 	 10.4499
F_R_PGI 	 4.219
R_PGL 	 0.237
R_PYK 	 3.9015
