B_R_ACONTa 	 0.86
F_R_ACONTb 	 6.0935
R_CYTBD 	 10.663
F_R_ENO 	 5.433
R_FORt2 	 57.434
B_R_FORt 	 57.434
R_FRD7 	 1.373
B_R_FUM 	 2.989
R_GLCpts 	 6.493
F_R_GLUDy 	 4.072
R_GLUSy 	 2.036
B_R_ICDHyr 	 2.036
R_ICL 	 8.1295
R_MALS 	 7.8765
R_ME1 	 4.1595
R_NADH16 	 12.036
R_PDH 	 7.8765
R_PFK 	 3.816
F_R_PGI 	 4.363
B_R_PGK 	 4.085
R_PGL 	 0.183
B_R_PGM 	 4.085
