-3.15887
-3.15887
-3.15887
-3.15887
-3.15887
-3.15887
-3.15887
-3.15887
-3.15888
-3.15887
-3.15888
-3.15887
-3.14087
-3.14087
-3.14087
-3.14088
-3.14087
-3.14088
-2.95763
-2.95763
-2.95763
-2.95762
-2.95762
-2.95762
-2.85975
-2.85975
-2.84175
-2.82672
-2.80475
-2.80475
-2.74075
-2.74075
-2.72275
-2.70872
-2.65887
-2.65887
-2.64087
-2.64087
-2.64087
-2.64088
-2.64087
-2.64087
-2.64087
-2.52763
-2.52763
-2.52763
-2.52763
-2.52762
-2.52762
-2.4915
-2.4915
-2.4915
-2.4915
-2.4915
-2.4915
-2.4915
-2.4915
-2.4915
-2.4915
-2.4915
-2.4915
-2.4915
-2.4915
-2.47475
-2.47475
-2.47475
-2.47475
-2.47475
-2.47475
-2.45812
-2.45812
-2.45812
-2.45762
-2.45763
-2.43381
-2.43381
-2.43242
-2.43268
-2.41488
-2.39414
-2.39414
-2.38966
-2.38966
-2.38966
-2.38966
-2.37997
-2.37997
-2.37997
-2.36258
-2.36258
-2.35164
-2.34175
-2.3426
-2.32672
-2.31213
-2.31075
-2.31075
-2.31075
-2.31075
-2.32757
