Reactions	ColorReaction
R_ACONTa	-10
R_ACONTb	10
R_CYTBD	10
R_ENO	10
R_FRD7	10
R_FUM	-10
R_GLCpts	10
R_GLUDy	10
R_GLUSy	10
R_ICDHyr	-10
R_ICL	10
R_MALS	10
R_NADH16	10
R_NADTRHD	10
R_PDH	10
R_PFK	10
R_PGI	10
R_PGL	10
R_PYK	10
R_THD2	10
