B_R_ACONTa 	 3.32
B_R_ACONTb 	 0.150897
F_R_ATPS4r 	 28.5636
R_BIOMASS_Ecoli_core_w_GAM 	 0.324672
R_CYTBD 	 57.1272
B_R_ENO 	 6.88182
B_R_FBA 	 3.58672
R_FBP 	 3.49372
F_R_FUM 	 38.4072
B_R_GAPD 	 6.33093
F_R_GLUDy 	 5
R_GLUSy 	 1.18617
R_GND 	 0.228
B_R_ICDHyr 	 5.1509
F_R_MDH 	 3.14032
R_ME1 	 2.039
R_ME2 	 5.33885
R_PFL 	 1.2168
F_R_PGI 	 0.438442
F_R_PGK 	 6.33093
F_R_PGM 	 6.88182
R_PPCK 	 2.54504
R_PPS 	 4.32032
B_R_RPE 	 1.06507
B_R_RPI 	 1.29307
R_SUCDi 	 62.1272
B_R_TALA 	 1.94947
F_R_TKT1 	 1.00161
B_R_TKT2 	 2.06668
B_R_TPI 	 3.58672
