B_R_ACONTa 	 3.32
F_R_ACONTb 	 1.68
B_R_ADK1 	 1.71002
F_R_ATPS4r 	 29.5763
R_BIOMASS_Ecoli_core_w_GAM 	 0.380115
R_CYTBD 	 59.1527
B_R_ENO 	 6.57954
B_R_FBA 	 3.31376
R_FBP 	 3.22076
F_R_FUM 	 38.584
F_R_G6PDH2r 	 0.257076
B_R_GAPD 	 6.01089
F_R_GLUDy 	 3.67685
R_GLUN 	 1.32315
R_GND 	 0.228
B_R_ICDHyr 	 5.24224
R_ICL 	 1.92224
F_R_MDH 	 4.66262
R_ME2 	 6.03241
R_PFL 	 1.42459
F_R_PGK 	 6.01089
F_R_PGM 	 6.57954
R_PPCK 	 3.98183
R_PPS 	 2.61003
B_R_RPE 	 0.916123
B_R_RPI 	 1.14412
R_SUCDi 	 64.1527
B_R_TALA 	 1.5818
F_R_TKT1 	 0.802894
B_R_TKT2 	 1.71902
B_R_TPI 	 3.31376
