B_R_ACONTa 	 3.32
B_R_ADK1 	 4.65855
F_R_ATPS4r 	 26.5409
R_BIOMASS_Ecoli_core_w_GAM 	 0.338796
R_CYTBD 	 58.6629
B_R_ENO 	 8.07456
B_R_FBA 	 4.11033
R_FBP 	 4.01733
F_R_FUM 	 39.5285
B_R_GAPD 	 7.26019
F_R_GLUDy 	 3.77894
R_GLUN 	 1.22106
R_GND 	 0.228
B_R_ICDHyr 	 5.17417
R_ICL 	 0.174167
F_R_MDH 	 11.6395
F_R_PGI 	 0.435547
F_R_PGK 	 7.26019
F_R_PGM 	 8.07456
R_PPCK 	 9.94617
R_PYK 	 1.88074
B_R_RPE 	 1.20261
B_R_RPI 	 1.43061
R_SUCDi 	 63.6629
B_R_TALA 	 2.20677
R_THD2 	 5.58103
F_R_TKT1 	 1.12647
B_R_TKT2 	 2.32908
B_R_TPI 	 4.11033
