B_R_ACONTa 	 3.32
F_R_ACONTb 	 1.68
F_R_ATPS4r 	 29.5559
R_BIOMASS_Ecoli_core_w_GAM 	 0.343541
R_CYTBD 	 59.1118
B_R_ENO 	 6.77895
B_R_FBA 	 3.53916
R_FBP 	 3.44616
F_R_FUM 	 38.5979
B_R_GAPD 	 6.26501
F_R_GLUDy 	 3.76721
R_GLUN 	 1.23279
R_GND 	 0.228
B_R_ICDHyr 	 5.18198
R_ICL 	 1.86198
F_R_MDH 	 5.04647
R_ME2 	 5.66238
R_PFL 	 1.28752
F_R_PGI 	 0.434574
F_R_PGK 	 6.26501
F_R_PGM 	 6.77895
R_PPCK 	 4.2916
R_PPS 	 4.29756
R_PYK 	 1.81688
B_R_RPE 	 1.06205
B_R_RPI 	 1.29005
R_SUCDi 	 64.1118
B_R_TALA 	 1.91968
F_R_TKT1 	 0.981652
B_R_TKT2 	 2.0437
B_R_TPI 	 3.53916
