B_R_ACONTa 	 3.32
F_R_ACONTb 	 1.68
B_R_ADK1 	 0.973081
F_R_ATPS4r 	 30.166
R_BIOMASS_Ecoli_core_w_GAM 	 0.337884
R_CYTBD 	 60.332
B_R_ENO 	 8.07611
B_R_FBA 	 4.10788
R_FBP 	 4.01488
F_R_FUM 	 39.511
B_R_GAPD 	 7.25507
F_R_GLUDy 	 5
R_GLUSy 	 1.21881
R_GND 	 0.228
B_R_ICDHyr 	 5.17266
R_ICL 	 1.85266
F_R_MDH 	 6.0566
R_ME2 	 5.56539
F_R_PGI 	 0.435734
F_R_PGK 	 7.25507
F_R_PGM 	 7.76054
R_PPCK 	 4.37927
R_PPS 	 3.68723
B_R_RPE 	 1.20157
B_R_RPI 	 1.42957
R_SUCDi 	 65.332
B_R_TALA 	 2.20584
F_R_TKT1 	 1.12625
B_R_TKT2 	 2.32782
B_R_TPI 	 4.10788
