B_R_ACONTa 	 3.32
B_R_ADK1 	 4.56625
F_R_ATPS4r 	 27.3637
R_BIOMASS_Ecoli_core_w_GAM 	 0.353798
R_CYTBD 	 58.4436
B_R_ENO 	 7.85011
B_R_FBA 	 4.07825
R_FBP 	 3.98525
F_R_FUM 	 39.4913
B_R_GAPD 	 7.21783
F_R_GLUDy 	 5
R_GLUSy 	 1.25813
R_GND 	 0.228
B_R_ICDHyr 	 5
F_R_MDH 	 9.67904
R_ME2 	 1.92324
F_R_PGI 	 0.432472
F_R_PGK 	 7.21783
F_R_PGM 	 7.85011
R_PPCK 	 7.84876
B_R_RPE 	 1.20164
B_R_RPI 	 1.42964
R_SUCDi 	 63.4436
B_R_TALA 	 2.18596
R_THD2 	 3.71613
F_R_TKT1 	 1.11204
B_R_TKT2 	 2.31368
B_R_TPI 	 4.07825
