B_R_ACONTa 	 3.32
F_R_ACONTb 	 1.68
B_R_ADK1 	 4.63558
F_R_ATPS4r 	 27.3497
R_BIOMASS_Ecoli_core_w_GAM 	 0.350672
R_CYTBD 	 60.4841
B_R_ENO 	 8.05431
B_R_FBA 	 4.14219
R_FBP 	 4.04919
F_R_FUM 	 39.7567
B_R_GAPD 	 7.32685
F_R_GLUDy 	 5
R_GLUSy 	 1.25041
R_GND 	 0.228
B_R_ICDHyr 	 5.19373
R_ICL 	 1.87373
F_R_MDH 	 9.95329
R_ME1 	 1.91438
F_R_PGI 	 0.433112
F_R_PGK 	 7.32685
F_R_PGM 	 8.05431
R_PPCK 	 8.05135
B_R_RPE 	 1.21616
B_R_RPI 	 1.44416
R_SUCDi 	 65.4841
B_R_TALA 	 2.21892
R_THD2 	 5.78466
F_R_TKT1 	 1.12936
B_R_TKT2 	 2.34552
B_R_TPI 	 4.14219
