B_R_ACONTa 	 3.32
F_R_ACONTb 	 1.68
B_R_ADK1 	 4.29148
F_R_ATPS4r 	 26.5999
R_BIOMASS_Ecoli_core_w_GAM 	 0.371278
R_CYTBD 	 59.3378
B_R_ENO 	 6.62772
B_R_FBA 	 3.41449
R_FBP 	 3.32149
F_R_FUM 	 38.7823
B_R_GAPD 	 6.07229
F_R_GLUDy 	 3.69868
R_GLUN 	 1.30132
R_GND 	 0.228
B_R_ICDHyr 	 5.22768
R_ICL 	 1.90768
F_R_MDH 	 10.8933
R_PFL 	 1.39147
F_R_PGI 	 0.428888
F_R_PGK 	 6.07229
F_R_PGM 	 6.62772
R_PPCK 	 9.99968
R_PYK 	 3.36423
B_R_RPE 	 1.04392
B_R_RPI 	 1.27192
R_SUCDi 	 64.3378
B_R_TALA 	 1.84851
R_THD2 	 6.13796
F_R_TKT1 	 0.938624
B_R_TKT2 	 1.98254
B_R_TPI 	 3.41449
