B_R_ACONTa 	 3.32
B_R_ADK1 	 4.63231
F_R_ATPS4r 	 27.4649
R_BIOMASS_Ecoli_core_w_GAM 	 0.352363
R_CYTBD 	 58.8243
B_R_ENO 	 8.05143
B_R_FBA 	 4.14672
R_FBP 	 4.05372
F_R_FUM 	 39.7892
B_R_GAPD 	 7.33634
F_R_GLUDy 	 3.74542
R_GLUN 	 1.25458
R_GND 	 0.228
B_R_ICDHyr 	 5.19652
R_ICL 	 0.196518
F_R_MDH 	 9.98098
R_ME2 	 1.91917
F_R_PGI 	 0.432766
F_R_PGK 	 7.33634
F_R_PGM 	 7.86347
R_PPCK 	 8.04934
B_R_RPE 	 1.21809
B_R_RPI 	 1.44609
R_SUCDi 	 63.8243
B_R_TALA 	 2.22065
R_THD2 	 3.89448
F_R_TKT1 	 1.12977
B_R_TKT2 	 2.34786
B_R_TPI 	 4.14672
