B_R_ACONTa 	 3.32
B_R_ADK1 	 4.28776
F_R_ATPS4r 	 27.4215
R_BIOMASS_Ecoli_core_w_GAM 	 0.388264
R_CYTBD 	 57.7961
B_R_ENO 	 6.53511
B_R_FBA 	 3.33814
R_FBP 	 3.24514
F_R_FUM 	 38.8953
B_R_GAPD 	 5.95426
F_R_GLUDy 	 3.65672
R_GLUN 	 1.34328
R_GND 	 0.228
B_R_ICDHyr 	 5.25566
R_ICL 	 0.255665
F_R_MDH 	 7.53029
R_ME2 	 3.47601
R_PFL 	 1.45514
F_R_PGI 	 0.425406
F_R_PGK 	 5.95426
F_R_PGM 	 6.53511
R_PPCK 	 6.55166
B_R_RPE 	 1.03282
B_R_RPI 	 1.26082
R_SUCDi 	 62.7961
B_R_TALA 	 1.80493
R_THD2 	 2.9532
F_R_TKT1 	 0.912274
B_R_TKT2 	 1.94509
B_R_TPI 	 3.33814
