B_R_ACONTa 	 3.32
F_R_ACONTb 	 1.68
F_R_ATPS4r 	 27.5267
R_BIOMASS_Ecoli_core_w_GAM 	 0.283292
R_CYTBD 	 59.6827
B_R_ENO 	 8.16916
B_R_FBA 	 3.96141
R_FBP 	 3.86841
F_R_FUM 	 38.4622
B_R_GAPD 	 6.94866
F_R_GLUDy 	 5
R_GLUSy 	 1.08393
R_GND 	 0.228
B_R_ICDHyr 	 5.08272
R_ICL 	 1.76272
F_R_MDH 	 10.5732
F_R_PGI 	 0.446925
F_R_PGK 	 6.94866
F_R_PGM 	 7.37247
R_PPCK 	 9.85472
R_PPS 	 4.7659
R_PYK 	 6.48941
B_R_RPE 	 1.13929
B_R_RPI 	 1.36729
R_SUCDi 	 64.6827
B_R_TALA 	 2.14999
R_THD2 	 4.62935
F_R_TKT1 	 1.11297
B_R_TKT2 	 2.25226
B_R_TPI 	 3.96141
