Reactions	ColorReaction
R_ACONTa	-10
R_ACONTb	-10
R_ADK1	-10
R_ATPS4r	10
R_BIOMASS_Ecoli_core_w_GAM	10
R_CYTBD	10
R_ENO	-10
R_FBA	-10
R_FBP	10
R_FUM	10
R_GAPD	-10
R_GLUDy	10
R_GLUN	10
R_GND	10
R_ICDHyr	-10
R_MDH	10
R_PGI	10
R_PGK	10
R_PGM	10
R_PPCK	10
R_PYK	10
R_RPE	-10
R_RPI	-10
R_SUCDi	10
R_TALA	-10
R_THD2	10
R_TKT1	10
R_TKT2	-10
R_TPI	-10
