B_R_ACONTa 	 3.32
F_R_ACONTb 	 1.168
F_R_ATPS4r 	 26.265
R_CYTBD 	 52.53
F_R_FUM 	 33.81
F_R_G6PDH2r 	 0.335
F_R_GLUDy 	 4.232
R_GND 	 0.228
B_R_ICDHyr 	 3.832
B_R_LDH_D 	 5
R_ME1 	 5.921
R_PFK 	 0.093
B_R_PGK 	 4.911
R_PPC 	 31.265
R_PPCK 	 31.08
R_SUCDi 	 57.53
