B_R_ACONTa 	 3.32
F_R_ACONTb 	 0.983
B_R_ADK1 	 2.681
R_ATPM 	 5
R_CYTBD 	 52.53
B_R_ENO 	 0.185
F_R_FUM 	 33.81
F_R_G6PDH2r 	 0.334999
F_R_GLUDy 	 4.232
R_GND 	 0.228
B_R_ICDHyr 	 4.017
B_R_LDH_D 	 5
R_ME1 	 5.921
R_NADTRHD 	 51.609
R_PFK 	 0.093
R_SUCDi 	 57.53
R_THD2 	 52.53
