B_R_ACONTa 	 3.32
B_R_ADK1 	 3.1725
F_R_ATPS4r 	 26.265
R_CYTBD 	 52.53
B_R_ENO 	 1.168
R_FBP 	 31.265
F_R_FUM 	 33.81
F_R_G6PDH2r 	 0.335
F_R_GLUDy 	 4.232
R_GND 	 0.228
B_R_ICDHyr 	 4.795
B_R_LDH_D 	 5
R_ME1 	 5.921
R_PFK 	 31.358
R_PPCK 	 0.983
R_SUCDi 	 57.53
