B_R_ACONTa 	 3.32
F_R_ACONTb 	 1.168
R_ATPM 	 31.1725
F_R_ATPS4r 	 26.1725
R_CYTBD 	 52.345
F_R_FUM 	 33.625
F_R_G6PDH2r 	 0.335
F_R_GLUDy 	 4.232
R_GND 	 0.228
B_R_ICDHyr 	 3.832
B_R_LDH_D 	 5
R_ME1 	 5.736
R_PFK 	 0.073
B_R_PGK 	 4.891
R_PYK 	 0.185
R_SUCDi 	 57.345
