B_R_ACONTa 	 3.32
F_R_ACONTb 	 0.414
B_R_ADK1 	 2.5815
F_R_ATPS4r 	 26.265
R_CYTBD 	 52.53
F_R_FUM 	 33.81
F_R_G6PDH2r 	 0.335
R_GLNS 	 31.066
F_R_GLUDy 	 36.066
R_GLUSy 	 31.48
R_GND 	 0.228
B_R_ICDHyr 	 4.586
B_R_LDH_D 	 5
R_ME1 	 5.921
R_PFK 	 0.093
R_PPC 	 0.185
R_SUCDi 	 57.53
