B_R_ACONTa 	 3.32
F_R_ACONTb 	 1.36651
R_BIOMASS_Ecoli_core_w_GAM 	 0.040173
R_CYTBD 	 52.4797
R_FORt2 	 104.959
B_R_FORt 	 104.959
F_R_FUM 	 33.7597
F_R_G6PDH2r 	 0.326765
F_R_GLUDy 	 4.03349
R_GND 	 0.228
B_R_ICDHyr 	 3.63349
B_R_LDH_D 	 5
R_ME1 	 5.87066
R_PFK 	 0.0896493
R_PPS 	 2.59725
R_PYK 	 2.7614
R_SUCDi 	 57.4797
