B_R_ACONTa 	 3.32
F_R_ACONTb 	 1.059
F_R_ATPS4r 	 26.265
R_CYTBD 	 52.53
R_FBP 	 31.189
F_R_FUM 	 33.81
F_R_G6PDH2r 	 0.335
F_R_GLUDy 	 4.232
R_GND 	 0.228
B_R_ICDHyr 	 3.941
B_R_LDH_D 	 5
R_ME1 	 5.921
R_PFK 	 31.262
R_PPC 	 0.185
R_SUCDi 	 57.53
B_R_SUCOAS 	 5
