Reactions	ColorReaction
R_ACONTa	-10
R_ACONTb	10
R_ADK1	-10
R_ATPS4r	10
R_CYTBD	10
R_ENO	-10
R_FUM	10
R_G6PDH2r	10
R_GLNS	10
R_GLUDy	10
R_GLUN	10
R_GND	10
R_ICDHyr	-10
R_LDH_D	-10
R_ME1	10
R_PFK	10
R_SUCDi	10
