R_DM_5drib_c 	 1
R_DM_mththf_c 	 29.7931
R_DM_oxam_c 	 60.3018
R_5DOAN 	 1
B_R_ACACT1r 	 2.03434
B_R_ACACT2r 	 2.03434
B_R_ACACT3r 	 2.03434
B_R_ACACT4r 	 2.03434
B_R_ACACT5r 	 2.03434
B_R_ACACT6r 	 2.03434
B_R_ACACT7r 	 2.03434
F_R_ACACT8r 	 2.03434
F_R_ACALD 	 32.6438
F_R_ACKr 	 2.912
F_R_ACOAD1f 	 2.03434
F_R_ACOAD2f 	 2.03434
F_R_ACOAD3f 	 2.03434
F_R_ACOAD4f 	 2.03434
F_R_ACOAD5f 	 2.03434
F_R_ACOAD6f 	 2.03434
F_R_ACOAD7f 	 2.03434
F_R_ACOAD8f 	 2.03434
B_R_ACONTa 	 6.232
B_R_ACONTb 	 6.232
R_AHCYSNS 	 29.7931
F_R_AICART 	 49.7665
R_AIRC2 	 49.7665
B_R_AIRC3 	 49.7665
R_ADD 	 7.269
F_R_ADK1 	 110.55
R_ADNK1 	 28.5241
F_R_ADNt2pp_copy2 	 1
F_R_ADSL2r 	 49.7665
R_ALLTAMH 	 60.3018
R_ALLTN 	 60.3018
R_ASNS2 	 0.14
F_R_ASPK 	 30.1908
B_R_ASPTA 	 85.4313
B_R_CBMKr 	 60.3018
R_AST 	 2
F_R_ATPS4rpp 	 694.133
R_CITL 	 2.912
R_CLPNH180pp 	 0.508584
R_CYTBO3_4pp 	 167.451
R_DADNt2pp 	 1
F_R_ARGORNt7pp 	 1
R_DRPA 	 3
R_DHPTDCs2 	 29.7931
B_R_ASAD 	 30.1908
B_R_ECOAH5 	 2.03434
B_R_ECOAH6 	 2.03434
B_R_ECOAH7 	 2.03434
B_R_ECOAH8 	 2.03434
B_R_ENO 	 58.545
B_R_ECOAH1 	 2.03434
B_R_ECOAH2 	 2.03434
B_R_ECOAH3 	 2.03434
B_R_ECOAH4 	 2.03434
B_R_F6PA 	 0.508584
R_FLDR2 	 132.925
R_FTHFLi 	 29.6438
F_R_FUM 	 116.174
R_FACOAL180t2pp 	 2.03434
F_R_G3PD2 	 1.01717
B_R_FBA 	 16.8212
R_FBP 	 16.7282
F_R_GHMT2r 	 20.1226
R_GLNS 	 99.5329
B_R_GAPD 	 39.1358
B_R_GLUDy 	 95.7679
R_GLUPRT 	 49.7665
R_GART 	 49.7665
R_FE3Ri 	 16.2747
R_GLYC3Pt6pp 	 1.01717
R_GLYCDx 	 0.508584
R_GUAD 	 3.26637
R_GUAt2pp 	 1
B_R_H2Otpp 	 3.0515
B_R_GLYCtpp 	 0.508584
B_R_HACD1 	 2.03434
B_R_HACD2 	 2.03434
B_R_HACD3 	 2.03434
B_R_HACD4 	 2.03434
B_R_HACD5 	 2.03434
B_R_HACD6 	 2.03434
B_R_HACD7 	 2.03434
B_R_HACD8 	 2.03434
F_R_HCO3E 	 49.7665
R_HCYSMT 	 29.7931
R_GND 	 0.252
R_GPDDA4pp 	 0.508584
B_R_HSDy 	 30.1908
R_HSK 	 30.1908
R_FESD1s 	 16.2747
R_HXAND 	 7.269
R_FESR 	 32.5494
B_R_IPPMIb 	 0.191118
R_IPPS 	 0.35
B_R_ICDHyr 	 6.232
B_R_IMPC 	 49.7665
R_IMPD 	 49.7665
R_LPLIPAL1A180pp 	 0.508584
R_METAT 	 29.7931
F_R_MAN6PI 	 0.155
F_R_MDH 	 951.043
R_LPLIPAL1G180pp 	 0.508584
B_R_MOX 	 862.758
F_R_MTHFC 	 20.1226
F_R_MTHFD 	 20.1226
R_MTHTHFSs 	 29.7931
R_NADH16pp 	 67.4506
R_NADH17pp 	 818.731
R_NTD10 	 49.7665
R_URIC 	 60.3018
R_OXAMTC 	 60.3018
R_PGCD 	 19.1226
F_R_PGI 	 0.505
F_R_PGK 	 39.4224
F_R_PGM 	 58.545
R_PFL 	 79.4103
R_PLIPA2A180pp 	 0.508584
R_PLIPA2G180pp 	 0.508584
F_R_PHETA1 	 0.204
F_R_PIt2rpp 	 1.01717
B_R_POR5 	 132.925
R_PPCK 	 5.76615
B_R_PPK 	 80.7339
F_R_PPM2 	 3
R_PPS 	 52.5939
F_R_PRAGSr 	 49.7665
R_PRAIS 	 49.7665
R_PRASCSi 	 49.7665
R_PRFGS 	 49.7665
F_R_PRPPS 	 27.2577
B_R_RPE 	 18.0038
B_R_RPI 	 18.2558
R_SADH 	 2
R_PSERT 	 19.1226
R_PSP_L 	 19.1226
B_R_SERASr 	 1
B_R_PTAr 	 2.912
B_R_PTRCORNt7pp 	 1
R_SGDS 	 2
R_SGSAD 	 2
R_PTRCt2pp 	 1
R_QMO3 	 818.731
B_R_PUNP1 	 26.5241
F_R_PUNP2 	 2
F_R_PUNP3 	 0.266366
F_R_PUNP4 	 1
F_R_PUNP7 	 49.7665
R_SOTA 	 2
R_R15BPK 	 23.5087
R_R1PK 	 23.5087
R_SPODM 	 818.731
R_THRA 	 29.6438
R_THRS 	 30.1908
R_SUCDi 	 100
F_R_SUCOAS 	 2
B_R_TKT1 	 9.00191
B_R_TKT2 	 9.00191
B_R_TALA 	 9.00191
B_R_TPI 	 15.8041
R_THD2pp 	 273.915
B_R_TRPt2rpp 	 0.0143
F_R_VALTA 	 0.35
R_XAND 	 60.3018
R_RHCCE 	 29.7931
R_URDGLYCD 	 60.3018
