B_R_ACONTa 	 3.32
F_R_ACONTb 	 6.68
R_CYTBD 	 52.827
F_R_FUM 	 28.81
F_R_G6PDH2r 	 0.335
F_R_GLUDy 	 3.908
R_GND 	 0.228
R_ME2 	 0.921
R_PFK 	 0.073
R_PPC 	 0.185
R_SUCCt2_2 	 35.1167
R_SUCCt3 	 35.1167
R_SUCDi 	 62.402
