B_R_ACONTa 	 3.32
F_R_ATPS4r 	 29.926
R_CYTBD 	 59.852
F_R_FUM 	 36.443
F_R_G6PDH2r 	 0.335
F_R_GLUDy 	 10
R_GLUSy 	 2.884
R_GND 	 0.228
B_R_ICDHyr 	 7.679
B_R_LDH_D 	 7.633
R_ME1 	 8.554
R_PFK 	 0.093
R_PPC 	 30.015
R_PPCK 	 29.83
R_SUCDi 	 69.852
