B_R_ACONTa 	 3.32
F_R_ATPS4r 	 25.405
R_CYTBD 	 50.81
R_FBP 	 25.514
F_R_FUM 	 33.149
F_R_G6PDH2r 	 0.335
F_R_GLUDy 	 4.232
R_GND 	 0.228
B_R_ICDHyr 	 4.795
B_R_LDH_D 	 4.524
R_ME1 	 5.26
R_PFK 	 25.587
R_PYK 	 0.185
R_SUCDi 	 60.81
