B_R_ACONTa 	 3.32
R_CYTBD 	 59.485
F_R_FUM 	 36.076
F_R_G6PDH2r 	 0.335
F_R_GLUDy 	 10
R_GLUSy 	 2.884
R_GND 	 0.228
B_R_ICDHyr 	 8.415
B_R_LDH_D 	 7.451
R_ME1 	 8.187
R_NADTRHD 	 58.927
R_PFK 	 0.093
R_PYK 	 0.185
R_SUCDi 	 69.485
R_THD2 	 59.663
