B_R_ACONTa 	 3.32
F_R_ACONTb 	 6.68
R_ATPM 	 26.3375
F_R_ATPS4r 	 26.4135
R_CYTBD 	 52.827
B_R_ENO 	 0.185
F_R_FUM 	 28.81
F_R_G6PDH2r 	 0.335
F_R_GLUDy 	 3.908
R_GND 	 0.228
R_ME1 	 0.921
R_PFK 	 0.073
R_SUCDi 	 62.402
