B_R_ACONTa 	 3.32
F_R_ACONTb 	 6.68
F_R_ATPS4r 	 26.4058
R_CYTBD 	 52.8117
R_FBP 	 26.3145
F_R_FUM 	 28.81
F_R_G6PDH2r 	 0.335
F_R_GLUDy 	 3.908
R_GND 	 0.228
R_ME2 	 0.921
R_PFK 	 26.4028
R_PPC 	 0.185
R_SUCDi 	 62.402
