B_R_ACONTa 	 3.32
R_CYTBD 	 59.551
F_R_FUM 	 36.142
F_R_G6PDH2r 	 0.315
F_R_GLUDy 	 7.116
R_GLUN 	 2.884
R_GND 	 0.228
B_R_ICDHyr 	 7.659
B_R_LDH_D 	 7.428
R_ME1 	 8.253
R_PFK 	 0.093
R_PYK 	 0.096
R_SUCCt2_2 	 39.7007
R_SUCCt3 	 39.7007
R_SUCDi 	 69.551
