B_R_ACONTa 	 3.32
R_CYTBD 	 59.69
B_R_ENO 	 0.185
F_R_FUM 	 36.261
F_R_G6PDH2r 	 0.335
F_R_GLUDy 	 7.116
R_GLUN 	 2.884
R_GND 	 0.228
B_R_ICDHyr 	 8.6
B_R_LDH_D 	 7.451
R_ME1 	 8.372
R_NADTRHD 	 58.617
R_PFK 	 0.073
R_SUCDi 	 69.69
R_THD2 	 59.538
