B_R_ACONTa 	 3.32
R_CYTBD 	 46.266
F_R_FUM 	 28.625
F_R_G6PDH2r 	 0.315
F_R_GLUDy 	 4.232
R_GND 	 0.228
R_ME1 	 0.736
R_PFK 	 0.093
R_PYK 	 0.185
R_SUCCt2_2 	 30.9627
R_SUCCt3 	 30.9627
R_SUCDi 	 56.266
