B_R_ACONTa 	 3.32
F_R_ACONTb 	 6.68
R_ATPM 	 26.4515
F_R_ATPS4r 	 26.4515
R_CYTBD 	 52.903
B_R_ENO 	 0.185
F_R_FUM 	 28.81
F_R_G6PDH2r 	 0.315
F_R_GLUDy 	 3.908
R_GND 	 0.228
R_ME2 	 0.921
R_PFK 	 0.093
R_SUCDi 	 62.402
