M_glc__D_e	0	0	0	0	0	0	0	0	0	0	0	0	0	0	0	0	0	0	0	0	0	0	0	0	0	0	0	0	0	0	0	0	0	0	0	0	0	0	0	0	0	0	0	0	0	0	0	0	0	0	0	0	0	0	0	0	0	0	0	0	0	0	0	0	0	0	0	0	0	0	0	0	0	0	0	0	0	0	0	0	0	0	0	0	0	0	0	0	0	0	0	0	0	0	0	0	0	0	0	0	
M_gln__L_c	-2.884	-2.884	-2.884	-2.884	-2.884	-2.884	-2.884	-2.884	-2.884	-2.884	-2.884	-2.884	-2.884	-2.884	-2.884	-2.884	-2.884	-2.884	-2.884	-2.884	-2.884	-2.884	-2.884	-2.884	-2.884	-2.884	-2.884	-2.884	-0.0674624	-2.884	-2.884	-2.884	-2.884	0	0	-0.111484	0	0	-0.0975406	-2.884	-2.884	0	0	-0.0973414	0	0	0	0	0	0	0	-4.23373	0	0	0	0	0	0	0	0	0	0	0	0	-0.0911279	0	0	0	0	0	0	0	0	0	0	0	0	0	0	0	0	0	0	0	0	0	-2.884	0	0	0	0	0	0	0	0	0	0	0	0	0	
M_gln__L_e	0	0	0	0	0	0	0	0	0	0	0	0	0	0	0	0	0	0	0	0	0	0	0	0	0	0	0	0	0	0	0	0	0	0	0	0	0	0	0	0	0	0	0	0	0	0	0	0	0	0	0	0	0	0	0	0	0	0	0	0	0	0	0	0	0	0	0	0	0	0	0	0	0	0	0	0	0	0	0	0	0	0	0	0	0	0	0	0	0	0	0	0	0	0	0	0	0	0	0	0	
M_glu__L_c	-4.232	-4.232	-4.232	-4.232	-4.232	-4.232	-4.232	-4.232	-4.232	-4.232	-4.232	-4.232	-4.232	-4.232	-4.232	-4.232	-4.232	-4.232	-4.232	-4.232	-4.232	-4.232	-4.232	-4.232	-4.232	-4.232	-4.232	-4.232	-4.232	-4.232	-4.232	-4.232	-4.232	-4.232	-4.232	-4.232	-4.232	-4.232	-4.232	-4.232	-4.232	-4.232	-4.232	-4.232	-4.232	-4.232	-4.232	-4.232	-3.908	-3.908	-3.908	-4.232	-3.908	-3.908	-3.908	-3.908	-3.908	-3.908	-3.908	-3.908	-3.908	-3.908	-3.908	-3.908	-4.0575	-3.908	-3.908	-3.908	-3.908	-3.908	-3.908	-3.908	-3.908	-3.908	-3.908	-3.908	-4.232	-3.908	-4.232	-3.908	-3.908	-3.908	-4.232	-4.232	-4.232	-4.232	-4.232	-4.232	-4.232	-4.232	-4.232	-4.232	-4.232	-4.232	-4.232	-4.232	-4.232	-4.232	-4.232	-4.232	
M_glu__L_e	0	0	0	0	0	0	0	0	0	0	0	0	0	0	0	0	0	0	0	0	0	0	0	0	0	0	0	0	0	0	0	0	0	0	0	0	0	0	0	0	0	0	0	0	0	0	0	0	0	0	0	0	0	0	0	0	0	0	0	0	0	0	0	0	0	0	0	0	0	0	0	0	0	0	0	0	0	0	0	0	0	0	0	0	0	0	0	0	0	0	0	0	0	0	0	0	0	0	0	0	
M_glx_c	0	0	0	0	0	0	0	0	0	0	0	0	0	0	0	0	0	0	0	0	0	0	0	0	0	0	0	0	0	0	0	0	0	0	0	0	0	0	0	0	0	0	0	0	0	0	0	-7.8646e-13	0	0	0	0	0	0	0	0	0	0	0	0	0	0	0	0	0	0	0	0	0	0	0	0	0	0	0	0	0	0	0	0	0	0	0	0	0	0	0	0	0	0	0	0	0	0	0	0	0	0	0	0	
M_h2o_c	10	10	10	10	10	10	10	10	10	10	10	10	10	10	10	10	10	10	10	10	10	10	10	10	10	10	10	10	10	10	10	10	10	10	10	10	10	10	10	10	10	10	10	10	10	10	10	10	10	10	10	10	10	10	10	10	10	10	10	10	10	10	10	10	8.46555	10	10	10	10	10	10	10	10	10	10	10	10	10	10	10	10	10	10	10	10	10	10	10	10	10	10	10	10	10	10	10	10	10	10	10	
M_h2o_e	0	0	0	0	0	0	0	0	0	0	0	0	0	0	0	0	0	0	0	0	0	0	0	0	0	0	0	0	0	0	0	0	0	0	0	0	0	0	0	0	0	0	0	0	0	0	0	0	0	0	0	0	0	0	0	0	0	0	0	0	0	0	0	0	0	0	0	0	0	0	0	0	0	0	0	0	0	0	0	0	0	0	0	0	0	0	0	0	0	0	0	0	0	0	0	0	0	0	0	0	
M_h_c	-0.003	-0.092	-0.092	-0.003	-0.003	0	0	-1e-09	0	-1e-09	0	0	0	0	0	0	-1e-09	0	-0.185	-1e-09	0	-0.185	-1e-09	0	0	0	0	-0.003	3.2062	0	0	-1e-09	0	0.495	0.455	2.4902	0.515	0.495	2.80828	0	-0.185	0.495	0.495	2.70513	0.515	0.7	0.68	0.7	4.2	4.22	4.24	0.070817	4.22	4.22	4.151	4.131	4.131	4.151	4.151	3.395	3.504	3.484	4.164	3.504	2.28939	3.415	4.24	4.144	3.395	4.316	4.336	4.316	4.336	4.405	4.425	4.425	-0.003	4.501	-0.092	4.22	4.425	4.24	0.495	0.515	0	0	-0.003	-1e-09	0	0	0	0	0	0	0	4.524	4.564	4.544	4.544	4.544	
M_h_e	0	0	0	0	0	0	0	0	0	0	0	0	0	0	0	0	0	0	0	0	0	0	0	0	0	0	0	0	0	0	0	0	0	0	0	0	0	0	0	0	0	0	0	0	0	0	0	0	0	0	0	0	0	0	0	0	0	0	0	0	0	0	0	0	0	0	0	0	0	0	0	0	0	0	0	0	0	0	0	0	0	0	0	0	0	0	0	0	0	0	0	0	0	0	0	0	0	0	0	0	
M_icit_c	8.6	8.395	8.415	8.415	8.504	7.679	7.679	7.679	7.679	7.679	7.679	7.659	7.679	7.679	7.659	7.679	7.679	7.659	8.488	7.679	7.679	8.488	7.679	7.659	7.679	7.701	7.755	8.6	6.68	7.679	7.679	7.679	7.679	4.775	4.795	6.68	4.795	4.775	0	7.752	8.415	4.775	4.775	0	4.795	4.795	4.775	4.795	6.68	6.68	6.68	7.93161	6.68	6.68	6.68	6.68	6.68	6.68	6.68	6.68	6.68	6.68	6.68	6.68	0	6.68	6.68	6.68	6.68	6.68	6.68	6.68	6.68	6.68	6.68	6.68	5.531	6.68	5.531	6.68	6.68	6.68	4.775	4.795	4.795	4.795	8.6	4.795	4.795	4.795	4.795	4.775	10	4.795	4.835	0	0	0	0	0	
M_lac__D_c	7.451	7.431	7.451	7.451	7.451	7.448	7.448	7.448	7.448	7.448	7.448	7.428	7.448	7.633	7.428	7.448	7.633	7.613	7.524	7.633	7.633	7.524	7.633	7.613	7.633	7.416	7.611	7.636	0	7.372	7.448	7.448	7.372	10	10	0	10	10	0	7.339	7.451	10	10	0	10	10	10	10	0	0	0	10	0	0	0	0	0	0	0	0	0	0	0	0	0	0	0	0	0	0	0	0	0	0	0	0	4.567	0	4.567	0	0	0	10	10	4.524	4.564	7.451	4.749	4.749	4.749	4.488	4.455	4.839	4.564	4.568	0	0	0	0	0	
M_lac__D_e	0	0	0	0	0	0	0	0	0	0	0	0	0	0	0	0	0	0	0	0	0	0	0	0	0	0	0	0	0	0	0	0	0	0	0	0	0	0	0	0	0	0	0	0	0	0	0	0	0	0	0	0	0	0	0	0	0	0	0	0	0	0	0	0	0	0	0	0	0	0	0	0	0	0	0	0	0	0	0	0	0	0	0	0	0	0	0	0	0	0	0	0	0	0	0	0	0	0	0	0	
M_mal__L_c	27.889	27.889	27.889	27.889	27.889	27.889	27.889	27.889	27.889	27.889	27.889	27.889	27.889	27.889	27.889	27.889	27.889	27.889	27.889	27.889	27.889	27.889	27.889	27.889	27.889	27.889	27.889	27.889	27.889	27.889	27.889	27.889	27.889	27.889	27.889	27.889	27.889	27.889	27.889	27.889	27.889	27.889	27.889	27.889	27.889	27.889	27.889	27.889	27.889	27.889	27.889	27.889	27.889	27.889	27.889	27.889	27.889	27.889	27.889	27.889	27.889	27.889	27.889	27.889	27.7783	27.889	27.889	27.889	27.889	27.889	27.889	27.889	27.889	27.889	27.889	27.889	27.889	27.889	27.889	27.889	27.889	27.889	27.889	27.889	27.889	27.889	27.889	27.889	27.889	27.889	27.889	27.889	27.889	27.889	27.889	27.889	27.889	27.889	27.889	27.889	
M_mal__L_e	0	0	0	0	0	0	0	0	0	0	0	0	0	0	0	0	0	0	0	0	0	0	0	0	0	0	0	0	0	0	0	0	0	0	0	0	0	0	0	0	0	0	0	0	0	0	0	0	0	0	0	0	0	0	0	0	0	0	0	0	0	0	0	0	0	0	0	0	0	0	0	0	0	0	0	0	0	0	0	0	0	0	0	0	0	0	0	0	0	0	0	0	0	0	0	0	0	0	0	0	
M_nad_c	0	0	-1e-09	0	0	-0.736	-0.736	-0.736	-0.736	-0.736	-0.736	-0.736	-0.736	-0.921	-0.825	-0.825	-0.921	-0.921	0	-0.921	-0.921	0	-0.921	-0.921	-0.921	-0.867	-0.921	0	-2.60421	-0.845	-0.921	-0.921	-0.845	-0.736	-0.696	-1.54647	-0.736	-0.736	-1.44827	-0.736	0	-0.736	-0.921	-1.35029	-0.921	-0.921	-0.921	-0.921	-0.696	0	0	0	0	-0.716	0	0	-0.736	-0.736	0	0	0	-3.4639e-12	-0.845	0	-1.2641	0	-0.736	-0.825	0	0	-0.920992	0	-0.920992	0	1e-09	0	0	-0.921	0	0	0	0	-4.0295	-4.0295	-0.696	-0.736	0	-0.921	-0.921	-0.921	-0.845	-0.736	-0.921	-0.825	-0.885	-0.696	-0.736	0	0	-0.736	
M_13dpg_c	0	0	0	0	0	0	0	0	0	0	0	0	0	0	0	0	0	0	0	0	0	0	0	0	0	-0.054	0	0	0	-0.076	0	0	-0.076	0	-0.04	0	0	0	0	0	0	0	0	0	0	0	0	0	-0.04	0	0	0	0	-0.02	0	0	0	0	0	0	0	0	-0.076	0	0	0	0	-0.096	0	-0.076	0	-0.096	0	0	0	0	0	-0.076	0	0	0	0	0	0	-0.04	0	0	0	0	0	-0.076	0	0	0	-0.036	-0.04	0	0	0	0	
M_nadh_c	0	0	9.99997e-10	0	0	0.736	0.736	0.736	0.736	0.736	0.736	0.736	0.736	0.921	0.825	0.825	0.921	0.921	0	0.921	0.921	0	0.921	0.921	0.921	0.867	0.921	0	2.60421	0.845	0.921	0.921	0.845	0.736	0.696	1.54647	0.736	0.736	1.44827	0.736	0	0.736	0.921	1.35029	0.921	0.921	0.921	0.921	0.696	0	0	0	0	0.716	0	0	0.736	0.736	0	0	0	3.4639e-12	0.845	0	1.2641	0	0.736	0.825	0	0	0.920992	0	0.920992	0	-1e-09	0	0	0.921	0	0	0	0	4.0295	4.0295	0.696	0.736	0	0.921	0.921	0.921	0.845	0.736	0.921	0.825	0.885	0.696	0.736	0	0	0.736	
M_nadp_c	0	0	0	0	-7.10543e-15	-1.77636e-15	0	-8.88178e-16	0	-8.88178e-16	0	8.88178e-16	0	0	0	-8.88178e-16	-8.88178e-16	0	0	0	-8.88178e-16	7.10543e-15	-1.77636e-15	0	0	0	0	0	1.94289e-16	0	-8.88178e-16	0	-8.88178e-16	0	0	0.778807	0	0	4.44089e-16	0	0	0	0	-2.22045e-16	0	0	0	0	-4.471	-5.187	-5.207	0	-5.187	-4.471	-5.207	-5.207	-4.451	-4.471	-5.207	-4.451	-4.471	-4.451	-4.471	-4.471	-2.22045e-16	-4.471	-4.471	-4.471	-4.471	-5.392	-4.47101	-5.372	-4.471	-5.372	-5.392	-5.392	0	-4.471	0	-4.451	-5.392	-4.471	0	0	0	0	0	0	0	0	0	0	-0.563	0	0	-4.795	-4.795	-5.511	-5.511	-4.775	
M_nadph_c	0	0	0	0	7.10543e-15	1.77636e-15	0	8.88178e-16	0	8.88178e-16	0	-8.88178e-16	0	0	0	8.88178e-16	8.88178e-16	0	0	0	8.88178e-16	-7.10543e-15	1.77636e-15	0	0	0	0	0	-1.94289e-16	0	8.88178e-16	0	8.88178e-16	0	0	-0.778807	0	0	-4.44089e-16	0	0	0	0	0	0	0	0	0	4.471	5.187	5.207	0	5.187	4.471	5.207	5.207	4.451	4.471	5.207	4.451	4.471	4.451	4.471	4.471	2.22045e-16	4.471	4.471	4.471	4.471	5.392	4.47101	5.372	4.471	5.372	5.392	5.392	0	4.471	0	4.451	5.392	4.471	0	0	0	0	0	0	0	0	0	0	0.563	0	0	4.795	4.795	5.511	5.511	4.775	
M_nh4_c	10	10	10	10	10	10	10	10	10	10	10	10	10	10	10	10	10	10	10	10	10	10	10	10	10	10	10	10	2.92829	10	10	10	10	4.232	4.232	2.07758	4.232	4.232	2.34703	10	10	4.232	4.232	2.35088	4.232	4.232	4.232	4.232	3.908	3.908	3.908	10	3.908	3.908	3.908	3.908	3.908	3.908	3.908	3.908	3.908	3.908	3.908	3.908	2.29645	3.908	3.908	3.908	3.908	3.908	3.908	3.908	3.908	3.908	3.908	3.908	4.232	3.908	4.232	3.908	3.908	3.908	4.232	4.232	4.232	4.232	10	4.232	4.232	4.232	4.232	4.232	4.232	4.232	4.232	4.232	4.232	4.232	4.232	4.232	
M_nh4_e	0	0	0	0	0	0	0	0	0	0	0	0	0	0	0	0	0	0	0	0	0	0	0	0	0	0	0	0	0	0	0	0	0	0	0	0	0	0	0	0	0	0	0	0	0	0	0	0	0	0	0	0	0	0	0	0	0	0	0	0	0	0	0	0	0	0	0	0	0	0	0	0	0	0	0	0	0	0	0	0	0	0	0	0	0	0	0	0	0	0	0	0	0	0	0	0	0	0	0	0	
M_2pg_c	0.185	0	0	0	0.089	0	0	0	0	0	0	0	0	0	0.089	0.089	0	0	0	0	0	0	0	0	0	0.185	0.185	0	0.0480437	0.185	0.185	0.185	0.185	0	0	-0.0413247	0	0	-0.0130184	0	0	0	0.185	-0.0126142	0.185	0	0	0	0	0	0	-0.0719855	0	0	0	0	0	0	0	0	0	0	0.185	0	0	0	0	0.185	0	0.185	0.089	0.185	0.089	0	0	0	0	0	0	-0.662	0	-0.662	3.2935	3.2935	0	0	0.185	0	0	0	0.185	0	0	0.089	0.185	0	0	0	0	0	
M_o2_c	-29.845	-29.688	-29.698	-29.7425	-29.787	-29.762	-29.741	-29.741	-29.741	-29.7433	-29.741	-29.731	-29.741	-29.926	-29.7755	-29.7855	-29.9283	-29.916	-29.7345	-29.926	-29.926	-29.7345	-29.926	-29.916	-29.926	-29.8385	-30.0065	-29.9275	-26.2669	-29.8055	-29.8435	-29.8435	-29.8055	-31.1085	-31.1085	-26.0798	-31.1085	-31.1085	-22.8184	-29.642	-29.698	-31.1085	-31.201	-22.7718	-31.201	-31.201	-31.201	-31.201	-26.321	-26.311	-26.321	-33.6769	-26.311	-26.321	-26.2665	-26.2665	-26.2665	-26.2665	-26.2665	-25.8985	-25.943	-25.943	-26.4135	-25.943	-21.6774	-25.8985	-26.311	-26.4035	-25.8985	-26.4515	-26.4035	-26.4515	-26.4035	-26.4035	-26.4058	-26.4035	-25.4165	-26.4515	-25.372	-25.943	-26.4135	-25.943	-32.7552	-32.7553	-25.405	-25.415	-29.845	-25.6	-25.6	-25.6	-25.4795	-25.316	-28.6205	-25.4595	-25.5395	-23.143	-23.133	-23.133	-23.133	-23.133	
M_3pg_c	0	0	0	0	0	0	0	0	0	0	0	0	0	0	0	0	0	0	0	0	0	0	0	0	0	0	0	0	-0.394696	0	0	0	0	0	0	-0.652248	0	0	-0.570672	0	0	0	0	-0.569506	0	0	0	0	0	0	0	-0.740609	0	0	0	0	0	0	0	0	0	0	0	0	-0.533154	0	0	0	0	0.076	0	0.096	0	0	0	0	0	0.076	0	0	0	0	0	0	0	0	0	0	0	0	0	0	0	0	0	0	0	0	0	0	
M_o2_e	0	0	0	0	0	0	0	0	0	0	0	0	0	0	0	0	0	0	0	0	0	0	0	0	0	0	0	0	0	0	0	0	0	0	0	0	0	0	0	0	0	0	0	0	0	0	0	0	0	0	0	0	0	0	0	0	0	0	0	0	0	0	0	0	0	0	0	0	0	0	0	0	0	0	0	0	0	0	0	0	0	0	0	0	0	0	0	0	0	0	0	0	0	0	0	0	0	0	0	0	
M_oaa_c	0	0	1e-09	0	0	0	0	0	0	0	0	0	0	0.185	0	0	0.185	0.185	0	0.185	0.185	0	0.185	0.185	0.185	0	0	0.185	-0.471392	0	0	0	0	0	0	-0.778991	0	0	-0.586353	0	0	0	3.45324e-12	-0.680172	0	0.185	0.185	0.185	0	0	0	3.06293	0	0	0	0	0	0	0	-0.736	-0.736	-0.736	0	-0.736	-0.636755	-0.736	-3.55271e-15	0	-0.736	0	0.096	0	0.096	0.185	0.185	0.185	0	0.185	0	9.26928e-11	0.185	0	0	0	0	0	0	0.185	0.185	0.185	0	0	0.185	0	0	0	0	0	0	0	
M_6pgc_c	-0.228	-0.228	-0.228	-0.228	-0.228	-0.228	-0.228	-0.228	-0.228	-0.228	-0.228	-0.228	-0.228	-0.228	-0.228	-0.228	-0.228	-0.228	-0.228	-0.228	-0.228	-0.228	-0.228	-0.228	-0.228	-0.228	-0.228	-0.228	-0.228	-0.228	-0.228	-0.228	-0.228	-0.228	-0.228	-0.252	-0.228	-0.228	-0.252	-0.228	-0.228	-0.228	-0.228	-0.252	-0.228	-0.228	-0.228	-0.228	-0.228	-0.228	-0.228	-0.228	-0.228	-0.228	-0.228	-0.228	-0.228	-0.228	-0.228	-0.228	-0.228	-0.228	-0.228	-0.228	-0.228	-0.228	-0.228	-0.228	-0.228	-0.228	-0.228	-0.228	-0.228	-0.228	-0.228	-0.228	-0.228	-0.228	-0.228	-0.228	-0.228	-0.228	-0.228	-0.228	-0.228	-0.228	-0.228	-0.228	-0.228	-0.228	-0.228	-0.228	-0.228	-0.228	-0.228	-0.228	-0.228	-0.228	-0.228	-0.228	
M_pep_c	-0.185	-0.185	-0.185	-0.185	-0.185	-0.185	-0.185	-0.185	-0.185	-0.185	-0.185	-0.185	-0.185	-0.185	-0.185	-0.185	-0.185	-0.185	-0.185	-0.185	-0.185	-0.185	-0.185	-0.185	-0.185	-0.185	-0.185	-0.185	-0.185	-0.185	-0.185	-0.185	-0.185	-0.185	-0.185	-0.185	-0.185	-0.185	-0.185	-0.185	-0.185	-0.185	-0.185	-0.185	-0.185	-0.185	-0.185	-0.185	-0.185	-0.185	-0.185	-0.185	-0.185	-0.185	-0.185	-0.185	-0.185	-0.185	-0.185	-0.185	-0.185	-0.185	-0.185	-0.185	-0.185	-0.185	-0.185	-0.185	-0.185	-0.185	-0.185	-0.185	-0.185	-0.185	-0.185	-0.185	-0.185	-0.185	-0.185	-0.185	-0.185	-0.185	-0.185	-0.185	-0.185	-0.185	-0.185	-0.185	-0.185	-0.185	-0.185	-0.185	-0.185	-0.185	-0.185	-0.185	-0.185	-0.185	-0.185	-0.185	
M_6pgl_c	0.335	0.315	0.335	0.335	0.335	0.335	0.335	0.335	0.335	0.335	0.335	0.315	0.335	0.335	0.315	0.335	0.335	0.315	0.408	0.335	0.335	0.408	0.335	0.315	0.335	0.357	0.411	0.335	0.280914	0.335	0.335	0.335	0.335	0.315	0.335	0.415621	0.335	0.315	0.369045	0.408	0.335	0.315	0.315	0.357255	0.335	0.335	0.315	0.335	0.335	0.315	0.335	0.233513	0.315	0.335	0.335	0.335	0.315	0.335	0.335	0.315	0.335	0.315	0.335	0.335	0.261941	0.335	0.335	0.335	0.335	0.335	0.335	0.315	0.335	0.315	0.335	0.335	0.335	0.335	0.335	0.315	0.335	0.335	0.315	0.335	0.335	0.335	0.335	0.335	0.335	0.335	0.335	0.315	0.335	0.335	0.375	0.335	0.335	0.315	0.315	0.315	
M_pi_c	-0.076	0	0	0.089	0	0.131	0.089	0.089	0.089	0.0936667	0.089	0.089	0.089	0.089	0	0	0.0936667	0.089	0	0.089	0.089	0	0.089	0.089	0.089	0	0	0.089	0	0	-0.076	-0.076	0	6.04	6.08	0.078306	6.04	6.04	-0.003	0	0	6.04	5.855	-0.003	5.855	6.04	6.04	6.04	0.149	0.089	0.109	-0.054	0.089	0.129	0	0	0	0	0	0	0.089	0.089	0	0.089	-0.362	0	0.089	0	0	0	0	0	0	0.089	0.0936667	0.089	0.089	0.185	0	0.751	0.109	0.751	2.7465	2.7465	0.149	0.089	-0.076	0.089	0.089	0.089	0	0	0.182	0	0	0.149	0.089	0.089	0.089	0.089	
M_ac_c	0	0	0	0	0	0	0	0	0	0	0	0	0	0	0	0	0	0	0	0	0	0	0	0	0	0	0	0	0	0	0	0	0	0	0	0	0	0	0	0	0	0	0	0	0	0	0	0	0	0	0	0	0	0	0	0	0	0	0	0	0	0	0	0	0	0	0	0	0	0	0	0	0	0	0	0	0	0	0	0	0	0	0	0	0	0	0	0	0	0	0	0	0	0	0	0	0	0	0	0	
M_pi_e	0	0	0	0	0	0	0	0	0	0	0	0	0	0	0	0	0	0	0	0	0	0	0	0	0	0	0	0	0	0	0	0	0	0	0	0	0	0	0	0	0	0	0	0	0	0	0	0	0	0	0	0	0	0	0	0	0	0	0	0	0	0	0	0	0	0	0	0	0	0	0	0	0	0	0	0	0	0	0	0	0	0	0	0	0	0	0	0	0	0	0	0	0	0	0	0	0	0	0	0	
M_pyr_c	0.921	0.921	0.921	0.921	0.921	0.921	0.921	0.921	0.921	0.921	0.921	0.921	0.921	0.921	0.921	0.921	0.921	0.921	0.921	0.921	0.921	0.921	0.921	0.921	0.921	0.921	0.921	0.921	0.921	0.921	0.921	0.921	0.921	0.921	0.921	0.921	0.921	0.921	0.920999	0.921	0.921	0.921	0.921	0.921	0.921	0.921	0.921	0.921	0.921	0.921	0.921	0.921	0.921	0.921	0.921	0.921	0.921	0.921	0.921	0.921	0.921	0.921	0.921	0.921	0.847	0.921	0.921	0.921	0.921	0.921	0.921	0.921	0.920992	0.921	0.921	0.921	0.921	0.921	0.921	0.847	0.921	0.847	0.921	0.921	0.921	0.921	0.921	0.921	0.921	0.921	0.921	0.921	0.921	0.921	0.921	0.921	0.921	0.921	0.921	0.921	
M_pyr_e	0	0	0	0	0	0	0	0	0	0	0	0	0	0	0	0	0	0	0	0	0	0	0	0	0	0	0	0	0	0	0	0	0	0	0	0	0	0	0	0	0	0	0	0	0	0	0	0	0	0	0	0	0	0	0	0	0	0	0	0	0	0	0	0	0	0	0	0	0	0	0	0	0	0	0	0	0	0	0	0	0	0	0	0	0	0	0	0	0	0	0	0	0	0	0	0	0	0	0	0	
M_q8_c	-10	-10	-10	-10	-10	-10	-10	-10	-10	-10	-10	-10	-10	-10	-10	-10	-10	-10	-10	-10	-10	-10	-10	-10	-10	-10	-10	-10	-10	-10	-10	-10	-10	-10	-10	-10	-10	-10	-10	-10	-10	-10	-10	-10	-10	-10	-10	-10	-9.575	-9.595	-9.575	-10	-9.595	-9.575	-9.684	-9.684	-9.684	-9.684	-9.684	-9.684	-9.595	-9.595	-9.575	-9.595	-10	-9.684	-9.595	-9.595	-9.684	-9.499	-9.595	-9.499	-9.595	-9.595	-9.59033	-9.595	-10	-9.499	-10	-9.595	-9.575	-9.595	-10	-10	-10	-10	-10	-10	-10	-10	-10	-10	-10	-10	-10	-10	-10	-10	-10	-10	
M_ac_e	0	0	0	0	0	0	0	0	0	0	0	0	0	0	0	0	0	0	0	0	0	0	0	0	0	0	0	0	0	0	0	0	0	0	0	0	0	0	0	0	0	0	0	0	0	0	0	0	0	0	0	0	0	0	0	0	0	0	0	0	0	0	0	0	0	0	0	0	0	0	0	0	0	0	0	0	0	0	0	0	0	0	0	0	0	0	0	0	0	0	0	0	0	0	0	0	0	0	0	0	
M_q8h2_c	10	10	10	10	10	10	10	10	10	10	10	10	10	10	10	10	10	10	10	10	10	10	10	10	10	10	10	10	10	10	10	10	10	10	10	10	10	10	10	10	10	10	10	10	10	10	10	10	9.575	9.595	9.575	10	9.595	9.575	9.684	9.684	9.684	9.684	9.684	9.684	9.595	9.595	9.575	9.595	10	9.684	9.595	9.595	9.684	9.499	9.595	9.499	9.595	9.595	9.59033	9.595	10	9.499	10	9.595	9.575	9.595	10	10	10	10	10	10	10	10	10	10	10	10	10	10	10	10	10	10	
M_acald_c	0	0	0	0	0	0	0	0	0	0	0	0	0	0	0	0	0	0	0	0	0	0	0	0	0	0	0	0	0	0	0	0	0	0	0	0	0	0	0	0	0	0	0	0	0	0	0	0	0	0	0	0	0	0	0	0	0	0	0	0	-4.42313e-12	0	0	0	0	0	0	0	0	0	0	4.15474e-12	0	0	0	0	0	0	0	0	0	0	0	0	0	0	0	0	0	0	0	0	0	0	0	0	0	0	0	0	
M_r5p_c	0	0	0	0	0	0	0	0	0	0	0	0	0	0	0	0	0	0	0	0	0	0	0	0	0	0	0	0	-0.238819	0	0	0	0	0	0	-0.391392	0	0	-0.342441	0	0	0	0	-0.370451	0	0	0	0	0	0	0	-0.523323	0	0	0	0	0	0	0	0	0	0	0	0	-0.389889	0	0	0	0	0	0	0	0	0	0	0	0	0	0	0	0	0	0	0	0	0	0	0	0	0	0	0	0	0	0	0	0	0	0	0	
M_acald_e	0	0	0	0	0	0	0	0	0	0	0	0	0	0	0	0	0	0	0	0	0	0	0	0	0	0	0	0	0	0	0	0	0	0	0	0	0	0	0	0	0	0	0	0	0	0	0	0	0	0	0	0	0	0	0	0	0	0	0	0	0	0	0	0	0	0	0	0	0	0	0	0	0	0	0	0	0	0	0	0	0	0	0	0	0	0	0	0	0	0	0	0	0	0	0	0	0	0	0	0	
M_ru5p__D_c	0.228	0.228	0.235	0.228	0.228	0.228	0.228	0.235	0.228	0.218667	0.228	0.228	0.228	0.228	0.228	0.228	0.218667	0.228	0.228	0.235	0.228	0.228	0.235	0.228	0.228	0.228	0.228	0.228	0.228	0.228	0.228	0.228	0.228	0.228	0.228	0.252	0.228	0.228	0.252	0.228	0.228	0.228	0.228	0.252	0.228	0.228	0.228	0.228	0.228	0.228	0.148	0.228	0.228	0.228	0.228	0.148	0.228	0.228	0.228	0.228	0.228	0.228	0.228	0.228	0.216732	0.228	0.228	0.228	0.148	0.228	0.228	0.228	0.228	0.228	0.218667	0.228	0.228	0.228	0.228	0.228	0.148	0.228	0.228	0.228	0.228	0.228	0.228	0.235	0.228	0.228	0.228	0.228	0.0955	0.228	0.228	0.228	0.228	0.228	0.228	0.228	
M_accoa_c	0	0	0	0	0	0	0	0	0	0	0	0	0	0	0	0	0	0	0	0	0	0	0	0	0	0	0	0	-0.988797	0	0	0	0	0	0	-1.63402	0	0	-1.42965	0	0	0	0	-1.42674	0	0	0	-7.8646e-13	0	0	0	-1.85538	0	0	0	0	0	0	1.52811e-12	0	4.42313e-12	0	0	0	-1.33566	0	0	0	0	0	1.52811e-12	-4.15474e-12	0	0	0	0	0	0	0	0	0	0	0	0	0	0	0	0	0	0	0	0	0	0	0	0	0	0	0	0	
M_s7p_c	0	0	0.007	0	0	0.028	0	0.007	0	0.0186667	0	0	0	0	0	0	0.0186667	0	0	0.007	0	0	0.007	0	0	0	0	0	0	0	0	0	0	0	0	0	0.007	0	0	0	0.0535	0	0	0	0	0	0	0	0	0	0.04	0	0	0	0	0.04	0	0	0	0	0	0	0	0	0	0	0	0	0.04	0	0	0	0	0	0.0186667	0	0	0	0	0	0.04	0	0	0	0	0	0	0.007	0	0	0	0	0.1465	0	0	0	0	0	0	0	
M_succ_c	-69.69	-69.376	-69.396	-69.485	-69.574	-69.524	-69.482	-69.482	-69.482	-69.4867	-69.482	-69.462	-69.482	-69.852	-69.551	-69.571	-69.8567	-69.832	-69.469	-69.852	-69.852	-69.469	-69.852	-69.832	-69.852	-69.677	-69.926	-69.855	-62.5337	-69.611	-69.687	-69.687	-69.611	-72.217	-72.217	-62.1596	-72.217	-72.217	-55.6368	-69.284	-69.396	-72.217	-72.402	-55.5437	-72.402	-72.402	-72.402	-72.402	-62.217	-62.217	-62.217	-77.3539	-62.217	-62.217	-62.217	-62.217	-62.217	-62.217	-62.217	-61.481	-61.481	-61.481	-62.402	-61.481	-53.3549	-61.481	-62.217	-62.402	-61.481	-62.402	-62.402	-62.402	-62.402	-62.402	-62.402	-62.402	-60.833	-62.402	-60.744	-61.481	-62.402	-61.481	-75.5105	-75.5105	-60.81	-60.83	-69.69	-61.2	-61.2	-61.2	-60.959	-60.632	-67.151	-60.919	-61.079	-56.286	-56.266	-56.266	-56.266	-56.266	
M_acon_C_c	-3.32	-3.32	-3.32	-3.32	-3.32	-3.32	-3.32	-3.32	-3.32	-3.32	-3.32	-3.32	-3.32	-3.32	-3.32	-3.32	-3.32	-3.32	-3.32	-3.32	-3.32	-3.32	-3.32	-3.32	-3.32	-3.32	-3.32	-3.32	-10	-3.32	-3.32	-3.32	-3.32	-3.32	-3.32	-10	-3.32	-3.32	-3.32	-3.32	-3.32	-3.32	-3.32	-3.32	-3.32	-3.32	-3.32	-3.32	-10	-10	-10	-3.32	-10	-10	-10	-10	-10	-10	-10	-10	-10	-10	-10	-10	-3.32	-10	-10	-10	-10	-10	-10	-10	-10	-10	-10	-10	-3.32	-10	-3.32	-10	-10	-10	-3.32	-3.32	-3.32	-3.32	-3.32	-3.32	-3.32	-3.32	-3.32	-3.32	-9.088	-3.32	-3.32	-3.32	-3.32	-3.32	-3.32	-3.32	
M_succ_e	0	0	0	0	0	0	0	0	0	0	0	0	0	0	0	0	0	0	0	0	0	0	0	0	0	0	0	0	0	0	0	0	0	0	0	0	0	0	0	0	0	0	0	0	0	0	0	0	0	0	0	0	0	0	0	0	0	0	0	0	0	0	0	0	0	0	0	0	0	0	0	0	0	0	0	0	0	0	0	0	0	0	0	0	0	0	0	0	0	0	0	0	0	0	0	0	0	0	0	0	
M_actp_c	0	0	0	0	0	0	0	0	0	0	0	0	0	0	0	0	0	0	0	0	0	0	0	0	0	0	0	0	0	0	0	0	0	0	0	0	0	0	0	0	0	0	0	0	0	0	0	0	0	0	0	0	0	0	0	0	0	0	0	0	0	0	0	0	0	0	0	0	0	0	0	0	0	0	0	0	0	0	0	0	0	0	0	0	0	0	0	0	0	0	0	0	0	0	0	0	0	0	0	0	
M_succoa_c	0	0	0	0	0	0	0	0	0	0	0	0	0	0	0	0	0	0	0	0	0	0	0	0	0	0	-0.087	0	0	0	0	0	0	0	0	0	0	0	0	0	0	0	0	0	0	0	0	0	0	0	0	0	0	0	0	0	0	0	0	0	0	0	0	0	0	0	0	0	0	0	0	0	0	0	0	0	0	0	0	0	0	0	0	0	0	0	0	0	0	0	0	0	-0.09	0	0	0	0	0	0	0	
M_adp_c	-0.003	-0.092	-0.092	-0.003	-0.003	-0.003	-0.003	-0.003	-0.003	-0.003	-0.003	-0.003	-0.003	-0.003	-0.003	-0.003	-0.003	-0.003	-0.185	-0.003	-0.003	-0.185	-0.003	-0.003	-0.003	-0.003	-0.003	-0.003	-0.003	-0.003	-0.003	-0.003	-0.003	-0.269	-0.269	-0.003	-0.269	-0.269	-0.003	-0.185	-0.185	-0.269	-0.269	-0.003	-0.269	-0.269	-0.269	-0.269	-0.003	-0.003	-0.003	-0.003	-0.003	-0.003	-0.092	-0.112	-0.092	-0.092	-0.092	-0.092	-0.003	-0.003	-0.003	-0.003	-0.269	-0.092	-0.003	-0.003	-0.112	-0.003	-0.003	-0.003	-0.003	-0.003	-0.003	-0.003	-0.003	-0.003	-0.092	-0.003	-0.003	-0.003	-0.269	-0.269	-0.003	-0.003	-0.003	-0.003	-0.003	-0.003	-0.003	-0.092	-0.003	-0.003	-0.003	-0.003	-0.003	-0.003	-0.003	-0.003	
M_xu5p__D_c	0	0	0	0	0	0.028	0	0	0	0	0	0	0	0	0	0	0	0	0	0	0	0	0	0	0	0	0	0	0.0912942	0	0	0	0	0	0	0.157394	0.007	0	0.137709	0	0.0535	0	0	0.0800094	2e-09	0	0	0	0	0	0	0.0209003	0	0	0	0	0	0	0	0	0	0	0	0	0	0	0	0	0	0	0	0	0	0	0	0	0	0	0	0	0	0	0	0	0	0	0	0	0	0	0	0	0	0	0	0	0	0	0	0	
M_akg_c	-1.484	-1.279	-1.299	-1.299	-1.388	-0.563	-0.563	-0.563	-0.563	-0.563	-0.563	-0.543	-0.563	-0.563	-0.543	-0.563	-0.563	-0.543	-1.372	-0.563	-0.563	-1.372	-0.563	-0.543	-0.563	-0.585	-0.639	-1.484	4.01481	-0.563	-0.563	-0.563	-0.563	-0.543	-0.563	3.87309	-0.563	-0.543	3.91798	-0.636	-1.299	-0.543	-0.543	3.91862	-0.563	-0.563	-0.543	-0.563	3.908	3.908	3.908	-8.88178e-16	3.908	3.908	3.908	3.908	3.908	3.908	3.908	3.908	3.908	3.908	3.908	3.908	3.76412	3.908	3.908	3.908	3.908	3.908	3.908	3.908	3.908	3.908	3.908	3.908	-1.299	3.908	-1.299	3.908	3.908	3.908	-0.543	-0.563	-0.563	-0.563	-1.484	-0.563	-0.563	-0.563	-0.563	-0.543	0	-0.563	-0.603	4.232	4.232	4.232	4.232	4.232	
M_akg_e	0	0	0	0	0	0	0	0	0	0	0	0	0	0	0	0	0	0	0	0	0	0	0	0	0	0	0	0	0	0	0	0	0	0	0	0	0	0	0	0	0	0	0	0	0	0	0	0	0	0	0	0	0	0	0	0	0	0	0	0	0	0	0	0	0	0	0	0	0	0	0	0	0	0	0	0	0	0	0	0	0	0	0	0	0	0	0	0	0	0	0	0	0	0	0	0	0	0	0	0	
M_amp_c	0	0	0	0	0	0	0	0	0	0	0	0	0	0	0	0	0	0	0	0	0	0	0	0	0	0	0	0	0	0	0	0	0	3.1085	3.0985	0	3.1085	3.1085	0	0	0	3.1085	3.1085	0	3.1085	3.1085	3.1085	3.1085	0	0	0	0	0	0	0	0	0	0	0	0	0	0	0	0	0	0	0	0	0	0	0	0	0	0	0	0	0	0	0	0	0	0	3.1085	3.1085	0	0	0	0	0	0	0	0	0	0	0	0	0	0	0	0	
M_atp_c	0.003	0.092	0.092	0.003	0.003	0.003	0.003	0.003	0.003	0.003	0.003	0.003	0.003	0.003	0.003	0.003	0.003	0.003	0.185	0.003	0.003	0.185	0.003	0.003	0.003	0.003	0.003	0.003	0.003	0.003	0.003	0.003	0.003	-2.8395	-2.8295	0.003	-2.8395	-2.8395	0.003	0.185	0.185	-2.8395	-2.8395	0.003	-2.8395	-2.8395	-2.8395	-2.8395	0.003	0.003	0.003	0.003	0.003	0.003	0.092	0.112	0.092	0.092	0.092	0.092	0.003	0.003	0.003	0.003	0.269	0.092	0.003	0.003	0.112	0.003	0.003	0.003	0.003	0.003	0.003	0.003	0.003	0.003	0.092	0.003	0.003	0.003	-2.8395	-2.8395	0.003	0.003	0.003	0.003	0.003	0.003	0.003	0.092	0.003	0.003	0.003	0.003	0.003	0.003	0.003	0.003	
M_cit_c	3.32	3.32	3.32	3.32	3.32	3.32	3.32	3.32	3.32	3.32	3.32	3.32	3.32	3.32	3.32	3.32	3.32	3.32	3.32	3.32	3.32	3.32	3.32	3.32	3.32	3.32	3.32	3.32	3.32	3.32	3.32	3.32	3.32	3.32	3.32	3.32	3.32	3.32	3.32	3.32	3.32	3.32	3.32	3.32	3.32	3.32	3.32	3.32	3.32	3.32	3.32	3.32	3.32	3.32	3.32	3.32	3.32	3.32	3.32	3.32	3.32	3.32	3.32	3.32	3.32	3.32	3.32	3.32	3.32	3.32	3.32	3.32	3.32	3.32	3.32	3.32	3.32	3.32	3.32	3.32	3.32	3.32	3.32	3.32	3.32	3.32	3.32	3.32	3.32	3.32	3.32	3.32	3.32	3.32	3.32	3.32	3.32	3.32	3.32	3.32	
M_co2_c	0	0	5.82867e-16	0	0	0.733	0.733	0.733	0.733	0.733	0.733	0.733	0.733	0.918	0.822	0.822	0.918	0.918	0	0.918	0.918	0	0.918	0.918	0.918	0.864	1.005	0	1.89639	0.842	0.918	0.918	0.842	6.189	6.169	2.40808	6.169	6.189	2.25361	0.551	-5.32907e-15	6.189	6.374	2.25141	6.354	6.169	6.189	6.169	0.964	0.964	0.964	4.61979	0.964	0.964	0.964	0.964	0.964	0.964	0.964	0.964	0.964	0.964	1.149	0.964	2.08457	0.964	0.964	1.149	0.964	1.149	1.053	1.149	1.05299	0.964	0.964	0.964	0	0.964	-1.77636e-15	0.228	0.964	0.228	9.4825	9.4625	0.693	0.733	0	0.918	0.918	0.918	0.842	0.644	1.571	0.822	0.882	0.964	0.964	0.964	0.964	0.964	
M_co2_e	0	0	0	0	0	0	0	0	0	0	0	0	0	0	0	0	0	0	0	0	0	0	0	0	0	0	0	0	0	0	0	0	0	0	0	0	0	0	0	0	0	0	0	0	0	0	0	0	0	0	0	0	0	0	0	0	0	0	0	0	0	0	0	0	0	0	0	0	0	0	0	0	0	0	0	0	0	0	0	0	0	0	0	0	0	0	0	0	0	0	0	0	0	0	0	0	0	0	0	0	
M_coa_c	0	0	0	0	0	0	0	0	0	0	0	0	0	0	0	0	0	0	0	0	0	0	0	0	0	0	0.087	0	0.988797	0	0	0	0	0	0	1.63402	0	0	1.42965	0	0	0	0	1.42674	0	0	0	7.8646e-13	0	0	0	1.85538	0	0	0	0	0	0	-1.52811e-12	0	-4.42313e-12	0	0	0	1.33566	0	0	0	0	0	-1.52811e-12	4.15474e-12	0	0	0	0	0	0	0	0	0	0	0	0	0	0	0	0	0	0	0	0	0.09	0	0	0	0	0	0	0	
M_dhap_c	0	0	0	0	0	0	0	0	0	0	0	0	0	0	0	0	0	0	-0.051	0	0	-0.051	0	0	0	0	-0.054	0	-0.054	0	0	0	0	0	0	-0.132306	0	7.567e-13	-0.051	-0.051	-0.051	0	-7.56697e-13	-0.051	0	0	0	0	0	0	0	0	0	-0.02	0	0	0	0	0	0	0	0	0	0	0	0	0	0	0	0	0	0	0	0	0	0	0	0	0	0	0	0	0	0	0	0	0	0	0	0	0	0	-0.093	0	0	0	0	0	0	0	
M_e4p_c	0	0	0	0	0	0	0	0	0	0	0	0	0	0	0	0	0	0	0	0	0	0	0	0	0	0	0	0	0	0	0	0	0	0	0	0	0	0	0	0	0	0	0	0	0	0	0	0	0	0	0	0	0	0	0	0	0	0	0	0	0	0	0	0	0	0	0	0	0	0	0	0	0	0	0	0	0	0	0	0	0	0	0	0	0	0	0	0	0	0	0	0	0	0	0	0	0	0	0	0	
M_etoh_c	0	0	0	0	0	0	0	0	0	0	0	0	0	0	0	0	0	0	0	0	0	0	0	0	0	0	0	0	0	0	0	0	0	0	0	0	0	0	0	0	0	0	0	0	0	0	0	0	0	0	0	0	0	0	0	0	0	0	0	0	0	0	0	0	0	0	0	0	0	0	0	0	0	0	0	0	0	0	0	0	0	0	0	0	0	0	0	0	0	0	0	0	0	0	0	0	0	0	0	0	
M_etoh_e	0	0	0	0	0	0	0	0	0	0	0	0	0	0	0	0	0	0	0	0	0	0	0	0	0	0	0	0	0	0	0	0	0	0	0	0	0	0	0	0	0	0	0	0	0	0	0	0	0	0	0	0	0	0	0	0	0	0	0	0	0	0	0	0	0	0	0	0	0	0	0	0	0	0	0	0	0	0	0	0	0	0	0	0	0	0	0	0	0	0	0	0	0	0	0	0	0	0	0	0	
M_f6p_c	-0.073	-0.073	-0.107	-0.093	-0.093	-0.107	-0.093	-0.107	-0.093	-0.107	-0.093	-0.073	-0.093	-0.093	-0.073	-0.093	-0.107	-0.073	-0.073	-0.107	-0.093	-0.073	-0.107	-0.073	-0.093	-0.073	-0.073	-0.093	-0.107	-0.073	-0.073	-0.073	-0.073	-0.073	-0.073	-0.107	-0.107	-0.073	-0.107	-0.073	-0.107	-0.073	-0.073	-0.107	-0.093	-0.093	-0.073	-0.093	-0.073	-0.073	-0.073	-0.107	-0.073	-0.073	-0.093	-0.073	-0.073	-0.093	-0.093	-0.073	-0.093	-0.073	-0.073	-0.093	-0.107	-0.093	-0.093	-0.093	-0.073	-0.073	-0.093	-0.073	-0.093	-0.073	-0.107	-0.093	-0.093	-0.073	-0.093	-0.073	-0.073	-0.093	-0.073	-0.093	-0.073	-0.093	-0.073	-0.107	-0.093	-0.093	-0.073	-0.073	-0.107	-0.093	-0.073	-0.073	-0.093	-0.073	-0.073	-0.073	
M_fdp_c	0.073	0.093	0.093	0.093	0.093	0.051	0.093	0.093	0.093	0.093	0.093	0.093	0.093	0.093	0.093	0.093	0.093	0.093	0.051	0.093	0.093	0.051	0.093	0.093	0.093	0.051	0.051	0.093	0.051	0.093	0.073	0.073	0.073	0.093	0.093	0.051	0.093	0.093	0.051	0.051	0.051	0.093	0.093	0.051	0.093	0.093	0.093	0.093	0.093	0.093	0.093	0.051	0.093	0.093	0.093	0.093	0.093	0.093	0.093	0.093	0.093	0.093	0.093	0.093	0.093	0.093	0.093	0.093	0.093	0.073	0.093	0.093	0.093	0.093	0.093	0.093	0.093	0.073	0.093	0.093	0.093	0.093	0.093	0.093	0.093	0.093	0.073	0.093	0.093	0.093	0.093	0.093	0.093	0.093	0.051	0.093	0.093	0.093	0.093	0.093	
M_for_c	0	0	0	0	0	0	0	0	0	0	0	0	0	0	0	0	0	0	0	0	0	0	0	0	0	0	0	0	0	0	0	0	0	0	0	0	0	0	0	0	0	0	0	0	0	0	0	0	0	0	0	0	0	0	0	0	0	0	0	0	0	0	0	0	0	0	0	0	0	0	0	0	0	0	0	0	0	0	0	0	0	0	0	0	0	0	0	0	0	0	0	0	0	0	0	0	0	0	0	0	
M_for_e	0	0	0	0	0	0	0	0	0	0	0	0	0	0	0	0	0	0	0	0	0	0	0	0	0	0	0	0	0	0	0	0	0	0	0	0	0	0	0	0	0	0	0	0	0	0	0	0	0	0	0	0	0	0	0	0	0	0	0	0	0	0	0	0	0	0	0	0	0	0	0	0	0	0	0	0	0	0	0	0	0	0	0	0	0	0	0	0	0	0	0	0	0	0	0	0	0	0	0	0	
M_fru_e	0	0	0	0	0	0	0	0	0	0	0	0	0	0	0	0	0	0	0	0	0	0	0	0	0	0	0	0	0	0	0	0	0	0	0	0	0	0	0	0	0	0	0	0	0	0	0	0	0	0	0	0	0	0	0	0	0	0	0	0	0	0	0	0	0	0	0	0	0	0	0	0	0	0	0	0	0	0	0	0	0	0	0	0	0	0	0	0	0	0	0	0	0	0	0	0	0	0	0	0	
M_fum_c	33.429	33.32	33.32	33.409	33.409	33.451	33.409	33.409	33.409	33.4137	33.409	33.409	33.409	33.409	33.409	33.409	33.4137	33.409	33.32	33.409	33.409	33.32	33.409	33.409	33.409	33.451	33.592	33.409	32.9763	33.429	33.429	33.429	33.429	33.592	33.592	32.1146	33.592	33.592	25.651	33.32	33.32	33.592	33.592	25.6553	33.592	33.592	33.592	33.592	33.592	33.592	33.592	33.194	33.592	33.592	33.592	33.592	33.592	33.592	33.592	33.592	33.592	33.592	33.592	33.592	23.72	33.592	33.592	33.592	33.592	33.592	33.592	33.592	33.592	33.592	33.592	33.592	27.641	33.592	27.552	33.592	33.592	33.592	33.592	33.592	27.661	27.641	33.429	27.641	27.641	27.641	27.661	27.552	33.592	27.641	27.701	27.661	27.641	27.641	27.641	27.641	
M_fum_e	0	0	0	0	0	0	0	0	0	0	0	0	0	0	0	0	0	0	0	0	0	0	0	0	0	0	0	0	0	0	0	0	0	0	0	0	0	0	0	0	0	0	0	0	0	0	0	0	0	0	0	0	0	0	0	0	0	0	0	0	0	0	0	0	0	0	0	0	0	0	0	0	0	0	0	0	0	0	0	0	0	0	0	0	0	0	0	0	0	0	0	0	0	0	0	0	0	0	0	0	
M_g3p_c	0	0	0	0	0	0	0	0	0	0	0	0	0	0	0	0	0	0	-0.051	0	0	-0.051	0	0	0	0.054	-0.054	0	-0.181304	0.036	0	0	0.076	0	0	-0.345943	0	-7.567e-13	-0.237918	-0.051	-0.051	0	0	-0.208827	-1e-09	0	0	0	0	0	0	-0.163671	0	0	0	0	0	0	0	0	0	0	0.036	0	-0.104668	0	0	0.096	0	0	0	0	0	0	0	0	0	0	0	0	0	0	0	0	0	0	0	0	0	0	0.036	0	0	0	0	0	0	0	0	0	
M_g6p_c	-0.335	-0.335	-0.335	-0.335	-0.335	-0.335	-0.335	-0.335	-0.335	-0.335	-0.335	-0.335	-0.335	-0.335	-0.335	-0.335	-0.335	-0.335	-0.335	-0.335	-0.335	-0.335	-0.335	-0.335	-0.335	-0.335	-0.335	-0.335	-0.335	-0.335	-0.335	-0.335	-0.335	-0.335	-0.335	-0.505	-0.335	-0.335	-0.505	-0.335	-0.335	-0.335	-0.335	-0.435296	-0.335	-0.335	-0.335	-0.335	-0.335	-0.335	-0.335	-0.335	-0.335	-0.335	-0.335	-0.335	-0.335	-0.335	-0.335	-0.335	-0.335	-0.335	-0.335	-0.335	-0.335	-0.335	-0.335	-0.335	-0.335	-0.335	-0.335	-0.335	-0.335	-0.335	-0.335	-0.335	-0.335	-0.335	-0.335	-0.335	-0.335	-0.335	-0.335	-0.335	-0.335	-0.335	-0.335	-0.335	-0.335	-0.335	-0.335	-0.335	-0.335	-0.335	-0.335	-0.335	-0.335	-0.335	-0.335	-0.335	
M_biomass_c	0	0	0	0	0	0	0	0	0	0	0	0	0	0	0	0	0	0	0	0	0	0	0	0	0	0	0	0	1.31917	0	0	0	0	0	0	2.17997	0	0	1.90732	0	0	0	0	1.90343	0	0	0	0	0	0	0	2.4753	0	0	0	0	0	0	0	0	0	0	0	0	1.78193	0	0	0	0	0	0	0	0	0	0	0	0	0	0	0	0	0	0	0	0	0	0	0	0	0	0	0	0	0	0	0	0	0	0	0	
