B_R_ACONTa 	 1.68
B_R_ACONTb 	 3.116
B_R_ADK1 	 0.003
F_R_FBA 	 0.7027
F_R_G6PDH2r 	 1.143
F_R_GLUDy 	 5.684
R_GLUSy 	 0.888
R_GND 	 0.2745
B_R_ICDHyr 	 4.796
R_MALS 	 0.341
B_R_PGI 	 0.228
R_PPC 	 0.988
