B_R_ACONTa 	 1.68
B_R_ACONTb 	 4.3055
B_R_ADK1 	 0.228
F_R_FBA 	 0.9307
F_R_G6PDH2r 	 0.915
F_R_GLUDy 	 4.796
R_GLUN 	 0.888
R_GND 	 0.2745
B_R_ICDHyr 	 5.9855
B_R_MDH 	 0.571
R_PFK 	 0.228
R_PPC 	 0.988
