B_R_ACONTa 	 1.56
F_R_FBA 	 1.8457
F_R_GLUDy 	 4.796
R_GLUN 	 0.888
R_GND 	 0.2955
B_R_ICDHyr 	 1.68
B_R_LDH_D 	 3.4115
R_MALS 	 0.341
R_NADTRHD 	 3.4115
R_PFK 	 1.143
F_R_PGI 	 0.915
R_PPS 	 0.086
R_PYK 	 1.146
