B_R_ACALD 	 5.292
B_R_ACONTa 	 1.68
B_R_ACONTb 	 3.3905
B_R_ADK1 	 0.155
F_R_FBA 	 1.8457
F_R_GLUDy 	 5.684
R_GLUSy 	 0.888
R_GND 	 0.2745
B_R_ICDHyr 	 5.0705
R_MALS 	 0.341
R_PDH 	 5.633
R_PFK 	 1.143
F_R_PGI 	 0.915
R_PYK 	 0.988
