11.9241
11.9241
11.9773
11.9773
12.0264
12.0264
12.0395
12.0395
12.0741
12.0744
12.0796
12.0796
12.0927
12.0927
12.1178
12.1178
12.1273
12.1273
12.1418
12.1418
12.171
12.171
12.1764
12.195
12.195
12.1764
12.2332
12.2296
12.2296
12.2332
12.2678
12.2678
12.2864
12.2864
12.3216
12.3228
12.321
12.3228
12.337
12.3376
12.3558
12.376
12.376
12.3552
12.3967
12.3967
12.4084
12.3233
12.4056
12.4084
12.4056
12.4382
12.4382
12.443
12.4415
12.443
12.4415
12.4453
12.4453
12.45
12.3373
12.45
12.4563
12.4563
12.4575
12.4575
12.4649
12.4649
12.4728
12.4862
12.4728
12.231
12.4862
12.4914
12.4914
12.4945
12.4955
12.4959
12.4959
12.5107
12.526
12.4056
12.5107
12.5198
12.5198
12.5441
12.5263
12.5441
12.5476
12.547
12.5607
12.5607
12.5489
12.5495
12.5623
12.5623
12.5626
12.588
12.5626
12.588
