R_DM_mththf_c 	 35.0162
R_DM_oxam_c 	 21.9928
B_R_ACACT1r 	 6.08485
B_R_ACACT2r 	 6.08485
B_R_ACACT3r 	 6.08485
B_R_ACACT4r 	 6.08485
B_R_ACACT5r 	 6.08485
B_R_ACACT6r 	 6.08485
B_R_ACACT7r 	 6.08485
F_R_ACACT8r 	 6.08485
F_R_ACALD 	 1.43643
R_ACLS 	 0.48
F_R_ACOAD1f 	 6.08485
F_R_ACOAD2f 	 6.08485
F_R_ACOAD3f 	 6.08485
F_R_ACOAD4f 	 6.08485
F_R_ACOAD5f 	 6.08485
F_R_ACOAD6f 	 6.08485
F_R_ACOAD7f 	 6.08485
F_R_ACOAD8f 	 6.08485
F_R_ACONTa 	 14.9118
F_R_ACONTb 	 14.9118
R_AHCYSNS 	 35.0162
F_R_AICART 	 18.9581
R_AIRC2 	 18.9581
B_R_AIRC3 	 18.9581
R_ADD 	 3.03466
F_R_ADK1 	 169.014
R_ADNK1 	 33.5672
B_R_ALAt2pp_copy2 	 2.172
B_R_ALAtex 	 2.172
F_R_ADSL2r 	 18.9581
R_ALLTAMH 	 21.9928
R_ALLTN 	 21.9928
R_ASNN 	 0.184
B_R_ASPTA 	 16.9681
B_R_CBMKr 	 21.9928
R_AST 	 2
F_R_ATPS4rpp 	 485.436
R_CLPNH180pp 	 2
F_R_CLPNS180pp 	 1
R_CYTBO3_4pp 	 2.64237
R_CS 	 16.5918
R_DHAD1 	 0.48
R_DHPTDCs2 	 35.0162
R_ARGabcpp 	 1
B_R_ECOAH5 	 6.08485
B_R_ECOAH6 	 6.08485
B_R_ECOAH7 	 6.08485
B_R_ECOAH8 	 6.08485
B_R_ENO 	 72.0914
R_ETHAAL 	 1.04243
R_ETHAt2pp 	 1.04243
B_R_ECOAH1 	 6.08485
B_R_ECOAH2 	 6.08485
B_R_ECOAH3 	 6.08485
B_R_ECOAH4 	 6.08485
R_FLDR2 	 60.7484
B_R_FRULYSDG 	 0.24
R_FTHFLi 	 2.18196
F_R_FUM 	 18.6861
F_R_G1SAT 	 20.9278
R_FACOAL180t2pp 	 6.08485
F_R_G3PD2 	 4.04243
B_R_FBA 	 25.3977
R_FBP 	 26.1206
F_R_GHMT2r 	 18.0081
F_R_GK1 	 1
F_R_G6PDH2r 	 13.1656
R_GLNS 	 36.4523
B_R_GAPD 	 53.9264
B_R_GLUDy 	 48.2511
R_GLUPRT 	 18.9581
R_GART 	 18.9581
R_GLUTRR 	 20.9278
R_GLUTRS 	 20.9278
R_FE3Ri 	 48.6788
R_GLYC3Pabcpp 	 3.04243
R_GTPDPK 	 1
R_GUAPRT 	 1
B_R_H2Otpp 	 9.12728
B_R_GLYCtpp 	 1
R_GLYK 	 1
B_R_HACD1 	 6.08485
B_R_HACD2 	 6.08485
B_R_HACD3 	 6.08485
B_R_HACD4 	 6.08485
B_R_HACD5 	 6.08485
B_R_HACD6 	 6.08485
B_R_HACD7 	 6.08485
B_R_HACD8 	 6.08485
F_R_HCO3E 	 18.9581
R_HCYSMT 	 33.7843
R_GND 	 13.4611
R_GPDDA2pp 	 1.04243
R_HMBS 	 2.61598
R_FESD1s 	 48.6788
R_HXAND 	 21.9928
R_FESR 	 97.3576
B_R_KARA1 	 0.48
F_R_ICDHyr 	 13.2318
B_R_IMPC 	 18.9581
F_R_LEUt2rpp 	 0.249
R_LPLIPAL1A180pp 	 2
R_METAT 	 35.0162
R_METS 	 1.23196
F_R_MAN6PI 	 0.335
R_LPLIPAL1E180pp 	 1.04243
F_R_MDH 	 677.691
B_R_MOX 	 659.576
F_R_MTHFC 	 16.7762
F_R_MTHFD 	 16.7762
R_MTHFR2 	 1.23196
R_MTHTHFSs 	 35.0162
R_NADH16pp 	 688.904
F_R_NDPK1 	 1
R_NTD11 	 18.9581
R_URIC 	 21.9928
R_OXAMTC 	 21.9928
R_PE180abcpp 	 0.0424261
R_PGCD 	 18.0081
B_R_PGI 	 12.3606
F_R_PGK 	 54.0833
R_PGL 	 13.1656
F_R_PGM 	 72.0914
R_PFL 	 21.1401
R_PLIPA2A180pp 	 2
R_PLIPA2E180pp 	 1.04243
F_R_PHETA1 	 0.514
B_R_POR5 	 60.7484
R_PPBNGS 	 10.4639
R_PPC 	 15.4448
F_R_PPK2 	 1
B_R_PPK 	 80.9871
B_R_PPM 	 14.0234
R_PPS 	 86.4763
F_R_PRAGSr 	 18.9581
R_PRAIS 	 18.9581
R_PRASCSi 	 18.9581
R_PRFGS 	 18.9581
F_R_PRPPS 	 20.9581
B_R_RPE 	 14.347
B_R_RPI 	 27.8081
R_SADH 	 2
R_PSERT 	 18.0081
R_PSP_L 	 18.0081
R_QMO2 	 686.262
R_SGDS 	 2
R_SGSAD 	 2
B_R_PUNP1 	 32.9816
F_R_PUNP5 	 18.9581
R_SOTA 	 2
R_SPODM 	 686.262
R_THRA 	 0.394
F_R_SUCOAS 	 2
B_R_TKT1 	 7.17349
B_R_TKT2 	 7.17349
B_R_TALA 	 7.17349
B_R_TPI 	 21.3553
R_THD2pp 	 69.7301
F_R_TYRTA 	 0.095
B_R_VALTA 	 2.652
B_R_VPAMTr 	 2.172
R_XAND 	 21.9928
R_RHCCE 	 35.0162
R_UPP3MT 	 0.615979
R_UPP3S 	 1.61598
R_URDGLYCD 	 21.9928
