B_R_ACONTa 	 0.86
F_R_ACONTb 	 4.14
R_CYTBD 	 1.891
F_R_ENO 	 8.964
R_FRD7 	 5.357
B_R_FUM 	 6.52
R_GLCpts 	 6.349
F_R_GLUDy 	 4.89
R_GLUSy 	 2.036
B_R_ICDHyr 	 2.854
R_ICL 	 7.248
R_MALS 	 7.248
R_NADH16 	 7.248
R_PDH 	 7.248
R_PFK 	 3.672
F_R_PGI 	 4.219
R_PGL 	 0.237
B_R_PGM 	 5
R_PYK 	 3.675
R_SUCCt2_2 	 8.50867
R_SUCCt3 	 8.50867
