F_R_ACONTb 	 4.433
F_R_ATPS4r 	 3.941
R_CS 	 0.76
F_R_ENO 	 5
R_FRD7 	 5.25467
B_R_FUM 	 6.62233
R_GLCpts 	 6.06
F_R_GLUDy 	 2.837
R_GLUSy 	 1.492
B_R_ICDHyr 	 1.345
R_ICL 	 7.35033
F_R_LDH_D 	 0.885333
R_MALS 	 7.35033
R_NADH16 	 5.25467
R_PDH 	 4.16933
R_PFK 	 3.672
F_R_PGI 	 4.145
R_PGL 	 0.183
B_R_PTAr 	 3.941
