F_R_ACONTb 	 3.397
F_R_ATPS4r 	 3.9
R_CS 	 0.76
F_R_ENO 	 5
R_FRD7 	 5.2
B_R_FUM 	 6.08
R_GLCpts 	 6.06
F_R_GLUDy 	 2.036
R_GLUN 	 2.036
B_R_ICDHyr 	 2.036
R_ICL 	 6.568
R_MALS 	 6.568
R_NADH16 	 5.2
R_PDH 	 3.428
R_PFK 	 3.672
F_R_PGI 	 4.219
R_PGL 	 0.183
B_R_PTAr 	 3.9
