B_R_ACONTa 	 0.86
F_R_ACONTb 	 3.194
F_R_ENO 	 9.091
R_FRD7 	 5.23
B_R_FUM 	 6.647
R_GLCpts 	 6.4125
F_R_GLUDy 	 4.072
R_GLUSy 	 2.036
B_R_ICDHyr 	 4.181
R_ICL 	 7.375
R_MALS 	 7.375
R_NADH16 	 5.23
R_NADTRHD 	 5.7
R_PDH 	 7.375
R_PFK 	 3.7355
F_R_PGI 	 4.2825
R_PGL 	 0.237
B_R_PGM 	 4.091
R_PYK 	 3.7385
R_THD2 	 7.845
