B_R_ACONTa 	 0.86
F_R_ACONTb 	 3.621
F_R_ATPS4r 	 1.66943
F_R_ENO 	 7.84857
R_FRD7 	 3.78857
B_R_FUM 	 5.40457
R_GLCpts 	 6.493
F_R_GLUDy 	 4.072
R_GLUSy 	 2.036
B_R_ICDHyr 	 4.38
R_ICL 	 8.001
R_MALS 	 6.13257
R_NADH16 	 3.78857
R_PDH 	 6.13257
R_PFK 	 3.816
F_R_PGI 	 4.363
R_PGL 	 0.237
B_R_PGM 	 2.84857
R_PYK 	 2.41557
R_THD2 	 2.344
