F_R_ACONTb 	 5
R_CS 	 0.76
R_CYTBD 	 2.233
F_R_ENO 	 9.518
R_FRD7 	 4.803
B_R_FUM 	 6.314
R_GLCpts 	 6.493
F_R_GLUDy 	 2.036
R_GLUN 	 2.036
B_R_ICDHyr 	 2.802
R_ICL 	 7.802
R_MALS 	 7.042
R_NADH16 	 7.036
R_NADTRHD 	 12.021
R_PDH 	 7.802
R_PFK 	 3.816
F_R_PGI 	 4.363
R_PGL 	 0.237
B_R_PGM 	 5
R_PYK 	 4.085
R_THD2 	 12.787
