F_R_ACONTb 	 5
R_CS 	 0.76
R_CYTBD 	 2.368
F_R_ENO 	 9.2025
R_FORt2 	 27.1955
B_R_FORt 	 27.1955
R_FRD7 	 5.1185
B_R_FUM 	 5.9985
R_GLCpts 	 6.46825
F_R_GLUDy 	 2.4865
R_GLUN 	 2.036
B_R_ICDHyr 	 2.4865
R_ICL 	 7.4865
R_MALS 	 6.7265
R_NADH16 	 7.4865
R_PDH 	 7.4865
R_PFK 	 3.79125
F_R_PGI 	 4.33825
R_PGL 	 0.237
B_R_PGM 	 4.2025
R_PYK 	 3.79425
