F_R_ACONTb 	 5
R_CS 	 0.76
R_CYTBD 	 2.368
F_R_ENO 	 9.2025
R_FRD7 	 5.1185
B_R_FUM 	 5.9985
R_GLCpts 	 6.349
F_R_GLUDy 	 4.5225
R_GLUSy 	 2.036
B_R_ICDHyr 	 2.4865
R_ICL 	 7.4865
R_MALS 	 6.7265
R_NADH16 	 7.4865
R_PDH 	 7.4865
R_PFK 	 3.672
F_R_PGI 	 4.219
R_PGL 	 0.237
B_R_PGM 	 4.2025
R_PYK 	 3.9135
R_SUCCt2_2 	 9.06517
R_SUCCt3 	 9.06517
