B_R_ACONTa 	 0.76
F_R_ACONTb 	 1.24
F_R_ATPS4r 	 2.1742
F_R_ENO 	 4.63645
B_R_FBA 	 0.88955
R_FRD7 	 2.89893
B_R_FUM 	 3.77893
F_R_G6PDH2r 	 0.237
B_R_GAPD 	 0.88955
R_GLCpts 	 5.69645
F_R_GLUDy 	 0.508
R_GLUN 	 1.492
B_R_ICDHyr 	 1.11258
R_ICL 	 4.35258
R_MALS 	 4.35258
B_R_MDH 	 0.15435
R_NADH16 	 2.89893
R_PDH 	 3.06445
R_PFK 	 2.78245
F_R_PGI 	 3.32945
B_R_PGK 	 0.873767
R_PGL 	 0.237
B_R_PGM 	 2.63645
B_R_PTAr 	 1.28813
