F_R_ACKr 	 1.23425
B_R_ACONTa 	 0.76575
F_R_ACONTb 	 1.23425
F_R_ATPS4r 	 1.23425
F_R_ENO 	 4.91325
B_R_FBA 	 1.82025
R_FRD7 	 2.8235
B_R_FUM 	 3.7035
F_R_G6PDH2r 	 0.237
R_GLCpts 	 4.76575
F_R_GLUDy 	 0.551861
R_GLUN 	 1.44814
B_R_ICDHyr 	 1.19725
R_ICL 	 4.4315
R_MALS 	 4.4315
R_NADH16 	 2.8235
R_NADTRHD 	 1.393
R_PDH 	 3.19725
R_PFK 	 1.85175
F_R_PGI 	 2.39875
B_R_PGK 	 0.91325
R_PGL 	 0.237
B_R_PGM 	 2.91325
B_R_PTAr 	 1.23425
R_PYK 	 1.2075
R_THD2 	 1.76675
