B_R_ACONTa 	 0.86
F_R_ACONTb 	 1.14
F_R_ATPS4r 	 2.13613
F_R_ENO 	 4.77381
B_R_FBA 	 0.891621
R_FRD7 	 2.84817
B_R_FUM 	 3.72817
F_R_G6PDH2r 	 0.237
B_R_GAPD 	 0.891621
R_GLCpts 	 5.69438
F_R_GLUDy 	 2
R_GLUSy 	 1.492
B_R_ICDHyr 	 1.26683
R_ICL 	 4.40683
R_MALS 	 4.40683
R_NADH16 	 2.84817
R_PDH 	 3.16232
R_PFK 	 2.78038
F_R_PGI 	 3.32738
B_R_PGK 	 0.773814
R_PGL 	 0.237
B_R_PGM 	 2.77381
R_PPCK 	 0.104507
B_R_PTAr 	 1.24451
R_PYK 	 0.243943
