B_R_ACONTa 	 0.76
F_R_ACONTb 	 1.24
F_R_ATPS4r 	 2.11762
F_R_ENO 	 4.8205
B_R_FBA 	 0.8505
R_FRD7 	 2.8235
B_R_FUM 	 3.7035
B_R_GAPD 	 0.8505
R_GLCpts 	 5.59975
F_R_GLUDy 	 0.508
R_GLUN 	 1.492
B_R_ICDHyr 	 1.1915
R_ICL 	 4.4315
R_MALS 	 4.4315
R_NADH16 	 2.8235
R_PDH 	 3.1915
R_PFK 	 2.94988
F_R_PGI 	 3.46975
B_R_PGK 	 0.8205
R_PGL 	 0.183
B_R_PGM 	 2.8205
B_R_PTAr 	 1.24
R_PYK 	 0.28075
