B_R_ACONTa 	 0.86
F_R_ACONTb 	 1.14
F_R_ATPS4r 	 2.13304
F_R_ENO 	 4.52629
B_R_FBA 	 0.762711
R_FRD7 	 2.84405
B_R_FUM 	 3.72405
B_R_GAPD 	 0.762711
R_GLCpts 	 5.58629
F_R_GLUDy 	 0.508
R_GLUN 	 1.492
B_R_ICDHyr 	 1.27095
R_ICL 	 4.41095
R_MALS 	 4.41095
B_R_MDH 	 0.271434
R_ME2 	 0.230329
R_NADH16 	 2.84405
R_PDH 	 3.04062
R_PFK 	 2.90929
F_R_PGI 	 3.45629
B_R_PGK 	 1.04525
R_PGL 	 0.183
B_R_PGM 	 2.52629
B_R_PTAr 	 1.37033
