B_R_ACONTa 	 0.76
F_R_ACONTb 	 1.24
F_R_ATPS4r 	 2.18619
F_R_ENO 	 4.48681
B_R_FBA 	 0.946192
R_FRD7 	 2.91492
B_R_FUM 	 3.79492
B_R_GAPD 	 0.946192
R_GLCpts 	 5.54681
F_R_GLUDy 	 0.508
R_GLUN 	 1.492
B_R_ICDHyr 	 1.10008
R_ICL 	 4.34008
F_R_LDH_D 	 0.329269
R_MALS 	 4.34008
B_R_MDH 	 0.182846
R_NADH16 	 2.91492
R_PDH 	 3.10008
R_PFK 	 2.86981
F_R_PGI 	 3.41681
B_R_PGK 	 0.952615
R_PGL 	 0.183
B_R_PGM 	 2.48681
B_R_PTAr 	 1.24
