B_R_ACONTa 	 0.86
F_R_ACONTb 	 1.14
F_R_ATPS4r 	 2.17813
F_R_ENO 	 4.62552
B_R_FBA 	 0.963043
R_FRD7 	 2.90417
B_R_FUM 	 3.78417
F_R_G6PDH2r 	 0.237
B_R_GAPD 	 0.959478
R_GLCpts 	 5.68552
F_R_GLUDy 	 2
R_GLUSy 	 1.492
B_R_ICDHyr 	 1.21083
R_ICL 	 4.35083
R_MALS 	 4.35083
R_ME2 	 0.0786522
R_NADH16 	 2.90417
R_PDH 	 3.13217
R_PFK 	 2.70896
F_R_PGI 	 3.31852
B_R_PGK 	 0.799826
R_PGL 	 0.237
B_R_PGM 	 2.62552
B_R_PTAr 	 1.21865
