B_R_ACONTa 	 0.778857
F_R_ACONTb 	 1.22114
B_R_ADK1 	 0.151429
F_R_ATPS4r 	 2.34914
R_CYTBD 	 0.185214
F_R_ENO 	 4
B_R_FBA 	 1.289
R_FRD7 	 2.8235
B_R_FUM 	 3.7035
B_R_GAPD 	 1.128
R_GLCpts 	 5.06
F_R_GLUDy 	 2
R_GLUSy 	 1.492
B_R_ICDHyr 	 1.21036
R_ICL 	 4.4315
F_R_LDH_D 	 0.926357
R_MALS 	 4.4315
R_NADH16 	 3.00871
R_PDH 	 3.21036
R_PFK 	 2.383
F_R_PGI 	 2.93
R_PGL 	 0.237
B_R_PGM 	 2
B_R_PTAr 	 1.22114
