B_R_ACONTa 	 0.86
F_R_ACONTb 	 1.14
F_R_ATPS4r 	 2.15814
F_R_ENO 	 4.65639
B_R_FBA 	 0.869605
R_FRD7 	 2.87753
B_R_FUM 	 3.75753
F_R_G6PDH2r 	 0.237
B_R_GAPD 	 0.869605
R_GLCpts 	 5.71639
F_R_GLUDy 	 0.53821
R_GLUN 	 1.46179
B_R_ICDHyr 	 1.23747
R_ICL 	 4.37747
R_MALS 	 4.37747
B_R_MDH 	 0.256592
R_ME2 	 0.148539
R_NADH16 	 2.87753
R_PDH 	 3.08893
R_PFK 	 2.80239
F_R_PGI 	 3.34939
B_R_PGK 	 0.91325
R_PGL 	 0.237
B_R_PGM 	 2.65639
B_R_PTAr 	 1.28854
