B_R_ACONTa 	 3.32
B_R_ADK1 	 4.81791
F_R_ATPS4r 	 27.3487
R_BIOMASS_Ecoli_core_w_GAM 	 0.361189
R_CYTBD 	 58.5071
B_R_ENO 	 7.82533
B_R_FBA 	 3.55401
R_FBP 	 3.46101
F_R_FUM 	 39.6468
B_R_GAPD 	 7.28499
F_R_GLUDy 	 3.72361
R_GLUN 	 1.27639
R_GND 	 0.228
B_R_ICDHyr 	 5
F_R_MDH 	 9.8136
R_ME2 	 1.94417
F_R_PGI 	 0.430956
F_R_PGK 	 7.28499
F_R_PGM 	 7.82533
R_PPCK 	 7.82783
R_SUCDi 	 63.5071
B_R_TALA 	 1.92148
R_THD2 	 3.80974
B_R_TKT2 	 2.05187
B_R_TPI 	 3.55401
