B_R_ACONTa 	 3.32
F_R_ATPS4r 	 28.6441
R_BIOMASS_Ecoli_core_w_GAM 	 0.507748
R_CYTBD 	 57.2882
B_R_ENO 	 0.759591
F_R_FUM 	 38.5682
F_R_GLUDy 	 3.36151
R_GLUN 	 1.63849
R_GND 	 0.228
B_R_ICDHyr 	 5
B_R_LDH_D 	 4.83189
F_R_MDH 	 3.03091
R_ME2 	 7.64829
R_PFK 	 0.0846153
R_PFL 	 1.7426
F_R_PGI 	 0.230912
F_R_PGM 	 0.759591
R_PPCK 	 2.12371
R_PPS 	 2.91609
R_PYK 	 4.20164
R_SUCDi 	 62.2882
B_R_TKT2 	 0.183297
