B_R_ACONTa 	 3.32
F_R_ACONTb 	 1.68
B_R_ADK1 	 2.48275
F_R_ATPS4r 	 29.7585
R_BIOMASS_Ecoli_core_w_GAM 	 0.559389
R_CYTBD 	 59.5171
B_R_ENO 	 0.892604
B_R_FBA 	 0.051
F_R_FUM 	 39.926
F_R_GLUDy 	 5
R_GLUSy 	 1.76608
R_GND 	 0.228
B_R_ICDHyr 	 5.53759
R_ICL 	 2.21759
B_R_LDH_D 	 4.7095
F_R_MDH 	 2.72534
R_ME2 	 9.31161
R_PFL 	 2.09648
F_R_PGI 	 0.1686
F_R_PGM 	 0.836846
R_PPCK 	 0.997983
R_SUCDi 	 64.5171
B_R_TKT2 	 0.201939
