B_R_ACONTa 	 3.32
F_R_ACONTb 	 0.466584
F_R_ATPS4r 	 28.6889
R_BIOMASS_Ecoli_core_w_GAM 	 0.517306
R_CYTBD 	 57.3777
F_R_FUM 	 38.6577
F_R_GLUDy 	 3.33789
R_GLUN 	 1.66211
R_GND 	 0.228
B_R_ICDHyr 	 4.53342
B_R_LDH_D 	 4.8967
F_R_MDH 	 1.46333
R_ME1 	 1.59849
R_ME2 	 7.70693
R_PFK 	 0.078528
R_PFL 	 1.93876
F_R_PGI 	 0.228952
R_PPS 	 2.68224
R_PYK 	 2.59871
R_SUCDi 	 62.3777
B_R_TKT2 	 0.186747
