B_R_ACONTa 	 3.32
B_R_ADK1 	 1.27199
F_R_ATPS4r 	 25.0971
R_BIOMASS_Ecoli_core_w_GAM 	 0.457651
R_CYTBD 	 57.4432
B_R_ENO 	 0.786818
B_R_FBA 	 0.051
F_R_FUM 	 38.5147
F_R_GLUDy 	 3.48528
R_GLUN 	 1.51472
R_GND 	 0.228
B_R_ICDHyr 	 5
B_R_LDH_D 	 5
R_ME1 	 10.6257
R_PFL 	 1.71518
F_R_PGI 	 0.411182
F_R_PGM 	 0.786818
R_PPC 	 0.853657
R_PPS 	 1.69304
R_SUCDi 	 62.4432
B_R_TALA 	 0.160261
R_THD2 	 7.24894
B_R_TKT2 	 0.325473
