B_R_ACONTa 	 3.32
F_R_ATPS4r 	 25.1311
R_BIOMASS_Ecoli_core_w_GAM 	 0.450528
R_CYTBD 	 57.3727
B_R_ENO 	 0.772901
F_R_FUM 	 38.466
F_R_GLUDy 	 3.50288
R_GLUN 	 1.49712
R_GND 	 0.228
B_R_ICDHyr 	 5
B_R_LDH_D 	 5
F_R_MDH 	 10.577
R_PFK 	 0.093
R_PFL 	 1.75297
F_R_PGI 	 0.214583
R_PPCK 	 9.772
R_PPS 	 2.99879
R_PYK 	 11.949
R_SUCDi 	 62.3727
R_THD2 	 7.1105
B_R_TKT2 	 0.162641
