B_R_ACONTa 	 3.32
F_R_ATPS4r 	 28.6402
R_BIOMASS_Ecoli_core_w_GAM 	 0.494583
R_CYTBD 	 57.2804
B_R_ENO 	 0.666471
F_R_FUM 	 38.5447
F_R_GLUDy 	 3.39403
R_GLUN 	 1.60597
R_GND 	 0.228
B_R_ICDHyr 	 5
B_R_LDH_D 	 4.85814
R_ME1 	 3.10385
R_ME2 	 7.55182
R_PFK 	 0.093
R_PFL 	 1.8536
F_R_PGI 	 0.23361
F_R_PGM 	 0.666471
R_PPC 	 0.883672
R_PPS 	 2.92472
R_PYK 	 1.30283
R_SUCDi 	 62.2804
B_R_TKT2 	 0.178545
