B_R_ACONTa 	 3.32
F_R_ACONTb 	 0.421165
B_R_ADK1 	 1.139
F_R_ATPS4r 	 28.7225
R_BIOMASS_Ecoli_core_w_GAM 	 0.512455
R_CYTBD 	 57.445
F_R_FUM 	 38.725
F_R_GLUDy 	 5
R_GLUSy 	 1.65012
R_GND 	 0.228
B_R_ICDHyr 	 4.57884
B_R_LDH_D 	 4.97656
R_ME1 	 3.15888
R_ME2 	 7.67717
R_PFK 	 0.0816176
R_PFL 	 1.92058
F_R_PGI 	 0.229947
R_PPC 	 1.48521
R_PPS 	 1.56623
R_SUCDi 	 62.445
B_R_TKT2 	 0.184996
