B_R_ACONTa 	 3.32
B_R_ADK1 	 2.94098
F_R_ATPS4r 	 24.8727
R_BIOMASS_Ecoli_core_w_GAM 	 0.494583
R_CYTBD 	 57.3129
B_R_ENO 	 0.739896
F_R_FUM 	 38.5929
F_R_GLUDy 	 5
R_GLUSy 	 1.60597
R_GND 	 0.228
B_R_ICDHyr 	 5.04822
B_R_LDH_D 	 4.89067
F_R_MDH 	 1.69531
R_ME1 	 9.00859
R_PFK 	 0.093
R_PFL 	 1.79587
F_R_PGI 	 0.23361
F_R_PGM 	 0.739896
R_PPCK 	 0.811634
R_SUCDi 	 62.3129
R_THD2 	 7.56751
B_R_TKT2 	 0.178545
