-75.6759
-75.5254
-75.5254
-75.4782
-75.4782
-75.473
-75.473
-75.473
-75.6577
-75.461
-75.4751
-75.6542
-75.5
-75.461
-75.461
-75.4602
-75.4602
-75.461
-75.4602
-75.515
-75.4602
-75.5
-75.4602
-75.4602
-75.515
-75.4596
-75.4596
-75.6618
-75.498
-75.4593
-75.6618
-75.5462
-75.4593
-75.4762
-75.5866
-75.4593
-75.4593
-75.4711
-75.6618
-75.4864
-75.4684
-75.4611
-75.4589
-75.4589
-75.5
-75.5179
-75.4269
-75.4762
-75.4269
-75.4413
-75.4116
-75.5462
-75.4174
-75.6577
-75.7909
-75.3906
-75.3839
-75.3839
-75.3839
-75.3839
-75.2968
-75.3019
-75.2968
-75.3016
-75.2968
-75.3578
-75.5781
-75.3161
-75.2909
-75.3578
-75.3019
-75.2909
-75.2909
-75.2795
-75.2795
-75.2812
-75.2775
-75.2649
-75.2649
-75.2812
-75.2649
-75.2649
-75.6301
-75.2649
-75.5019
-75.5179
-75.3709
-75.2649
-75.2621
-75.5119
-75.2621
-75.6759
-75.2604
-75.2604
-75.5781
-75.2604
-75.2604
-75.4068
-75.2812
-75.2576
