M_glc__D_e	-0.25734
M_gln__L_c	-1.492
M_gln__L_e	0
M_glu__L_c	1.2
M_glu__L_e	0
M_glx_c	0
M_h2o_c	1.2
M_h2o_e	0
M_h_c	1.2
M_h_e	0
M_icit_c	-1.2
M_lac__D_c	-1.2
M_lac__D_e	0
M_mal__L_c	0.488
M_mal__L_e	0
M_nad_c	1.2
M_13dpg_c	-0.67028
M_nadh_c	-1.2
M_nadp_c	1.2
M_nadph_c	-1.2
M_nh4_c	1.2
M_nh4_e	0
M_2pg_c	-1.2
M_o2_c	-0.654147
M_3pg_c	-1.2
M_o2_e	0
M_oaa_c	-1.14146
M_6pgc_c	0.183
M_pep_c	-1.06
M_6pgl_c	-1.2
M_pi_c	0.137452
M_ac_c	-0.748115
M_pi_e	0
M_pyr_c	2.776
M_pyr_e	0
M_q8_c	0
M_ac_e	0
M_q8h2_c	0
M_acald_c	-1.2
M_r5p_c	-1.2
M_acald_e	0
M_ru5p__D_c	-1.2
M_accoa_c	0.971197
M_s7p_c	-1.2
M_succ_c	7.255
M_acon_C_c	-1.2
M_succ_e	0
M_actp_c	0.748115
M_succoa_c	-1.2
M_adp_c	-0.269
M_xu5p__D_c	-1.2
M_akg_c	-1.2
M_akg_e	0
M_amp_c	-0.931
M_atp_c	1.2
M_cit_c	0.76
M_co2_c	1.2
M_co2_e	0
M_coa_c	0.228803
M_dhap_c	-1.2
M_e4p_c	0
M_etoh_c	0
M_etoh_e	0
M_f6p_c	0.473
M_fdp_c	3.672
M_for_c	0.17259
M_for_e	0
M_fru_e	0
M_fum_c	0.88
M_fum_e	0
M_g3p_c	-1.2
M_g6p_c	1.79
M_biomass_c	0.535505
