F_R_ACALD 	 1.2
F_R_ACKr 	 1.2
F_R_ACONTb 	 1.2
F_R_ADK1 	 0.931
R_AKGDH 	 2.37611
F_R_ATPS4r 	 4.77973
R_BIOMASS_Ecoli_core_w_GAM 	 0.107101
R_CS 	 0.76
R_CYTBD 	 2.45666
F_R_ENO 	 4.02694
B_R_FBA 	 1.2
R_FRD7 	 2.27855
B_R_FUM 	 3.15855
B_R_G6PDH2r 	 0.539749
F_R_GAPD 	 0.72836
R_GLCpts 	 0.301784
B_R_GLUDy 	 0.264614
R_GLUN 	 1.46461
F_R_ICDHyr 	 0.999663
R_ICL 	 1.40034
F_R_LDH_D 	 1.2
R_MALS 	 0.809312
B_R_MDH 	 2.83724
R_NADH16 	 4.73521
R_PDH 	 0.488086
R_PFK 	 2.472
B_R_PGI 	 0.970423
B_R_PGK 	 1.78716
R_PGL 	 0.183
B_R_PGM 	 2.82694
R_PPC 	 2.66386
B_R_PTAr 	 1.2
R_PYK 	 2.0657
F_R_RPE 	 1.52302
F_R_RPI 	 0.323016
B_R_SUCOAS 	 3.57611
F_R_TALA 	 1.98084
F_R_TKT1 	 0.78084
F_R_TKT2 	 1.94218
