F_R_ACALD 	 1.2
F_R_ACKr 	 0.884875
B_R_ACONTa 	 0.298279
F_R_ACONTb 	 0.901721
F_R_ADK1 	 0.931
R_AKGDH 	 2.85336
F_R_ATPS4r 	 4.3708
R_BIOMASS_Ecoli_core_w_GAM 	 0.107101
R_CS 	 0.461721
R_CYTBD 	 2.28469
F_R_ENO 	 4.00527
B_R_FBA 	 1.02453
R_FRD7 	 2.57683
B_R_FUM 	 3.45683
B_R_G6PDH2r 	 1.017
F_R_GAPD 	 1.07929
F_R_GLUDy 	 1.2
R_GLUSy 	 1.46461
F_R_ICDHyr 	 1.47691
R_ICL 	 0.624807
F_R_LDH_D 	 1.2
R_MALS 	 0.336886
B_R_MDH 	 3.60794
R_NADH16 	 4.3046
R_PFK 	 2.64747
B_R_PGI 	 0.794956
B_R_PGK 	 1.76549
R_PGL 	 0.183
B_R_PGM 	 2.80527
R_PPC 	 3.13028
R_PYK 	 1.8794
F_R_RPE 	 1.52302
F_R_RPI 	 0.323016
B_R_SUCOAS 	 4.05336
F_R_TALA 	 1.98084
F_R_TKT1 	 0.78084
F_R_TKT2 	 1.94218
F_R_TPI 	 0.175467
