F_R_ACALD 	 1.2
F_R_ACKr 	 1.12918
B_R_ACONTa 	 0.24704
F_R_ACONTb 	 0.95296
F_R_ADK1 	 0.931
R_AKGDH 	 2.3054
F_R_ATPS4r 	 4.56783
R_BIOMASS_Ecoli_core_w_GAM 	 0.107101
R_CS 	 0.51296
R_CYTBD 	 2.13891
F_R_ENO 	 4.16814
B_R_FBA 	 1.2
R_FRD7 	 2.52559
B_R_FUM 	 3.40559
B_R_G6PDH2r 	 0.469039
F_R_GAPD 	 0.72836
R_GLCpts 	 0.372495
F_R_GLUDy 	 1.2
R_GLUSy 	 1.46461
F_R_ICDHyr 	 0.928953
R_ICL 	 1.22401
F_R_LDH_D 	 1.2
R_MALS 	 0.915043
B_R_MDH 	 2.97855
R_NADH16 	 4.6645
R_PDH 	 0.629396
R_PFK 	 2.472
B_R_PGI 	 0.970423
B_R_PGK 	 1.92836
R_PGL 	 0.183
B_R_PGM 	 2.96814
R_PPC 	 2.66375
R_PYK 	 2.1363
F_R_RPE 	 1.52302
F_R_RPI 	 0.323016
B_R_SUCOAS 	 3.5054
F_R_TALA 	 1.98084
F_R_TKT1 	 0.78084
F_R_TKT2 	 1.94218
