F_R_ACALD 	 1.2
F_R_ACKr 	 1.2
F_R_ACONTb 	 1.2
F_R_ADK1 	 1.197
R_AKGDH 	 2.79316
F_R_ATPS4r 	 4.95707
R_BIOMASS_Ecoli_core_w_GAM 	 0.107101
R_CS 	 0.76
R_CYTBD 	 2.75844
F_R_ENO 	 3.88486
B_R_FBA 	 1.2
R_FRD7 	 2.27855
B_R_FUM 	 3.15855
B_R_G6PDH2r 	 0.841533
F_R_GAPD 	 0.72836
R_GLUN 	 1.2
R_GLUSy 	 0.264614
F_R_ICDHyr 	 1.41671
R_ICL 	 0.983289
F_R_LDH_D 	 1.2
R_MALS 	 0.800343
B_R_MDH 	 2.84621
R_NADH16 	 4.77046
R_NADTRHD 	 0.115263
R_PFK 	 2.472
B_R_PGI 	 0.970423
B_R_PGK 	 1.64508
R_PGL 	 0.183
B_R_PGM 	 2.68486
R_PPC 	 3.00987
B_R_PTAr 	 0.761736
R_PYK 	 1.8794
F_R_RPE 	 1.52302
F_R_RPI 	 0.323016
B_R_SUCOAS 	 3.99316
F_R_TALA 	 1.98084
F_R_TKT1 	 0.78084
F_R_TKT2 	 1.94218
