F_R_ACALD 	 1.2
F_R_ACKr 	 0.932089
B_R_ACONTa 	 0.210863
F_R_ACONTb 	 0.989137
F_R_ADK1 	 0.931
R_AKGDH 	 2.98718
F_R_ATPS4r 	 4.49547
R_BIOMASS_Ecoli_core_w_GAM 	 0.107101
R_CS 	 0.549137
R_CYTBD 	 2.10273
F_R_ENO 	 4.16814
B_R_FBA 	 1.2
R_FRD7 	 2.48941
B_R_FUM 	 3.36941
B_R_G6PDH2r 	 0.396685
F_R_GAPD 	 0.72836
R_GLCpts 	 0.444848
F_R_GLUDy 	 1.2
R_GLUSy 	 1.46461
F_R_ICDHyr 	 1.61073
R_ICL 	 0.578408
F_R_LDH_D 	 1.2
B_R_MDH 	 3.85741
R_NADH16 	 4.59214
R_NADTRHD 	 0.754131
R_PFK 	 2.472
B_R_PGI 	 0.970423
B_R_PGK 	 1.92836
R_PGL 	 0.183
B_R_PGM 	 2.96814
R_PPC 	 3.39791
R_PYK 	 1.32978
F_R_RPE 	 1.52302
F_R_RPI 	 0.323016
B_R_SUCOAS 	 4.18718
F_R_TALA 	 1.98084
F_R_TKT1 	 0.78084
F_R_TKT2 	 1.94218
