F_R_ACALD 	 1.2
F_R_ACKr 	 0.862013
B_R_ACONTa 	 0.76
F_R_ACONTb 	 0.44
F_R_ADK1 	 0.931
R_AKGDH 	 2.85336
F_R_ATPS4r 	 3.86752
R_BIOMASS_Ecoli_core_w_GAM 	 0.107101
R_CYTBD 	 1.27088
F_R_ENO 	 4.51338
B_R_FBA 	 0.756628
R_FRD7 	 3.03855
B_R_FUM 	 3.91855
B_R_G6PDH2r 	 1.017
F_R_GAPD 	 1.6151
R_GLCpts 	 0.267905
B_R_GLUDy 	 0.264614
R_GLUN 	 1.46461
F_R_ICDHyr 	 1.47691
R_ICL 	 0.163086
F_R_LDH_D 	 1.2
R_MALS 	 0.267631
B_R_MDH 	 4.13892
R_NADH16 	 4.30943
R_PFK 	 2.91537
R_PFL 	 0.508114
B_R_PGI 	 0.527051
B_R_PGK 	 2.27361
R_PGL 	 0.183
B_R_PGM 	 3.31338
R_PPC 	 3.13028
R_PYK 	 2.1196
F_R_RPE 	 1.52302
F_R_RPI 	 0.323016
B_R_SUCOAS 	 4.05336
F_R_TALA 	 1.98084
F_R_TKT1 	 0.78084
F_R_TKT2 	 1.94218
F_R_TPI 	 0.443372
