B_R_ACONTa 	 0.76
F_R_ACONTb 	 0.74
R_ATPM 	 1.64475
F_R_ATPS4r 	 2.25675
F_R_ENO 	 3.984
B_R_FBA 	 1.5
R_FRD7 	 3.009
B_R_FUM 	 3.889
F_R_G6PDH2r 	 0.195
R_GLCpts 	 5.044
R_GLUN 	 1.492
B_R_ICDHyr 	 1.508
R_ICL 	 3.748
R_MALS 	 3.748
B_R_MDH 	 1.239
R_ME1 	 0.37
R_NADH16 	 3.009
R_PDH 	 2.638
R_PFK 	 2.172
F_R_PGI 	 2.719
B_R_PGK 	 1.331
R_PGL 	 0.237
B_R_PGM 	 2.484
B_R_PTAr 	 1.11
B_R_SUCOAS 	 0.498
