F_R_ACKr 	 0.789447
B_R_ACONTa 	 0.251404
F_R_ACONTb 	 1.2486
F_R_ATPS4r 	 2.12687
R_CS 	 0.508596
F_R_ENO 	 3.65949
B_R_FBA 	 1.5
R_FRD7 	 2.83583
B_R_FUM 	 3.71583
R_GLCpts 	 4.71949
R_GLUN 	 1.492
B_R_ICDHyr 	 1.508
R_ICL 	 4.2566
R_MALS 	 4.2566
B_R_MDH 	 0.719489
R_ME2 	 0.532255
R_NADH16 	 2.83583
R_PDH 	 2.47574
R_PFK 	 2.172
F_R_PGI 	 2.719
B_R_PGK 	 0.941
R_PGL 	 0.237
B_R_PGM 	 2.441
B_R_PTAr 	 2.28945
B_R_SUCOAS 	 0.162574
