B_R_ACONTa 	 0.76
F_R_ACONTb 	 0.74
F_R_ATPS4r 	 1.605
F_R_ENO 	 3.3815
B_R_FBA 	 1.2475
R_FRD7 	 2.14
B_R_FUM 	 3.02
B_R_GAPD 	 1.1185
R_GLCpts 	 5.1015
R_GLUN 	 1.492
B_R_ICDHyr 	 1.508
R_ICL 	 3.748
R_MALS 	 3.748
R_NADH16 	 2.14
R_PDH 	 2.3255
R_PFK 	 2.4245
F_R_PGI 	 2.9715
B_R_PGK 	 0.3815
R_PGL 	 0.183
B_R_PGM 	 1.8815
R_PPCK 	 0.66
B_R_PTAr 	 1.5
B_R_SUCOAS 	 1.367
