F_R_ACKr 	 1.0645
B_R_ACONTa 	 0.389018
F_R_ACONTb 	 1.11098
F_R_ATPS4r 	 2.06288
R_CS 	 0.370982
F_R_ENO 	 3.45292
B_R_FBA 	 2.02354
R_FRD7 	 2.75051
B_R_FUM 	 3.63051
F_R_G6PDH2r 	 0.187459
B_R_GAPD 	 1.04708
R_GLCpts 	 4.51292
F_R_GLUDy 	 1.5
R_GLUSy 	 1.492
B_R_ICDHyr 	 1.42735
R_ICL 	 4.03833
F_R_LDH_D 	 1.19043
R_MALS 	 4.03833
B_R_MDH 	 0.320182
R_NADH16 	 2.75051
R_PDH 	 2.92735
R_PFK 	 1.64846
F_R_PGI 	 2.19546
B_R_PGK 	 0.452918
R_PGL 	 0.237
B_R_PGM 	 1.95292
B_R_PTAr 	 1.48196
B_R_SUCOAS 	 0.466164
B_R_TPI 	 0.523541
