F_R_ACKr 	 1.29171
B_R_ACONTa 	 0.249857
F_R_ACONTb 	 1.25014
R_AKGDH 	 0.472429
F_R_ATPS4r 	 1.902
R_CS 	 0.510143
F_R_ENO 	 3.77914
B_R_FBA 	 1.5
R_FRD7 	 2.41771
B_R_FUM 	 3.29771
B_R_GAPD 	 0.720857
R_GLCpts 	 4.83914
F_R_GLUDy 	 1.5
R_GLUSy 	 1.492
B_R_ICDHyr 	 1.03557
R_ICL 	 3.78571
R_MALS 	 3.78571
R_NADH16 	 2.536
R_PDH 	 2.06314
R_PFK 	 2.172
F_R_PGI 	 2.719
B_R_PGK 	 0.779143
R_PGL 	 0.183
B_R_PGM 	 2.27914
B_R_PTAr 	 2.23271
B_R_SUCOAS 	 1.05157
