B_R_ACONTa 	 0.76
F_R_ACONTb 	 0.74
R_AKGDH 	 0.378667
F_R_ATPS4r 	 1.96792
F_R_ENO 	 3.96667
B_R_FBA 	 1.32233
R_FRD7 	 2.62389
B_R_FUM 	 3.50389
B_R_GAPD 	 0.533333
R_GLCpts 	 5.02667
R_GLNS 	 1.57769
R_GLUN 	 3.06969
B_R_ICDHyr 	 1.12933
R_ICL 	 3.36933
R_MALS 	 3.36933
B_R_MDH 	 0.862556
R_NADH16 	 2.62389
R_PDH 	 2.25067
R_PFK 	 2.34967
F_R_PGI 	 2.89667
B_R_PGK 	 0.966667
R_PGL 	 0.183
B_R_PGM 	 2.46667
B_R_PTAr 	 1.11867
B_R_SUCOAS 	 1.26178
