F_R_ACKr 	 0.2175
B_R_ACONTa 	 0.534
F_R_ACONTb 	 0.966
F_R_ATPS4r 	 1.9545
R_CS 	 0.226
F_R_ENO 	 3.4425
B_R_FBA 	 1.4665
R_FRD7 	 2.606
B_R_FUM 	 3.486
B_R_GAPD 	 1.0575
R_GLCpts 	 4.8825
R_GLUN 	 1.492
B_R_ICDHyr 	 1.508
R_ICL 	 3.974
F_R_LDH_D 	 0.5215
R_MALS 	 3.974
R_NADH16 	 2.606
R_PDH 	 2.628
R_PFK 	 2.2055
F_R_PGI 	 2.7525
B_R_PGK 	 0.4425
R_PGL 	 0.183
B_R_PGM 	 1.9425
R_PPCK 	 0.38
B_R_PTAr 	 1.572
B_R_SUCOAS 	 0.675
