M_glc__D_e	-4.94466
M_gln__L_c	-1.492
M_gln__L_e	0
M_glu__L_c	1.488
M_glu__L_e	0
M_glx_c	0
M_h2o_c	1.5
M_h2o_e	0
M_h_c	1.5
M_h_e	0
M_icit_c	-1.5
M_lac__D_c	0
M_lac__D_e	0
M_mal__L_c	0.728
M_mal__L_e	0
M_nad_c	0.549543
M_13dpg_c	-1.5
M_nadh_c	-0.549543
M_nadp_c	1.5
M_nadph_c	-1.5
M_nh4_c	1.496
M_nh4_e	0
M_2pg_c	-1.5
M_o2_c	-0
M_3pg_c	-1.5
M_o2_e	0
M_oaa_c	-0.794886
M_6pgc_c	0.183
M_pep_c	-1.06
M_6pgl_c	-0.183
M_pi_c	0
M_ac_c	-0.860799
M_pi_e	0
M_pyr_c	2.776
M_pyr_e	0
M_q8_c	0
M_ac_e	0
M_q8h2_c	0
M_acald_c	0
M_r5p_c	0
M_acald_e	0
M_ru5p__D_c	0
M_accoa_c	-4.44089e-16
M_s7p_c	0
M_succ_c	7.255
M_acon_C_c	-1.5
M_succ_e	0
M_actp_c	-1.03666
M_succoa_c	-0.627886
M_adp_c	-0.269
M_xu5p__D_c	0
M_akg_c	-1.5
M_akg_e	0
M_amp_c	0
M_atp_c	0.269
M_cit_c	0.76
M_co2_c	1.5
M_co2_e	0
M_coa_c	0.627886
M_dhap_c	-1.40434
M_e4p_c	0
M_etoh_c	0
M_etoh_e	0
M_f6p_c	0.547
M_fdp_c	3.672
M_for_c	0
M_for_e	0
M_fru_e	0
M_fum_c	0.88
M_fum_e	0
M_g3p_c	-0.789
M_g6p_c	2.13
M_biomass_c	0
