Reactions	ColorReaction
R_ACKr	10
R_ACONTb	10
R_AKGDH	10
R_ATPS4r	10
R_CS	10
R_ENO	10
R_FBA	-10
R_FRD7	10
R_FUM	-10
R_GAPD	-10
R_GLCpts	10
R_GLUN	10
R_ICDHyr	-10
R_ICL	10
R_MALS	10
R_MDH	-10
R_NADH16	10
R_PDH	10
R_PFK	10
R_PGI	10
R_PGK	-10
R_PGL	10
R_PGM	-10
R_PTAr	-10
R_SUCOAS	-10
