B_R_ACONTa 	 0.86
R_AKGDH 	 5
F_R_ENO 	 5
R_FBP 	 3.453
B_R_FUM 	 0.988
R_GLCpts 	 6.06
R_GLUN 	 1.492
B_R_LDH_D 	 3.284
B_R_MDH 	 1.716
R_PFK 	 7.125
F_R_PGI 	 4.145
R_PGL 	 0.183
B_R_SUCOAS 	 7.255
