M_glc__D_e	-5.935	-2.677	-2.677	-6.06	-2.677	-2.776	-6.06	-2.677	-5.935	-2.776	-2.677	-6.06	-2.677	-2.677	-2.677	-2.677	-2.677	-2.677	-2.677	-5.935	-2.677	-2.677	-2.776	-2.677	-2.677	-2.677	-6.06	-5.935	-2.776	-2.776	-2.776	-2.776	-2.677	-2.677	-4.929	-6.06	-2.677	-2.677	-2.776	-2.677	-2.776	-5.935	-2.776	-2.677	-2.677	-2.677	-2.776	-5.935	-2.776	-2.677	-2.677	-2.677	-2.677	-2.677	-2.69815	-2.677	-2.677	-2.677	-2.677	-5.935	-2.677	-2.677	-2.677	-2.677	-2.677	-2.68085	-2.677	-2.677	-2.677	-2.776	-2.677	-2.68756	-2.677	-2.677	-2.776	-2.677	-2.677	-2.677	-2.677	-2.677	-2.677	-2.776	-2.776	-2.776	-2.776	-2.677	-6.06	-6.06	-6.06	-2.677	-2.776	-2.776	-2.677	-2.776	-2.776	-2.677	-2.776	-2.677	-2.677	-2.776	
M_gln__L_c	-2.036	-1.492	-1.492	-2.036	-1.492	-1.492	-1.492	-1.492	-2.036	-1.492	-1.492	-2.036	-1.492	-1.492	-1.492	-1.492	-1.492	-1.492	-1.492	-1.492	-1.492	-1.492	-1.492	-1.492	-1.492	-1.492	-2.036	-2.036	-1.492	-1.492	-1.492	-1.492	-1.492	-1.492	-2.036	-2.036	-1.492	-1.492	-1.492	-1.492	-1.492	-2.036	-1.492	-1.492	-1.492	-1.492	-1.492	-2.036	-1.492	-1.492	-1.492	-1.492	-1.492	-1.492	-1.492	-1.492	-1.492	-1.492	-1.492	-2.036	-1.492	-1.492	-1.492	-1.492	-1.492	-1.492	-1.492	-1.492	-1.492	-1.492	-1.492	-1.492	-1.492	-1.492	-1.492	-1.492	-1.492	-1.492	-1.492	-1.492	-1.492	-1.492	-1.492	-1.492	-1.492	-1.492	-1.492	-1.631	-1.492	-1.492	-1.492	-1.492	-1.492	-1.499	-1.492	-1.492	-1.492	-1.492	-1.492	-1.492	
M_gln__L_e	0	0	0	0	0	0	0	0	0	0	0	0	0	0	0	0	0	0	0	0	0	0	0	0	0	0	0	0	0	0	0	0	0	0	0	0	0	0	0	0	0	0	0	0	0	0	0	0	0	0	0	0	0	0	0	0	0	0	0	0	0	0	0	0	0	0	0	0	0	0	0	0	0	0	0	0	0	0	0	0	0	0	0	0	0	0	0	0	0	0	0	0	0	0	0	0	0	0	0	0	
M_glu__L_c	2.036	1.492	1.492	2.036	1.492	1.492	2.984	1.492	2.036	1.492	1.492	2.036	2.984	2.984	1.492	1.492	1.492	1.492	1.492	2.984	2.984	1.492	1.492	2.984	2.984	2.984	2.036	2.036	1.492	1.492	1.492	1.492	1.492	1.492	2.036	2.036	1.492	1.492	1.492	1.492	1.492	2.036	1.492	1.492	1.492	1.492	1.492	2.036	2.984	2.984	1.492	1.492	1.492	1.492	1.31943	1.492	1.492	2.984	2.984	2.036	1.492	1.492	1.492	2.984	2.984	1.48547	1.492	1.492	1.492	2.984	1.492	1.43684	2.984	2.984	1.492	2.984	1.492	2.984	1.492	1.492	1.492	1.492	2.984	2.984	2.984	1.492	1.492	1.631	1.492	2.984	1.492	1.492	1.492	1.499	1.492	1.492	1.492	1.492	1.492	2.984	
M_glu__L_e	0	0	0	0	0	0	0	0	0	0	0	0	0	0	0	0	0	0	0	0	0	0	0	0	0	0	0	0	0	0	0	0	0	0	0	0	0	0	0	0	0	0	0	0	0	0	0	0	0	0	0	0	0	0	0	0	0	0	0	0	0	0	0	0	0	0	0	0	0	0	0	0	0	0	0	0	0	0	0	0	0	0	0	0	0	0	0	0	0	0	0	0	0	0	0	0	0	0	0	0	
M_glx_c	3.58	5	5	3.732	5	5	1.236	5	3.58	5	5	3.58	5	5	3.632	3.632	1.646	5	3.632	1.703	5	1.377	1.377	5	5	5	3.58	4.46	1.377	1.377	5	5	5	5	2.847	4.948	5	5	5	5	3.632	4.46	1.377	4.001	4.001	5	5	2.255	5	3.632	3.263	3.632	3.632	3.632	3.632	3.632	5	3.546	1.614	4.948	5	4.504	5	1.246	1.345	3.632	3.632	3.632	3.632	5	3.632	5	1.291	1.291	5	5	3.632	1.291	1.646	3.632	3.632	5	5	5	5	1.377	0	0	-1.33149e-12	5	1.377	1.377	5	3.58	2.255	5	3.632	5	5	3.632	
M_h2o_c	3.358	-1.188	-1.188	1.139	-3.292	-3.613	3.175	-3.613	3.358	-3.613	-3.712	2.747	-1.8	-2.121	-3.292	-1.306	-1.306	-3.712	-3.292	3.204	-2.22	-1.207	-1.207	-2.22	-2.22	-2.22	2.747	1.742	-1.207	-1.207	-1.089	-1.089	-3.292	-3.613	0.008	1.379	-3.712	0	-3.613	-3.712	-2.923	1.742	-1.207	-2.923	-3.292	-3.712	-1.609	1.254	-0.653	-1.8	-2.923	-3.292	-3.292	-3.292	-3.24512	-2.923	-2.292	0	1e-09	1.254	-2.244	-2.74	0	0	0	-3.25853	-1.306	-2.923	-1.306	-1.701	-2.923	-2.2411	0	0	-1.555	-2.121	-1.306	0	-1.306	-3.292	-3.292	-1.207	-0.264	-2.121	-2.121	-1.207	0	0	0	-2.22	-1.207	-1.207	-1.654	0	-1.207	-1.98	-3.121	-1.98	-1.98	-1.431	
M_h2o_e	0	0	0	0	0	0	0	0	0	0	0	0	0	0	0	0	0	0	0	0	0	0	0	0	0	0	0	0	0	0	0	0	0	0	0	0	0	0	0	0	0	0	0	0	0	0	0	0	0	0	0	0	0	0	0	0	0	0	0	0	0	0	0	0	0	0	0	0	0	0	0	0	0	0	0	0	0	0	0	0	0	0	0	0	0	0	0	0	0	0	0	0	0	0	0	0	0	0	0	0	
M_h_c	1.565	0.065	0.065	4.637	2.169	2.438	4.761	2.339	2.425	2.438	2.438	2.541	0.677	0.847	3.537	1.551	3.537	2.438	3.537	5	0.946	3.707	3.806	0.946	0.946	0.946	3.401	3.421	3.806	3.806	0.825	0.825	2.929	3.099	4.642	3.909	3.198	-1.131	3.198	3.198	1.821	4.281	3.806	1.551	1.551	3.198	-0.618	2.118	-0.371	2.045	1.92	1.92	1.92	1.92	3.56492	1.551	-0.403	0.145	2.131	4.769	-0.496	0	-0.363	2.4	2.4	1.88808	1.551	1.551	1.551	1.43699	1.551	-0.496189	2.4	2.4	0	1.607	2.311	2.4	4.297	4.297	4.297	2.169	0	1.706	1.706	4.467	2.308	2.169	2.308	1.706	4.566	4.566	-1.041	-0.618	2.064	0	1.551	0	0	0.329	
M_h_e	0	0	0	0	0	0	0	0	0	0	0	0	0	0	0	0	0	0	0	0	0	0	0	0	0	0	0	0	0	0	0	0	0	0	0	0	0	0	0	0	0	0	0	0	0	0	0	0	0	0	0	0	0	0	0	0	0	0	0	0	0	0	0	0	0	0	0	0	0	0	0	0	0	0	0	0	0	0	0	0	0	0	0	0	0	0	0	0	0	0	0	0	0	0	0	0	0	0	0	0	
M_icit_c	-3.58	-5	-5	-4.46	-5	-5	-3.58	-5	-3.58	-5	-5	-3.58	-5	-5	-5	-5	-5	-5	-5	-3.58	-5	-5	-5	-5	-5	-5	-3.58	-4.46	-5	-5	-5	-5	-5	-5	-5	-4.948	-5	-5	-5	-5	-5	-4.46	-5	-5	-5	-5	-5	-3.623	-5	-5	-5	-5	-5	-5	-5	-5	-5	-5	-5	-4.948	-5	-4.504	-5	-5	-5	-5	-5	-5	-5	-5	-5	-5	-5	-5	-5	-5	-5	-5	-5	-5	-5	-5	-5	-5	-5	-5	0	0	0	-5	-5	-5	-5	-3.58	-3.623	-5	-5	-5	-5	-5	
M_lac__D_c	0	0	0	0	0	0	0	0	0	0	0	0	0	0	0	0	5e-09	0	0	0	0	0	0	-1e-09	0	0	0	0	0	0	0	0	0	0	0	0	0	0	0	0	0	0	0	0	0	0	0	3.159	0	0	-1e-09	0	0	0	-0.0279152	0	0	0	0	0	0	0	0	0	0	0	0	-7e-09	0	6.22835e-13	0	0	0	0	0	0	-1.00069e-09	0	0	0	0	0	0	0	0	0	3.284	3.284	3.284	0	0	0	0	3.64775e-12	0	0	0	0	0	0	
M_lac__D_e	0	0	0	0	0	0	0	0	0	0	0	0	0	0	0	0	0	0	0	0	0	0	0	0	0	0	0	0	0	0	0	0	0	0	0	0	0	0	0	0	0	0	0	0	0	0	0	0	0	0	0	0	0	0	0	0	0	0	0	0	0	0	0	0	0	0	0	0	0	0	0	0	0	0	0	0	0	0	0	0	0	0	0	0	0	0	0	0	0	0	0	0	0	0	0	0	0	0	0	0	
M_mal__L_c	0.728	0.488	0.488	0.728	0.488	0.639	0.728	0.639	0.728	0.639	0.639	0.488	0.488	0.639	0.488	0.488	0.488	0.639	0.488	0.728	0.639	0.488	0.488	0.639	0.639	0.639	0.488	0.488	0.488	0.488	0.488	0.488	0.488	0.639	0.728	0.488	0.639	0.488	0.639	0.639	0.488	0.488	0.488	0.488	0.488	0.639001	0.488	0.488	0.488	0.488	0.488	0.488	0.488	0.488	0.488	0.488	0.488	0.574	0.52	0.488	0.488	0.488	0.488	0.619	0.52	0.488	0.488	0.488	0.488	0.488	0.488	0.488	0.574	0.574	0.488	0.639	0.488	0.574	0.488	0.488	0.488	0.488	0.488	0.639	0.642	0.488	0.728	0.728	0.728	0.639	0.488	0.488	0.488	0.488	0.488	0.488	0.488	0.488	0.488	0.488	
M_mal__L_e	0	0	0	0	0	0	0	0	0	0	0	0	0	0	0	0	0	0	0	0	0	0	0	0	0	0	0	0	0	0	0	0	0	0	0	0	0	0	0	0	0	0	0	0	0	0	0	0	0	0	0	0	0	0	0	0	0	0	0	0	0	0	0	0	0	0	0	0	0	0	0	0	0	0	0	0	0	0	0	0	0	0	0	0	0	0	0	0	0	0	0	0	0	0	0	0	0	0	0	0	
M_nad_c	-0.815	2.104	2.104	0	0	0	0	0	-0.815	0	0	1.368	0	0	0	0	7.00067e-09	0	0	0	0	0	0	-5.41135e-13	0	0	1.368	0.488	0	0	2.104	2.104	-4.59344e-13	0	0	0	0	1.368	0	0	1.83353e-12	0.488	0	0	0	0	1.368	3.159	1.368	0	-1.99866e-09	0	0	0	-0.145694	0	1.368	0	1e-09	0	1.368	1.368	1.368	3.99285e-09	0	-0.0214684	9.1771e-13	-8e-09	0	0	-2.69461e-13	1.33035	1.99824e-10	0	1.368	0	2.40252e-09	0	0	0	0	0	1.437	0	0	0	0	0	0	0	0	0	1.368	1.368	0	1.368	0	1.368	1.368	0	
M_13dpg_c	0	0	0	0	0	0	0	0	0	0	-0.003	0	0	0	0	0	0	-0.003	0	0	0	0	0	-1.00134e-09	-0.003	-0.003	0	0	-0.003	0	0	0	0	-5.83533e-13	0	0	0	0	0	-0.003	0	0	-0.003	0	0	-0.003	0	-0.043	0	0	2.29987e-08	0	0	0	0	0	0	0	0	0	0	0	0	5.81409e-12	0	0	1.986	0.369	0	0	0	-0.0158782	-1.40083e-09	-0.003	0	0	-2.60058e-09	-0.003	0	0	0	0	0	0	0	0	0	0	0	0	0	0	0	0	-0.043	0	0	0	0	0	
M_nadh_c	0.815	-2.104	-2.104	0	0	0	0	0	0.815	0	0	-1.368	0	-3.8703e-13	0	0	-7.00067e-09	0	0	0	0	0	0	5.41135e-13	0	0	-1.368	-0.488	0	0	-2.104	-2.104	4.59344e-13	0	0	0	0	-1.368	0	0	-1.83353e-12	-0.488	0	0	0	0	-1.368	-3.159	-1.368	0	1.99866e-09	0	0	0	0.145694	0	-1.368	0	-1e-09	0	-1.368	-1.368	-1.368	-3.99285e-09	0	0.0214684	-9.1771e-13	8e-09	0	0	2.69461e-13	-1.33035	-1.99824e-10	0	-1.368	0	-2.40252e-09	0	0	0	0	0	-1.437	0	0	0	0	0	0	0	0	0	-1.368	-1.368	0	-1.368	0	-1.368	-1.368	0	
M_nadp_c	0	0	0	0	0	0	1.492	0	0	0	0	0	1.492	1.492	0	0	-4.1359e-25	0	0	1.492	1.492	0	0	1.492	1.492	1.492	0	0	0	0	0	-1.00974e-28	0	0	0	0	-1.01875e-12	0	1.71405e-13	-1.01875e-12	0	0	0	0.369	-4.59327e-13	0	0	0	1.492	1.492	0	0	0	0	0.432593	-5.83533e-13	0	1.492	1.492	0	0	0	0	1.492	1.492	0.103778	0	1.70014e-08	0	1.492	0	0.138275	1.492	1.492	0	1.492	0	1.492	0	-4.42438e-13	0	1.986	1.492	1.492	1.492	0	0	0	0	1.492	0	0	0	3.159	3.159	0	0	0	0	1.492	
M_nadph_c	0	0	0	0	0	0	-1.492	0	0	0	0	0	-1.492	-1.492	0	0	4.1359e-25	0	0	-1.492	-1.492	0	0	-1.492	-1.492	-1.492	0	0	0	0	0	1.00974e-28	0	0	0	0	1.01875e-12	0	-1.71405e-13	1.01875e-12	0	0	0	-0.369	4.59327e-13	0	0	0	-1.492	-1.492	0	0	0	0	-0.432593	5.83533e-13	0	-1.492	-1.492	0	0	0	0	-1.492	-1.492	-0.103778	0	-1.70014e-08	0	-1.492	0	-0.138275	-1.492	-1.492	0	-1.492	0	-1.492	0	4.42438e-13	0	-1.986	-1.492	-1.492	-1.492	0	0	0	0	-1.492	0	0	0	-3.159	-3.159	0	0	0	0	-1.492	
M_nh4_c	2.036	1.492	1.492	2.036	1.492	1.492	0	1.492	2.036	1.492	1.492	2.036	0	2.56883e-12	1.492	1.492	1.492	1.492	1.492	0	0	1.492	1.492	0	0	0	2.036	2.036	1.492	1.492	1.492	1.492	1.492	1.492	2.036	2.036	1.492	1.492	1.492	1.492	1.492	2.036	1.492	1.492	1.492	1.492	1.492	2.036	0	0	1.492	1.492	1.492	1.492	1.48351	1.492	1.492	0	0	2.036	1.492	1.492	1.492	0	0	1.46553	1.492	1.492	1.492	-1.88965e-13	1.492	1.48929	0	0	1.492	0	1.492	0	1.492	1.492	1.492	1.492	0	0	0	1.492	1.492	1.631	1.492	0	1.492	1.492	1.492	1.499	1.492	1.492	1.492	1.492	1.492	0	
M_nh4_e	0	0	0	0	0	0	0	0	0	0	0	0	0	0	0	0	0	0	0	0	0	0	0	0	0	0	0	0	0	0	0	0	0	0	0	0	0	0	0	0	0	0	0	0	0	0	0	0	0	0	0	0	0	0	0	0	0	0	0	0	0	0	0	0	0	0	0	0	0	0	0	0	0	0	0	0	0	0	0	0	0	0	0	0	0	0	0	0	0	0	0	0	0	0	0	0	0	0	0	0	
M_2pg_c	-4.875	-1.617	-1.617	-5	-1.617	-1.716	-5	-1.716	-4.875	-1.716	-1.617	-5	-1.617	-1.716	-1.617	-1.617	-1.617	-1.617	-1.617	-4.875	-1.617	-1.716	-1.716	-1.617	-1.617	-1.617	-5	-4.875	-1.716	-1.716	-1.716	-1.716	-1.617	-1.716	-3.869	-5	-1.617	-1.617	-1.716	-1.617	0	-4.875	-1.716	0	-8.00192e-09	-1.614	0	-4.875	-1.716	-1.617	-2.79987e-08	0	0	0	-1.65539	0	0	-1.617	-1.617	-4.875	0	0	-1.617	-1.716	-1.617	0	-1.617	0	-1.617	-1.716	0	0	-1.617	-1.617	-3e-09	-1.716	-1.617	-1.617	-1.617	-1.617	-1.617	-1.716	-1.716	-1.716	-1.716	-1.716	-5	-5	-5	-1.617	-1.716	-1.716	0	-1.716	-1.716	0	0.198	0	0	0	
M_o2_c	-0	-0	-0	-0	-0	-0	-0	-0	-0	-0	-0	-0	-0	-0	-0	-0	-0	-0	-0	-0	1.13687e-13	-0	-0	-0	-0	-0	-0	-0	-0	-0	-0	-0	-0	-0	-4.21996e-13	-0	-0	-0	-0	-0	-0	-0	-0	-0	-0	-0	-0	-0	-0	-0	-0	-0	-0	-0	-0	-0	-0	-0	-0	-0	-0	-0	-0	-0	-0	-0	-0	-0	-0	-0	-0	-0	-0	-0	-0	-0	-0	-0	-0	-0	-0	-0	-0	-0	-0	-0	-0	4.54803e-13	-0	-0	-0	-0	-0	-0	-0	-0	-0	-0	-0	-0	
M_3pg_c	0	0	0	0	0	0	0	0	0	0	0.003	0	0	0	0	0	0	0.003	0	0	0	0	0	0	0.003	0.003	0	0	0.003	0	0	0	0	0	0	0	0	0	0	0.003	0	0	0.003	0	0	0	0	0.043	0	0	0	0	0	0	-0.0496749	0	0	0	0	0	0	0	0	0	0	-0.00905462	-1.986	-0.369	0	0	0	0	0	0.003	0	0	0	0.003	0	0	0	0	0	0	0.003	0	0	0	0	0	0	0	0	0	0.043	0	0	0	0	0	
M_o2_e	0	0	0	0	0	0	0	0	0	0	0	0	0	0	0	0	0	0	0	0	0	0	0	0	0	0	0	0	0	0	0	0	0	0	0	0	0	0	0	0	0	0	0	0	0	0	0	0	0	0	0	0	0	0	0	0	0	0	0	0	0	0	0	0	0	0	0	0	0	0	0	0	0	0	0	0	0	0	0	0	0	0	0	0	0	0	0	0	0	0	0	0	0	0	0	0	0	0	0	0	
M_oaa_c	-2.344	-2.104	-2.104	-8.44037e-13	0	0	-8.43769e-13	0	-3.204	0	0	-1.368	0	0	0	0	-5e-09	0	0	-0.76	-2.25929e-13	0	0	0	0	0	-2.228	-0.488	0	0	-2.864	-2.864	-0.76	-0.76	0	0	-0.76	-1.368	-0.76	-0.76	-1.716	-1.348	0	-1.617	-1.617	-0.76	-3.084	0	-1.368	0	-1.617	-1.617	-1.617	-1.617	-0.0593276	-1.617	-2.94	0	0	-0.86	-2.985	-2.985	-2.136	0	0	-1.63481	0	-1.617	0	-0.759991	-1.617	-3.02003	0	0	-3.844	-0.76	-0.76	2.09371e-12	-0.76	-0.76	-0.76	0	-2.197	-0.76	-0.763	-0.76	-1.716	-1.716	-1.716	-0.76	-0.76	-0.76	-2.94	-1.368	0	-3.745	-1.986	-3.745	-3.745	-1.716	
M_6pgc_c	0.237	0.183	0.183	0.237	0.183	0.183	0.237	0.183	0.237	0.183	0.183	0.237	0.183	0.183	0.183	0.183	0.183	0.183	0.183	0.183	0.183	0.183	0.183	0.183	0.183	0.183	0.237	0.237	0.183	0.183	0.183	0.183	0.183	0.183	0.237	0.237	0.183	0.237	0.183	0.183	0.183	0.237	0.183	0.183	0.183	0.183	0.237	0.237	0.237	0.183	0.183	0.183	0.183	0.183	0.183	0.183	0.237	0.183	0.237	0.237	0.237	0.237	0.237	0.237	0.237	0.183	0.183	0.183	0.183	0.183	0.183	0.237	0.183	0.183	0.183	0.183	0.183	0.183	0.183	0.183	0.183	0.183	0.183	0.183	0.183	0.183	0.183	0.183	0.183	0.183	0.183	0.183	0.237	0.237	0.183	0.183	0.183	0.237	0.183	0.183	
M_pep_c	-1.06	-1.06	-1.06	-1.06	-1.06	-1.06	-1.06	-1.06	-1.06	-1.06	-1.06	-1.06	-1.06	-1.06	-1.06	-1.06	-1.06	-1.06	-1.06	-1.06	-1.06	-1.06	-1.06	-1.06	-1.06	-1.06	-1.06	-1.06	-1.06	-1.06	-1.06	-1.06	-1.06	-1.06	-1.06	-1.06	-1.06	-1.06	-1.06	-1.06	-1.06	-1.06	-1.06	-1.06	-1.06	-1.06	-1.06	-1.06	-1.06	-1.06	-1.06	-1.06	-1.06	-1.06	-1.06	-1.06	-1.06	-1.06	-1.06	-1.06	-1.06	-1.06	-1.06	-1.06	-1.06	-1.06	-1.06	-1.06	-1.06	-1.06	-1.06	-1.06	-1.06	-1.06	-1.06	-1.06	-1.06	-1.06	-1.06	-1.06	-1.06	-1.06	-1.06	-1.06	-1.06	-1.06	-1.06	-1.06	-1.06	-1.06	-1.06	-1.06	-1.06	-1.06	-1.06	-1.06	-0.988	-1.06	-1.06	-1.06	
M_6pgl_c	-0.237	-0.183	-0.183	-0.237	-0.183	-0.183	-0.237	-0.183	-0.237	-0.183	-0.183	-0.237	-0.183	-0.183	-0.183	-0.183	-0.183	-0.183	-0.183	-0.183	-0.183	-0.183	-0.183	-0.183	-0.183	-0.183	-0.237	-0.237	-0.183	-0.183	-0.183	-0.183	-0.183	-0.183	-0.237	-0.237	-0.183	-0.237	-0.183	-0.183	-0.183	-0.237	-0.183	-0.183	-0.183	-0.183	-0.237	-0.237	-0.237	-0.183	-0.183	-0.183	-0.183	-0.183	-0.183	-0.183	-0.237	-0.183	-0.237	-0.237	-0.237	-0.237	-0.237	-0.237	-0.237	-0.183	-0.183	-0.183	-0.183	-0.183	-0.183	-0.237	-0.183	-0.183	-0.183	-0.183	-0.183	-0.183	-0.183	-0.183	-0.183	-0.183	-0.183	-0.183	-0.183	-0.183	-0.183	-0.183	-0.183	-0.183	-0.183	-0.183	-0.237	-3.396	-3.342	-0.183	-0.183	-0.237	-0.183	-0.183	
M_pi_c	-3.675	-0.269	-0.269	-3.675	-0.269	0	-3.675	0	-3.675	0	3.90634e-13	-3.675	-0.269	0	-0.269	-2.255	-0.269	0	-0.269	-3.675	0	4.9768e-12	0	-1.03991e-13	0	0	-3.675	-3.675	0	0	-0.269	-0.269	-0.269	5.83533e-13	-2.255	-3.675	0	-2.255	0	0	-2.255	-3.675	0	-1.886	-1.886	1.33882e-12	-2.255	-3.632	-0.003	-0.269	-1.886	-1.886	-1.886	-1.886	-0.269	-2.255	-1.572	-2.255	-0.269	-3.675	-1.62	-1.62	-2.255	-7.15263e-12	0	-1.893	-2.255	-2.255	-2.255	-0.269	-2.255	-1.62019	1e-09	-1.02546e-12	-2.255	0	-2.255	0	-0.269	-0.269	-0.269	-0.269	-0.269	0	-0.003	-1e-09	-3.802	-3.941	-3.802	0	0	0	-2.21	-3.675	-3.632	-1.83	-2.255	-1.884	-1.83	-2.255	
M_ac_c	0	0	0	0	1e-09	0	0	0	0	0.003	0	0	0	0	0	0	0	0	0	0	0	0	0	0.003	0	0	0	0	0	0.003	0	0	0	0	0	0	0	0	0.003	0	0	0	0	0	0	0	0	0	0	0	0	0	0	0	0	0	0	0	0	0	0	0	0	0	0	0	0	0	-1.986	0	-0.369	0	0.003	0	0	0	0	0	0	0	0	0	0	0	0	0	0	0	0	0.003	0	0.003	0	0	0	0	0	0	0	0	
M_pi_e	0	0	0	0	0	0	0	0	0	0	0	0	0	0	0	0	0	0	0	0	0	0	0	0	0	0	0	0	0	0	0	0	0	0	0	0	0	0	0	0	0	0	0	0	0	0	0	0	0	0	0	0	0	0	0	0	0	0	0	0	0	0	0	0	0	0	0	0	0	0	0	0	0	0	0	0	0	0	0	0	0	0	0	0	0	0	0	0	0	0	0	0	0	0	0	0	0	0	0	0	
M_pyr_c	2.776	2.677	2.677	2.776	2.677	2.776	2.776	2.776	2.776	2.776	2.677	2.776	2.677	2.776	2.677	2.677	2.677	2.677	2.677	2.776	2.677	2.776	2.776	2.677	2.677	2.677	2.776	2.776	2.776	2.776	2.776	2.776	2.677	2.776	2.776	2.776	2.677	2.677	2.776	2.677	2.776	2.776	2.776	2.677	2.677	2.677	2.776	2.776	2.776	2.677	2.677	2.677	2.677	2.677	2.632	2.677	2.632	2.677	2.677	2.776	2.677	2.677	2.677	2.776	2.677	2.66371	2.677	2.677	2.677	2.776	2.677	2.65749	2.677	2.677	2.776	2.776	2.677	2.677	2.677	2.677	2.677	2.776	2.776	2.776	2.776	2.776	2.776	2.776	2.776	2.677	2.776	2.776	2.632	2.776	2.776	2.677	2.776	2.677	2.677	2.776	
M_pyr_e	0	0	0	0	0	0	0	0	0	0	0	0	0	0	0	0	0	0	0	0	0	0	0	0	0	0	0	0	0	0	0	0	0	0	0	0	0	0	0	0	0	0	0	0	0	0	0	0	0	0	0	0	0	0	0	0	0	0	0	0	0	0	0	0	0	0	0	0	0	0	0	0	0	0	0	0	0	0	0	0	0	0	0	0	0	0	0	0	0	0	0	0	0	0	0	0	0	0	0	0	
M_q8_c	0	0	0	-0.88	0	0	0	0	0	0	0	0	0	0	0	0	1.986	0	0	0	-2.27374e-13	2.255	2.255	0	0	0	0	-0.88	2.255	2.255	0	0	0	0	0	-1.368	0	0	0	0	0	-0.88	2.255	0	0	-2.64e-07	0	0	0	0	0.369	0	0	0	0	0	0	0	1.986	-1.368	0	0	0	2.255	2.255	0	0	-8.0036e-13	0	0	0	0	2.255	2.255	0	0	-8.02622e-10	2.255	1.986	0	0	0	0	0	0	2.255	0	0	0	0	2.255	2.255	0	0	0	0	0	0	0	0	
M_ac_e	0	0	0	0	0	0	0	0	0	0	0	0	0	0	0	0	0	0	0	0	0	0	0	0	0	0	0	0	0	0	0	0	0	0	0	0	0	0	0	0	0	0	0	0	0	0	0	0	0	0	0	0	0	0	0	0	0	0	0	0	0	0	0	0	0	0	0	0	0	0	0	0	0	0	0	0	0	0	0	0	0	0	0	0	0	0	0	0	0	0	0	0	0	0	0	0	0	0	0	0	
M_q8h2_c	0	0	0	0.88	0	0	0	0	0	0	0	0	0	0	0	0	-1.986	0	0	0	2.27374e-13	-2.255	-2.255	0	0	0	0	0.88	-2.255	-2.255	0	0	0	0	0	1.368	0	0	0	0	0	0.88	-2.255	0	0	2.64e-07	0	0	0	0	-0.369	0	0	0	0	0	0	0	-1.986	1.368	0	0	0	-2.255	-2.255	0	0	8.0036e-13	0	0	0	0	-2.255	-2.255	0	0	8.02622e-10	-2.255	-1.986	0	0	0	0	0	0	-2.255	0	0	0	0	-2.255	-2.255	0	0	0	0	0	0	0	0	
M_acald_c	0	0	0	0	0	0	0	0	0	0	0	0	0	0	0	0	0	0	0	0	0	0	0	0	0	0	0	0	0	0	0	0	0	0	0	0	0	0	0	0	0	0	0	0	0	0	0	0	0	0	0	0	0	0	0	0	0	0	0	0	0	0	0	0	0	0	0	0	0	0	0	0	0	0	0	0	0	0	0	0	0	0	0	0	0	0	0	0	0	0	0	0	0	0	0	0	0	0	0	0	
M_r5p_c	0	0	0	0	0	0	0	0	0	0	0	0	0	0	0	0	0	0	-1.94511e-13	0	0	0	0	0	0	0	0	0	0	0	0	0	0	0	1.22237e-13	0	0	0	0	0	0	0	0	0	0	0	0	0	0	0	0	0	0	0	-0.0178212	0	0	0	0	0	0	0	0	0	0	-0.00324841	0	0	0	0	0	2.1684e-18	0	0	0	0	3e-09	0	0	1.07112e-16	0	0	0	0	0	0	0	0	0	0	0	0	0	0	0	0	0	0	0	0	
M_acald_e	0	0	0	0	0	0	0	0	0	0	0	0	0	0	0	0	0	0	0	0	0	0	0	0	0	0	0	0	0	0	0	0	0	0	0	0	0	0	0	0	0	0	0	0	0	0	0	0	0	0	0	0	0	0	0	0	0	0	0	0	0	0	0	0	0	0	0	0	0	0	0	0	0	0	0	0	0	0	0	0	0	0	0	0	0	0	0	0	0	0	0	0	0	0	0	0	0	0	0	0	
M_ru5p__D_c	0	0	0	0	0	0	0	0	0	0	0	0	3.34704e-13	0	0	0	0	0	-3.89022e-13	0	0	0	0	0	0	0	0	0	0	0	0	0	0	0	0	0	0	0	0	0	0	0	0	0	0	0	0	0	0	0	0	0	0	-4.03227e-12	0	0	0	0	0	0	0	0	0	0	0	0	-9.1771e-13	0	0	0	0	8.67362e-19	0	0	0	0	0	0	0	0	0	0	0	0	0	0	0	0	0	0	0	0	0	0	0	0	0	0	0	0	
M_accoa_c	3.159	0	0	2.556	-1.986	-2.255	0.94	-2.255	2.299	-2.255	-2.255	3.284	-1.986	-2.255	-1.368	-1.368	-3.354	-2.255	-1.368	0.522	-2.255	-3.623	-3.623	-2.255	-2.255	-2.255	2.424	3.159	-3.623	-3.623	-0.76	-0.76	-2.746	-3.015	6.89326e-17	3.284	-3.015	0	-3.015	-3.015	-1.368	2.299	-3.623	-1.368	-1.368	-3.015	0	-1.368	0	-1.368	-1.737	-1.368	-1.368	-1.368	-1.49245	-1.368	0	-1.454	-3.386	2.299	0	0	-0.768	-3.754	-3.655	-1.39068	-1.368	-1.368	-1.368	-2.74599	-1.368	-0.0397784	-3.709	-3.709	-0.76	-3.015	-2.128	-3.709	-4.114	-2.128	-2.128	-1.986	-0.76	-3.015	-3.015	-4.383	0	0	1.10267e-12	-3.015	-4.383	-4.383	0	0	-1.368	-0.76	-1.368	-0.76	-0.76	-1.368	
M_s7p_c	0	0	0	0	0	0.07425	0	0	0	0.07425	0	0	0	0	0	0	0	-1.94511e-13	0	0	0	0	0.0495	0	0	0	0	0	0.0495	0.0495	0.0495	0.07425	1.49966e-09	0	0	0	0	0	0.0495	0	0	0	0.07425	0	7.49169e-10	0	0	0	0.0495	7.12347e-13	0	0	0	0	0	0	0	0	0	0	0	0	0	0	0	0	0	0	0	0.07425	0	0	0	0	0	0	0	0	0	4.42925e-13	-1.94511e-13	0.0495	0.0495	0.0495	0.07425	0	0	0	0	0	0.0495	0.07425	0	0	0	0	0.0495	0	0	0	
M_succ_c	7.255	7.255	7.255	7.255	7.255	7.255	7.255	7.255	7.255	7.255	7.255	7.255	7.255	7.255	7.255	7.255	7.255	7.255	7.255	7.255	7.255	7.255	7.255	7.255	7.255	7.255	7.255	7.255	7.255	7.255	7.255	7.255	7.255	7.255	7.255	7.255	7.255	7.255	7.255	7.255	7.255	7.255	7.255	7.255	7.255	7.255	7.255	7.255	7.255	7.255	7.255	7.255	7.255	7.255	7.255	7.255	7.255	7.255	7.255	7.255	7.255	7.255	7.255	7.255	7.255	7.255	7.255	7.255	7.255	7.255	7.255	7.255	7.255	7.255	7.255	7.255	7.255	7.255	7.255	7.255	7.255	7.255	7.255	7.255	7.255	7.255	7.255	7.255	7.255	7.255	7.255	7.255	7.255	7.255	7.255	7.255	7.255	7.255	7.255	7.255	
M_acon_C_c	-0.86	-0.76	-0.76	-0.86	-2.746	-3.015	-0.86	-3.015	0	-3.015	-3.015	-0.86	-2.746	-3.015	-0.76	-0.76	-0.76	-3.015	-0.76	0	-3.015	-0.76	-0.76	-3.015	-3.015	-3.015	0	-0.86	-0.76	-0.76	0	0	-1.986	-2.255	-0.86	-0.86	-2.255	-0.768	-2.255	-2.255	-0.76	0	-0.76	-0.76	-1.129	-2.255	-0.76	-0.86	-0.76	-0.76	-0.76	-0.76	-0.76	-0.76	-0.76	-0.76	-0.76	-0.86	-0.86	0	-0.76	-0.76	0	-0.86	-0.86	-0.76	-0.76	-0.76	-0.76	-1.98601	-0.76	-0.76	-0.86	-0.86	0	-2.255	0	-0.86	0	0	0	-0.76	8.10907e-13	-2.255	-2.255	0	-0.86	-0.86	-0.86	-2.255	0	-8.3844e-13	-0.76	-0.86	-0.76	0	-0.76	0	0	-0.76	
M_succ_e	0	0	0	0	0	0	0	0	0	0	0	0	0	0	0	0	0	0	0	0	0	0	0	0	0	0	0	0	0	0	0	0	0	0	0	0	0	0	0	0	0	0	0	0	0	0	0	0	0	0	0	0	0	0	0	0	0	0	0	0	0	0	0	0	0	0	0	0	0	0	0	0	0	0	0	0	0	0	0	0	0	0	0	0	0	0	0	0	0	0	0	0	0	0	0	0	0	0	0	0	
M_actp_c	0	0	0	0	-1e-09	0	0	0	0	-0.003	0	0	0	0	0	0	0	0	0	0	0	0	0	-0.003	0	0	0	0	0	-0.003	0	0	-1e-09	0	0	0	0	0	-0.003	0	0	0	0	0	-4.00011e-09	0	0	0	0	0	0	0	0	0	0	0	0	0	0	0	0	0	0	0	1.33882e-12	0	0	0	1.986	0	0.369	0	-0.003	1.02546e-12	0	0	0	0	0	0	0	0	0	0	0	0	0	0	-2.43416e-12	-0.003	0	-0.003	0	0	0	0	0	0	0	0	
M_succoa_c	-3.675	-2.255	-2.255	-3.675	-0.269	0	-3.675	0	-3.675	0	0	-3.675	-0.269	-3.8703e-13	-2.255	-2.255	-0.269	0	-2.255	-3.675	0	0	0	5.41579e-13	0	0	-3.675	-3.675	0	0	-2.255	-2.255	-0.269	0	-2.255	-3.675	0	-2.255	-7.74099e-13	0	-2.255	-3.675	0	-1.886	-1.886	0	-2.255	-3.632	-2.255	-2.255	-1.886	-2.255	-2.255	-2.255	-2.255	-2.255	-2.255	-2.255	-0.269	-3.675	-2.255	-2.751	-2.255	0	0	-2.255	-2.255	-2.255	-2.255	-0.269	-2.255	-2.255	0	0	-2.255	0	-2.255	-7.74099e-13	-0.269	-2.255	-2.255	-0.269	-2.255	0	0	3e-09	-2.255	-2.255	-2.255	0	0	0	-2.255	-3.675	-3.632	-2.255	-2.255	-2.255	-2.255	-2.255	
M_adp_c	-0.003	-0.269	-0.269	-0.003	-0.269	-0.269	-0.003	-0.099	-0.003	-0.003	-0.003	-0.003	-0.269	-0.099	-0.269	-0.269	-0.269	-0.003	-0.269	-0.003	-0.269	-0.099	-0.269	-0.003	-0.003	-0.003	-0.003	-0.003	-0.003	-0.003	-0.269	-0.269	-0.269	-0.099	-0.003	-0.003	-0.269	-0.269	-0.003	-0.003	-0.269	-0.003	-0.003	-0.269	-0.269	-0.003	-0.026	-0.003	-0.003	-0.269	-0.269	-0.269	-0.269	-0.269	-0.269	-0.269	-0.045	-0.269	-0.269	-0.003	-0.003	-0.003	-0.269	-0.099	-0.269	-0.269	-0.269	-0.269	-0.269	-0.269	-0.269	-0.003	-0.003	-0.003	-0.114	-0.099	-0.269	-0.003	-0.269	-0.269	-0.269	-0.269	-0.269	-0.269	-0.003	-0.099	-0.13	-0.269	-0.13	-0.003	-0.269	-0.003	-0.269	-0.003	-0.003	-0.213	-0.269	-0.267	-0.213	-0.269	
M_xu5p__D_c	0	0	0	0	0	0	0	0	0	0	0	0	-3.34704e-13	0	0	0	0	-1.94511e-13	0	0	0	0	0.0495	0	0	0	0	0	0.0495	0.0495	0.0495	0	0	0	0	0	0	0	0.0495	0	-9.16767e-13	0	0	0	5.55112e-17	0	0	0	0.0495	0	0	0	0	0	0	0	0	0	0	0	0	0	0	0	0	0	0	0	-5.83533e-13	0	0	0	0	0	0	0	0	0	0	0	-1.94511e-13	0.0495	0.0495	0.0495	0	0	0	0	0	0	0.0495	0	0	0	0	0	0.0495	0	0	0	
M_akg_c	0	0	0	0	0	0	-1.492	0	0	0	0	0	-1.492	-1.492	0	0	-5e-09	0	0	-1.492	-1.492	0	0	-1.492	-1.492	-1.492	0	0	0	0	0	1.0998e-12	0	0	-5.60764e-13	0	0	0	0	0	0	0	0	-0.369	0	0	0	0	-1.492	-1.492	0	0	0	0	0.136745	5.83533e-13	0	-1.492	-1.492	0	0	0	0	-1.492	-1.492	6.93889e-18	0	-1.80014e-08	0	-1.492	0	0.0437097	-1.492	-1.492	0	-1.492	0	-1.492	8.00581e-13	0	0	-1.986	-1.492	-1.492	-1.492	-6e-09	-5	-5	-5	-1.492	0	0	0	0	0	0	0	0	0	-1.492	
M_akg_e	0	0	0	0	0	0	0	0	0	0	0	0	0	0	0	0	0	0	0	0	0	0	0	0	0	0	0	0	0	0	0	0	0	0	0	0	0	0	0	0	0	0	0	0	0	0	0	0	0	0	0	0	0	0	0	0	0	0	0	0	0	0	0	0	0	0	0	0	0	0	0	0	0	0	0	0	0	0	0	0	0	0	0	0	0	0	0	0	0	0	0	0	0	0	0	0	0	0	0	0	
M_amp_c	0	0	0	0	0	0.1345	0	0	0	0	0	0	0	0	0	-0.993	0	0	0	0	0.1345	0	0.1345	5e-10	0	0	0	0	0	0	0	0	0	0	-2.03706e-13	0	0.1345	-0.993	0	0	0	0	0	0	-8e-09	0	0	0	0	0	8e-09	0	0	0	0	-0.1845	0.045	-0.993	0	0	0	0	-0.993	0	0.1345	0	0	0	0	0	0	0	0	0	0	0	-0.993	0	0	0	0	0	0	0.1345	0	4.99999e-10	0	0	0	0	0.1345	0	-0.162	0	0	0	0	0	0	0	
M_atp_c	0.003	0.269	0.269	0.003	0.269	0.1345	0.003	0.099	0.003	0.003	0.003	0.003	0.269	0.099	0.269	1.262	0.269	0.003	0.269	0.003	0.1345	0.099	0.1345	0.003	0.003	0.003	0.003	0.003	0.003	0.003	0.269	0.269	0.269	0.099	0.003	0.003	0.1345	1.262	0.003	0.003	0.269	0.003	0.003	0.269	0.269	0.003	0.026	0.003	0.003	0.269	0.269	0.269	0.269	0.269	0.269	0.4535	0	1.262	0.269	0.003	0.003	0.003	1.262	0.099	0.1345	0.269	0.269	0.269	0.269	0.269	0.269	0.003	0.003	0.003	0.114	0.099	1.262	0.003	0.269	0.269	0.269	0.269	0.269	0.1345	0.003	0.099	0.13	0.269	0.13	0.003	0.1345	0.003	0.431	0.003	0.003	0.213	0.269	0.267	0.213	0.269	
M_cit_c	0.86	0.76	0.76	0.86	0.76	0.76	0.86	0.76	0.86	0.76	0.76	0.86	0.76	0.76	0.76	0.76	0.76	0.76	0.76	0.76	0.76	0.76	0.76	0.76	0.76	0.76	0.86	0.86	0.76	0.76	0.76	0.76	0.76	0.76	0.86	0.86	0.76	0.768	0.76	0.76	0.76	0.86	0.76	0.76	0.76	0.76	0.76	0.86	0.76	0.76	0.76	0.76	0.76	0.76	0.76	0.76	0.76	0.86	0.86	0.86	0.76	0.76	0.768	0.86	0.86	0.76	0.76	0.76	0.76	0.76	0.76	0.76	0.86	0.86	0.76	0.76	0.76	0.86	0.76	0.76	0.76	0.76	0.76	0.76	0.76	0.76	0.86	0.86	0.86	0.76	0.76	0.76	0.76	0.86	0.76	0.76	0.76	0.76	0.76	0.76	
M_co2_c	3.159	0	0	1.42613e-12	0	0	0	0	3.159	0	0	0	0	-3.8703e-13	0	0	0	0	0	0	0	0	0	5.41579e-13	0	0	0	0	0	0	0	1.00974e-28	-4e-09	5.83533e-13	0	0	0	0	-7.74099e-13	0	1.716	0	0	1.248	1.617	0	1.716	0	0	0	1.617	1.617	1.617	1.617	0	1.617	1.572	0	0	0	1.617	1.617	0	1.59947e-10	0	1.624	-9.1771e-13	1.617	0	0	1.617	1.63307	0	0	1.716	0	-1.00069e-09	-1.62144e-13	0	0	0	-1.986	0	0	0	1.27676e-15	5	5	5	0	0	0	1.572	0	0	1.617	1.986	1.617	1.617	1.716	
M_co2_e	0	0	0	0	0	0	0	0	0	0	0	0	0	0	0	0	0	0	0	0	0	0	0	0	0	0	0	0	0	0	0	0	0	0	0	0	0	0	0	0	0	0	0	0	0	0	0	0	0	0	0	0	0	0	0	0	0	0	0	0	0	0	0	0	0	0	0	0	0	0	0	0	0	0	0	0	0	0	0	0	0	0	0	0	0	0	0	0	0	0	0	0	0	0	0	0	0	0	0	0	
M_coa_c	0.516	2.255	2.255	1.119	2.255	2.255	2.735	2.255	1.376	2.255	2.255	0.391	2.255	2.255	3.623	3.623	3.623	2.255	3.623	3.153	2.255	3.623	3.623	2.255	2.255	2.255	1.251	0.516	3.623	3.623	3.015	3.015	3.015	3.015	2.255	0.391	3.015	2.255	3.015	3.015	3.623	1.376	3.623	3.254	3.254	3.015	2.255	5	2.255	3.623	3.623	3.623	3.623	3.623	3.74745	3.623	2.255	3.709	3.655	1.376	2.255	2.751	3.023	3.754	3.655	3.64568	3.623	3.623	3.623	3.01499	3.623	2.29478	3.709	3.709	3.015	3.015	4.383	3.709	4.383	4.383	4.383	2.255	3.015	3.015	3.015	4.383	2.255	2.255	2.255	3.015	4.383	4.383	2.255	3.675	5	3.015	3.623	3.015	3.015	3.623	
M_dhap_c	0	-3.672	-3.672	0	-3.672	-3.672	0	-3.672	0	-3.672	-3.672	0	-3.672	-3.672	-3.672	-3.672	-3.672	-3.672	-3.672	0	-3.672	-3.672	-3.672	-3.672	-3.672	-3.672	0	0	-3.672	-3.672	-3.672	-3.672	-3.672	-3.672	-1.42	0	-3.672	-3.672	-3.672	-3.672	-3.402	0	-3.65963	-3.672	-3.672	-3.672	-3.159	0	-3.672	-3.672	-3.672	-3.672	-3.672	-3.672	-3.672	-3.672	-3.672	-3.672	-3.672	0	-3.672	-3.672	-3.672	-3.672	-3.672	-3.672	-3.672	-3.672	-3.672	-3.672	-3.672	-3.672	-3.672	-3.672	-3.247	-3.672	-3.672	-3.672	-3.672	-3.672	-3.672	-3.672	-3.672	-3.672	-3.672	-3.672	0	0	0	-3.672	-3.672	-3.672	-3.672	0	0	-3.672	-3.672	-3.672	-3.672	-3.402	
M_e4p_c	0	0	0	0	0	0	0	0	0	0	0	0	0	0	0	0	0	0	0	0	0	0	0	0	0	0	0	0	0	0	0	0	0	0	0	0	0	0	0	0	0	0	0	0	0	0	0	0	0	0	0	0	0	0	0	0	0	0	0	0	0	0	0	0	0	0	0	0	0	0	0	0	0	0	0	0	0	0	0	0	0	0	0	0	0	0	0	0	0	0	0	0	0	0	0	0	0	0	0	0	
M_etoh_c	0	0	0	0	0	0	0	0	0	0	0	0	0	0	0	0	0	0	0	0	0	0	0	0	0	0	0	0	0	0	0	0	0	0	0	0	0	0	0	0	0	0	0	0	0	0	0	0	0	0	0	0	0	0	0	0	0	0	0	0	0	0	0	0	0	0	0	0	0	0	0	0	0	0	0	0	0	0	0	0	0	0	0	0	0	0	0	0	0	0	0	0	0	0	0	0	0	0	0	0	
M_etoh_e	0	0	0	0	0	0	0	0	0	0	0	0	0	0	0	0	0	0	0	0	0	0	0	0	0	0	0	0	0	0	0	0	0	0	0	0	0	0	0	0	0	0	0	0	0	0	0	0	0	0	0	0	0	0	0	0	0	0	0	0	0	0	0	0	0	0	0	0	0	0	0	0	0	0	0	0	0	0	0	0	0	0	0	0	0	0	0	0	0	0	0	0	0	0	0	0	0	0	0	0	
M_f6p_c	0.473	0.547	0.547	0.547	0.547	0.547	0.473	0.547	0.473	0.547	0.547	0.473	0.547	0.547	0.547	0.547	0.547	0.547	0.547	0.473	0.547	0.547	0.547	0.547	0.547	0.547	0.473	0.473	0.547	0.547	0.547	0.547	0.547	0.547	0.547	0.473	0.547	0.547	0.547	0.547	0.547	0.473	0.547	0.547	0.547	0.547	0.473	0.473	0.547	0.547	0.547	0.547	0.547	0.547	0.547	0.547	0.547	0.547	0.547	0.473	0.547	0.547	0.547	0.547	0.547	0.547	0.547	0.547	0.547	0.547	0.547	0.547	0.547	0.547	0.473	0.547	0.547	0.547	0.547	0.547	0.547	0.547	0.547	0.547	0.547	0.547	0.473	0.473	0.473	0.547	0.547	0.547	0.547	0.473	0.473	0.547	0.547	0.547	0.547	0.473	
M_fdp_c	3.672	3.672	3.672	3.672	3.672	3.672	3.672	3.672	3.672	3.672	3.672	3.672	3.672	3.672	3.672	3.672	3.672	3.672	3.672	3.672	3.672	3.672	3.672	3.672	3.672	3.672	3.672	3.672	3.672	3.672	3.672	3.672	3.672	3.672	3.672	3.672	3.672	3.672	3.672	3.672	3.672	3.672	3.672	3.672	3.672	3.672	3.672	3.672	3.672	3.672	3.672	3.672	3.672	3.672	3.672	3.672	3.672	3.672	3.672	3.672	3.672	3.672	3.672	3.672	3.672	3.672	3.672	3.672	3.672	3.672	3.672	3.672	3.672	3.672	3.672	3.672	3.672	3.672	3.672	3.672	3.672	3.672	3.672	3.672	3.672	3.672	3.672	3.672	3.672	3.672	3.672	3.672	3.672	3.672	3.672	3.672	3.672	3.672	3.672	3.672	
M_for_c	0	0	0	3.284	0	0	3.284	0	0	0	0	3.284	0	0	0	0	0	0	0	3.159	0	0	0	0	0	0	3.284	3.159	0	0	0	0	0	0	2.153	3.284	0	0	0	0	0	3.159	0	0	-1.99931e-09	0	0	0	0	0	0	0	0	0	0	0	0	0	0	3.159	0	0	0	0	-1.51301e-12	0	0	0	0	0	0	0	0	0	0	0	0	0	0	0	0	0	0	0	0	0	0	0	0	0	0	0	0	0	0	0	0	0	0	0	
M_for_e	0	0	0	0	0	0	0	0	0	0	0	0	0	0	0	0	0	0	0	0	0	0	0	0	0	0	0	0	0	0	0	0	0	0	0	0	0	0	0	0	0	0	0	0	0	0	0	0	0	0	0	0	0	0	0	0	0	0	0	0	0	0	0	0	0	0	0	0	0	0	0	0	0	0	0	0	0	0	0	0	0	0	0	0	0	0	0	0	0	0	0	0	0	0	0	0	0	0	0	0	
M_fru_e	0	0	0	0	0	0	0	0	0	0	0	0	0	0	0	0	0	0	0	0	0	0	0	0	0	0	0	0	0	0	0	0	0	0	0	0	0	0	0	0	0	0	0	0	0	0	0	0	0	0	0	0	0	0	0	0	0	0	0	0	0	0	0	0	0	0	0	0	0	0	0	0	0	0	0	0	0	0	0	0	0	0	0	0	0	0	0	0	0	0	0	0	0	0	0	0	0	0	0	0	
M_fum_c	1.616	1.616	1.616	0.88	1.498	1.616	1.616	1.616	1.616	1.616	1.616	0.88	1.498	1.616	0.88	0.88	0.88	1.616	0.88	1.149	1.616	0.88	0.88	1.616	1.616	1.616	0.88	0.88	0.88	0.88	1.616	1.616	1.498	1.616	1.425	0.88	1.616	0.88	1.616	1.616	0.88	0.88	0.88	0.88	0.88	1.616	0.88	0.88	0.88	0.88	0.88	0.88	0.88	0.88	0.88	0.88	0.88	0.88	0.88	0.88	0.88	0.88	0.88	0.88	0.88	0.88	0.88	0.88	0.88	1.498	0.88	0.88	0.88	0.88	0.88	1.616	0.88	0.88	0.88	0.88	0.88	1.498	0.949	1.616	1.616	0.88	0.988	0.988	0.988	1.616	0.88	0.88	0.88	0.88	0.88	0.88	0.88	0.88	0.88	0.88	
M_fum_e	0	0	0	0	0	0	0	0	0	0	0	0	0	0	0	0	0	0	0	0	0	0	0	0	0	0	0	0	0	0	0	0	0	0	0	0	0	0	0	0	0	0	0	0	0	0	0	0	0	0	0	0	0	0	0	0	0	0	0	0	0	0	0	0	0	0	0	0	0	0	0	0	0	0	0	0	0	0	0	0	0	0	0	0	0	0	0	0	0	0	0	0	0	0	0	0	0	0	0	0	
M_g3p_c	0	-3.672	-3.672	0	-3.672	-3.64725	0	-3.672	0	-3.64725	-3.672	0	-3.672	-3.672	-3.672	-3.672	-3.672	-3.672	-3.672	0	-3.672	-3.672	-3.672	-3.672	-3.672	-3.672	0	0	-3.672	-3.672	-3.672	-3.64725	-3.672	-3.672	-1.42	0	-3.672	-3.672	-3.672	-3.672	-3.402	0	-3.65962	-3.672	-3.672	-3.672	-3.159	0	-3.672	-3.672	-3.672	-3.672	-3.672	-3.672	-3.68827	-3.672	-3.672	-3.672	-3.672	0	-3.672	-3.672	-3.672	-3.672	-3.672	-3.67497	-3.672	-3.672	-3.672	-3.64725	-3.672	-3.6791	-3.672	-3.672	-3.247	-3.672	-3.672	-3.672	-3.672	-3.672	-3.672	-3.672	-3.672	-3.672	-3.65025	-3.672	0	0	0	-3.672	-3.672	-3.64725	-3.672	0	0	-3.672	-3.672	-3.672	-3.672	-3.402	
M_g6p_c	1.79	2.13	2.13	1.841	2.13	2.13	1.915	2.13	1.79	2.13	2.13	1.915	2.13	2.13	2.13	2.13	2.13	2.13	2.13	1.79	2.13	2.13	2.13	2.13	2.13	2.13	1.915	1.79	2.13	2.13	2.13	2.13	2.13	2.13	2.13	1.915	2.13	2.13	2.13	2.13	1.959	1.79	2.13	2.13	2.13	2.13	1.79	1.79	2.13	2.13	2.13	2.13	2.13	2.13	2.13	2.13	2.13	2.13	2.13	1.79	2.13	2.13	2.13	2.13	2.13	2.13	2.13	2.13	2.13	2.13	2.13	2.13	2.13	2.13	1.878	2.13	2.13	2.13	2.13	2.13	2.13	2.13	2.13	2.13	2.13	2.13	1.915	1.915	1.915	2.13	2.13	2.13	2.13	1.79	1.79	2.13	2.13	2.13	2.13	2.033	
M_biomass_c	0	0	0	0	0	0	0	0	0	0	0	0	0	0	0	0	0	0	0	0	0	0	0	0	0	0	0	0	0	0	0	0	0	0	-6.80836e-13	0	0	0	0	0	0	0	0	0	0	0	0	0	0	0	0	0	0	0	0.166026	0	0	0	0	0	0	0	0	0	0	0.0302628	0	0	0	0	0	0.053069	0	0	0	0	0	0	0	0	0	0	0	0	0	0	0	0	0	0	0	0	0	0	0	0	0	0	0	0	
