B_R_ACONTa 	 3.32
F_R_ACONTb 	 1.80709
F_R_ATPS4r 	 38.3868
R_BIOMASS_Ecoli_core_w_GAM 	 0.653665
R_CYTBD 	 76.7736
B_R_ENO 	 2.11652
B_R_FBA 	 0.051
F_R_FUM 	 46.5502
F_R_GLUDy 	 5.50099
R_GLUN 	 4.49901
R_GND 	 0.228
B_R_ICDHyr 	 8.19291
B_R_LDH_D 	 10
F_R_MDH 	 1.1679
R_ME1 	 6.51355
R_ME2 	 10.9798
R_PFL 	 2.4498
F_R_PGI 	 0.209318
B_R_PGK 	 0.977882
R_PPS 	 2.27084
R_SUCDi 	 80.1422
B_R_TKT2 	 0.235973
