B_R_ACONTa 	 3.32
F_R_ATPS4r 	 39.7676
R_BIOMASS_Ecoli_core_w_GAM 	 0.660401
R_CYTBD 	 79.5352
B_R_ENO 	 3.94426
B_R_FBA 	 0.051
F_R_FUM 	 48.4379
F_R_GLUDy 	 5.48435
R_GLUN 	 4.51565
R_GND 	 0.228
B_R_ICDHyr 	 10
B_R_LDH_D 	 10
F_R_MDH 	 1.17994
R_ME2 	 19.3689
R_NADTRHD 	 6.47762
R_PFL 	 2.47505
F_R_PGI 	 0.212227
F_R_PGM 	 3.94426
R_PPS 	 4.10208
R_SUCDi 	 82.0299
B_R_TKT2 	 0.238405
