B_R_ACKr 	 4.24053
B_R_ACONTa 	 3.32
F_R_ATPS4r 	 40.1755
R_BIOMASS_Ecoli_core_w_GAM 	 0.757057
R_CYTBD 	 80.351
F_R_FUM 	 49.0136
F_R_GLUDy 	 5.24554
R_GLUN 	 4.75446
R_GND 	 0.228
B_R_ICDHyr 	 10
B_R_LDH_D 	 9.42059
R_ME1 	 6.73531
R_ME2 	 14.3893
R_PFL 	 7.07783
F_R_PGI 	 0.349803
B_R_PGK 	 1.13256
R_PPC 	 1.35263
R_PPS 	 1.56062
F_R_PTAr 	 4.24053
R_SUCDi 	 82.6056
B_R_TKT2 	 0.338213
