B_R_ACONTa 	 3.32
F_R_ATPS4r 	 39.6528
R_BIOMASS_Ecoli_core_w_GAM 	 0.656927
R_CYTBD 	 79.3056
B_R_ENO 	 3.90961
F_R_FUM 	 48.3723
F_R_GLUDy 	 5.49293
R_GLUN 	 4.50707
R_GND 	 0.252
B_R_ICDHyr 	 10
B_R_LDH_D 	 10
F_R_MDH 	 1.17373
R_ME2 	 19.3096
R_NADTRHD 	 6.49615
R_PFL 	 2.46203
F_R_PGI 	 0.303727
F_R_PGM 	 0.982762
R_PPS 	 4.06562
B_R_RPE 	 0.23715
B_R_RPI 	 0.48915
R_SUCDi 	 81.9643
B_R_TKT2 	 0.23715
