B_R_ACONTa 	 3.32
F_R_ATPS4r 	 39.6954
R_BIOMASS_Ecoli_core_w_GAM 	 0.657639
R_CYTBD 	 79.3908
B_R_ENO 	 3.9358
F_R_FUM 	 48.4048
F_R_GLUDy 	 10
R_GLUSy 	 4.50883
R_GND 	 0.228
B_R_ICDHyr 	 10
B_R_LDH_D 	 10
F_R_MDH 	 1.175
R_ME2 	 19.3408
R_NADTRHD 	 6.49235
R_PFK 	 0.093
R_PFL 	 2.4647
F_R_PGI 	 0.304034
F_R_PGM 	 3.9358
R_PPS 	 4.09218
R_SUCDi 	 81.9968
B_R_TKT2 	 0.237408
