B_R_ACONTa 	 3.32
F_R_ACONTb 	 1.81755
F_R_ATPS4r 	 38.9849
R_BIOMASS_Ecoli_core_w_GAM 	 0.647315
R_CYTBD 	 77.9698
B_R_ENO 	 2.0866
B_R_FBA 	 0.051
F_R_FUM 	 46.4639
F_R_GLUDy 	 10
R_GLUSy 	 4.48332
R_GND 	 0.228
B_R_ICDHyr 	 8.18245
B_R_LDH_D 	 10
R_ME2 	 18.5749
R_NADTRHD 	 7.70397
R_PFL 	 2.42601
F_R_PGI 	 0.206575
F_R_PGM 	 2.0866
R_PPC 	 1.15656
R_PPS 	 3.39418
R_SUCDi 	 80.0559
B_R_TKT2 	 0.233681
