Reactions	ColorReaction
R_ACKr	-10
R_ACONTa	-10
R_ATPS4r	10
R_BIOMASS_Ecoli_core_w_GAM	10
R_CYTBD	10
R_FUM	10
R_GLUDy	10
R_GLUSy	10
R_GND	10
R_ICDHyr	-10
R_LDH_D	-10
R_MDH	10
R_ME2	10
R_NADTRHD	10
R_PFK	10
R_PFL	10
R_PGI	10
R_PGK	-10
R_PPS	10
R_PTAr	10
R_SUCDi	10
R_TKT2	-10
