F_R_ACONTa 	 5.08832
F_R_ACONTb 	 5.08832
F_R_ADK1 	 6.81145
F_R_ATPS4r 	 23.4631
R_BIOMASS_Ecoli_core_w_GAM 	 0.164474
R_CS 	 6.76832
R_CYTBD 	 20.8155
B_R_ENO 	 1.70052
R_FBP 	 0.7229
F_R_FUM 	 3.13632
F_R_G6PDH2r 	 1.01128
F_R_GLUDy 	 4.15406
R_GLUN 	 0.845944
R_GND 	 0.2955
R_ICL 	 3.40832
B_R_LDH_D 	 5
R_MALS 	 3.40832
F_R_MDH 	 5.97363
R_NADH16 	 17.4072
R_NADTRHD 	 5.05708
R_PDH 	 10.793
R_PPC 	 6.08855
R_PPS 	 6.81445
R_SUCDi 	 3.40832
B_R_TALA 	 0.451932
B_R_TKT2 	 0.511307
