M_glc__D_e	0
M_gln__L_c	-0.889355
M_gln__L_e	0
M_glu__L_c	-4.232
M_glu__L_e	0
M_glx_c	5
M_h2o_c	0
M_h2o_e	0
M_h_c	5
M_h_e	0
M_icit_c	1.68
M_lac__D_c	5
M_lac__D_e	0
M_mal__L_c	0.571
M_mal__L_e	0
M_nad_c	0
M_13dpg_c	0
M_nadh_c	0
M_nadp_c	1.17312
M_nadph_c	-1.17312
M_nh4_c	5
M_nh4_e	0
M_2pg_c	0
M_o2_c	-10.4152
M_3pg_c	-0.277293
M_o2_e	0
M_oaa_c	2.55846
M_6pgc_c	-0.2955
M_pep_c	-1.06
M_6pgl_c	1.007
M_pi_c	0
M_ac_c	0
M_pi_e	0
M_pyr_c	-23.4511
M_pyr_e	0
M_q8_c	-8.88178e-16
M_ac_e	0
M_q8h2_c	8.88178e-16
M_acald_c	0
M_r5p_c	-0.166394
M_acald_e	0
M_ru5p__D_c	0.2955
M_accoa_c	2.22045e-16
M_s7p_c	0.447422
M_succ_c	0
M_acon_C_c	-8.88178e-16
M_succ_e	0
M_actp_c	2.74246
M_succoa_c	0
M_adp_c	-0.269
M_xu5p__D_c	0.514336
M_akg_c	4.92137
M_akg_e	0
M_amp_c	0.66239
M_atp_c	-0.39339
M_cit_c	1.68
M_co2_c	5
M_co2_e	0
M_coa_c	-2.22045e-16
M_dhap_c	0
M_e4p_c	0
M_etoh_c	0
M_etoh_e	0
M_f6p_c	-0.252
M_fdp_c	-0.7229
M_for_c	0
M_for_e	0
M_fru_e	0
M_fum_c	0.272
M_fum_e	0
M_g3p_c	-0.0908244
M_g6p_c	-1.045
M_biomass_c	0.92678
