F_R_ACONTa 	 5.33463
F_R_ACONTb 	 5.33463
F_R_ADK1 	 6.8946
F_R_ATPS4r 	 22.7648
R_BIOMASS_Ecoli_core_w_GAM 	 0.150018
R_CS 	 7.01463
R_CYTBD 	 20.4046
B_R_ENO 	 1.70803
R_FBP 	 0.7229
F_R_FUM 	 3.38263
F_R_GLUDy 	 5
R_GLUSy 	 0.84964
R_GND 	 0.2955
R_ICL 	 3.65463
B_R_LDH_D 	 5
R_MALS 	 3.29934
F_R_MDH 	 6.11096
R_NADH16 	 16.75
R_NADTRHD 	 4.23071
R_PDH 	 10.8762
F_R_PGI 	 1.01425
R_PPC 	 6.1717
R_PPS 	 6.8976
R_SUCDi 	 3.65463
B_R_TALA 	 0.962177
B_R_TKT2 	 1.01633
