F_R_ACONTa 	 9.93507
F_R_ACONTb 	 9.93507
F_R_ADK1 	 10.5376
F_R_ATPS4r 	 35.1098
R_BIOMASS_Ecoli_core_w_GAM 	 0.12544
R_CS 	 11.6151
R_CYTBD 	 33.0409
B_R_ENO 	 6.45069
B_R_FBA 	 3.12343
R_FBP 	 3.84633
F_R_FUM 	 7.98307
F_R_G6PDH2r 	 5
B_R_GAPD 	 6.26303
F_R_GLUDy 	 5
R_GLUSy 	 0.855925
R_GND 	 0.2745
R_ICL 	 8.25507
R_MALS 	 3.25507
F_R_MDH 	 10.6671
R_NADH16 	 24.7858
R_NADTRHD 	 9.19023
R_PDH 	 10.7465
R_PFL 	 4.59374
B_R_PGI 	 4.11072
F_R_PGK 	 6.26303
F_R_PGM 	 6.45069
R_PPC 	 6.02102
R_PPS 	 11.4768
R_SUCDi 	 8.25507
F_R_TALA 	 0.0452839
B_R_TPI 	 3.12343
