F_R_ACONTa 	 8.44717
F_R_ACONTb 	 8.44717
F_R_ADK1 	 8.69789
F_R_ATPS4r 	 27.5966
R_BIOMASS_Ecoli_core_w_GAM 	 0.12544
R_CS 	 10.1272
R_CYTBD 	 26.1375
B_R_ENO 	 2.61686
R_FBP 	 0.7229
F_R_FUM 	 6.49517
F_R_G6PDH2r 	 1.94001
B_R_GAPD 	 2.4292
F_R_GLUDy 	 4.14408
R_GLUN 	 0.855925
R_GND 	 0.2955
R_ICL 	 6.76717
B_R_LDH_D 	 5
R_MALS 	 1.76717
F_R_MDH 	 7.69133
R_NADH16 	 19.3704
R_NADTRHD 	 6.29885
R_PDH 	 12.3645
B_R_PGI 	 0.920722
F_R_PGK 	 2.4292
F_R_PGM 	 2.61686
R_PPC 	 7.65996
R_PPS 	 9.28193
R_SUCDi 	 6.76717
F_R_TALA 	 0
