B_R_ACALD 	 4.30749
F_R_ACONTa 	 7.12771
F_R_ACONTb 	 6.49036
F_R_ADK1 	 9.58273
F_R_ATPS4r 	 26.671
R_BIOMASS_Ecoli_core_w_GAM 	 0.12544
R_CS 	 8.80771
R_CYTBD 	 23.9134
R_FBP 	 0.7229
F_R_FUM 	 4.02222
F_R_G6PDH2r 	 1.94001
F_R_GLUDy 	 4.14408
R_GLUN 	 0.855925
R_GND 	 0.2745
R_ICL 	 4.81036
F_R_MDH 	 3.45122
R_NADH16 	 19.6191
R_NADTRHD 	 4.72436
R_PDH 	 15.3061
B_R_PGI 	 0.920722
R_PPC 	 10.5806
R_PPS 	 9.58573
F_R_PTAr 	 1.72078
R_SUCDi 	 4.29422
B_R_TKT2 	 0.0452839
