F_R_ACONTa 	 8.22756
F_R_ACONTb 	 8.22756
F_R_ADK1 	 9.6253
F_R_ATPS4r 	 31.1123
R_BIOMASS_Ecoli_core_w_GAM 	 0.12544
R_CS 	 9.90756
R_CYTBD 	 28.8184
B_R_ENO 	 4.27782
B_R_FBA 	 2.01435
R_FBP 	 2.73725
F_R_FUM 	 6.27556
F_R_G6PDH2r 	 3.95435
B_R_GAPD 	 4.09016
F_R_GLUDy 	 5
R_GLUSy 	 0.855925
R_GND 	 0.2745
R_ICL 	 6.54756
R_MALS 	 1.54756
F_R_MDH 	 7.25212
R_NADH16 	 22.2708
R_NADTRHD 	 6.73871
R_PDH 	 11.9252
B_R_PGI 	 2.93507
F_R_PGK 	 4.09016
F_R_PGM 	 4.27782
R_PPC 	 7.19974
R_PPS 	 10.4827
R_SUCDi 	 6.54756
F_R_TALA 	 0
B_R_TPI 	 2.01435
