F_R_ACONTa 	 5.44139
F_R_ACONTb 	 5.44139
F_R_ADK1 	 7.62077
F_R_ATPS4r 	 23.0131
R_BIOMASS_Ecoli_core_w_GAM 	 0.12544
R_CS 	 7.12139
R_CYTBD 	 18.4105
R_FBP 	 0.7229
F_R_GLUDy 	 4.14408
R_GLUN 	 0.855925
R_GND 	 0.2745
R_ICL 	 3.76139
B_R_LDH_D 	 4.77181
R_MALS 	 3.76139
F_R_MDH 	 3.19039
R_NADH16 	 18.4105
R_NADTRHD 	 2.78435
R_PDH 	 13.8806
F_R_PGI 	 1.01928
R_PPC 	 9.15512
R_PPS 	 8.16024
F_R_PTAr 	 2.52771
B_R_TALA 	 0.970004
B_R_TKT2 	 1.01529
