B_R_ACALD 	 3.54989
F_R_ACONTa 	 7.26387
F_R_ACONTb 	 7.26387
F_R_ADK1 	 7.84537
F_R_ATPS4r 	 23.1963
R_BIOMASS_Ecoli_core_w_GAM 	 0.12544
R_CS 	 8.94387
R_CYTBD 	 21.9074
R_FBP 	 0.7229
F_R_FUM 	 5.31187
F_R_G6PDH2r 	 2.03057
F_R_GLUDy 	 4.14408
R_GLUN 	 0.855925
R_GND 	 0.2955
R_ICL 	 5.58387
B_R_LDH_D 	 5
R_MALS 	 0.583871
F_R_MDH 	 5.32474
R_NADH16 	 16.3235
R_NADTRHD 	 4.83593
R_PDH 	 13.5478
B_R_PGI 	 1.01129
R_PPC 	 8.84325
R_PPS 	 7.84837
R_SUCDi 	 5.58387
F_R_TALA 	 0.0452839
