F_R_ACONTa 	 8.45415
F_R_ACONTb 	 8.45415
F_R_ADK1 	 9.85937
F_R_ATPS4r 	 30.7729
R_BIOMASS_Ecoli_core_w_GAM 	 0.12544
R_CS 	 10.1342
R_CYTBD 	 28.6829
B_R_ENO 	 3.4703
B_R_FBA 	 1.56823
R_FBP 	 2.29113
F_R_FUM 	 6.50215
F_R_G6PDH2r 	 3.50824
B_R_GAPD 	 3.19793
F_R_GLUDy 	 4.14408
R_GLUN 	 0.855925
R_GND 	 0.2745
R_ICL 	 6.77415
B_R_LDH_D 	 1.79865
R_MALS 	 1.77417
F_R_MDH 	 7.70533
R_NADH16 	 21.9087
R_NADTRHD 	 6.29259
R_PDH 	 12.3785
B_R_PGI 	 2.48895
F_R_PGK 	 3.28264
F_R_PGM 	 3.4703
R_PPC 	 7.65295
R_PPS 	 10.1284
R_SUCDi 	 6.77415
F_R_TALA 	 0
B_R_TPI 	 1.56823
