B_R_ACALD 	 4.00059
F_R_ACONTa 	 7.12771
F_R_ACONTb 	 6.68
F_R_ADK1 	 9.27582
F_R_ATPS4r 	 26.0572
R_BIOMASS_Ecoli_core_w_GAM 	 0.12544
R_CS 	 8.80771
R_CYTBD 	 23.6065
R_FBP 	 0.7229
F_R_FUM 	 4.32913
F_R_G6PDH2r 	 1.01928
F_R_GLUDy 	 5
R_GLUSy 	 0.855925
R_GND 	 0.2745
R_ICL 	 5
F_R_MDH 	 3.75813
R_NADH16 	 19.0053
R_NADTRHD 	 3.80364
R_PDH 	 14.9992
R_PPC 	 10.2737
R_PPS 	 9.27882
F_R_PTAr 	 1.72078
R_SUCDi 	 4.60113
B_R_TALA 	 0.460361
B_R_TKT2 	 0.505645
