F_R_ACONTa 	 5.03701
F_R_ACONTb 	 5.03701
F_R_ADK1 	 6.58622
F_R_ATPS4r 	 21.3219
R_BIOMASS_Ecoli_core_w_GAM 	 0.131758
R_CS 	 6.71701
R_CYTBD 	 17.0575
R_FBP 	 0.7229
F_R_G6PDH2r 	 1.93598
F_R_GLUDy 	 5
R_GLUSy 	 0.854309
R_GND 	 0.2955
R_ICL 	 3.35701
B_R_LDH_D 	 5
R_MALS 	 3.35701
F_R_MDH 	 2.78601
R_NADH16 	 17.0575
R_NADTRHD 	 6.25284
R_PDH 	 12.5513
B_R_PGI 	 0.917994
R_PPC 	 7.84682
R_PPS 	 6.85522
F_R_PTAr 	 1.9835
B_R_TKT2 	 0.0475647
