F_R_ACONTa 	 5.36952
F_R_ACONTb 	 5.36952
F_R_ADK1 	 7.22756
F_R_ATPS4r 	 22.2267
R_BIOMASS_Ecoli_core_w_GAM 	 0.12544
R_CS 	 7.04952
R_CYTBD 	 17.7814
R_FBP 	 0.7229
F_R_G6PDH2r 	 1.01928
F_R_GLUDy 	 4.14408
R_GLUN 	 0.855925
R_GND 	 0.2955
R_ICL 	 3.68952
B_R_LDH_D 	 5
R_MALS 	 3.68952
F_R_MDH 	 3.11852
R_NADH16 	 17.7814
R_NADTRHD 	 3.82464
R_PDH 	 13.1959
R_PPC 	 8.49144
R_PPS 	 7.49656
F_R_PTAr 	 1.98678
B_R_TALA 	 0.460361
B_R_TKT2 	 0.505645
