F_R_ACONTa 	 10.1033
F_R_ACONTb 	 10.1033
F_R_ADK1 	 10.6767
F_R_ATPS4r 	 35.6144
R_BIOMASS_Ecoli_core_w_GAM 	 0.12544
R_CS 	 11.7833
R_CYTBD 	 33.5455
B_R_ENO 	 6.67711
B_R_FBA 	 3.21399
R_FBP 	 3.93689
F_R_FUM 	 8.15127
F_R_G6PDH2r 	 5
B_R_GAPD 	 6.48945
F_R_GLUDy 	 4.14408
R_GLUN 	 0.855925
R_GND 	 0.2745
R_ICL 	 8.42327
R_MALS 	 3.42327
F_R_MDH 	 11.0035
R_NADH16 	 25.1222
R_NADTRHD 	 9.43606
R_PDH 	 10.7271
R_PFL 	 4.94954
B_R_PGI 	 4.11072
F_R_PGK 	 6.48945
F_R_PGM 	 6.67711
R_PPC 	 6.00162
R_PPS 	 11.6838
R_SUCDi 	 8.42327
F_R_TALA 	 0
B_R_TPI 	 3.21399
