B_R_ACONTa 	 0.86
F_R_ACONTb 	 6.959
F_R_ADK1 	 14.2062
R_AKGDH 	 8.995
F_R_ATPS4r 	 17.3631
R_CYTBD 	 11.7245
F_R_ENO 	 7.67
F_R_FBA 	 1.53075
R_FRD7 	 3.61
B_R_FUM 	 5.226
F_R_G6PDH2r 	 0.237
F_R_GAPD 	 3.0615
R_GLCpts 	 8.26075
F_R_GLUDy 	 4.072
R_GLUSy 	 2.036
F_R_ICDHyr 	 6.959
B_R_MDH 	 14.9444
R_ME1 	 8.99044
R_NADH16 	 15.3345
R_NADTRHD 	 9.232
R_PFK 	 5.34675
F_R_PGI 	 5.89375
B_R_PGK 	 7.67
R_PGL 	 0.237
B_R_PGM 	 7.67
R_PPC 	 14.9444
R_PPS 	 14.4752
B_R_SUCOAS 	 8.995
F_R_TPI 	 1.53075
