B_R_ACONTa 	 0.86
F_R_ACONTb 	 7.12421
B_R_ADK1 	 0.269
F_R_ATPS4r 	 16.9667
R_CYTBD 	 11.5065
F_R_ENO 	 7.00914
F_R_FBA 	 1.33914
R_FRD7 	 3.44479
B_R_FUM 	 5.06079
F_R_G6PDH2r 	 0.237
F_R_GAPD 	 2.67829
R_GLCpts 	 8.06914
R_GLNS 	 19.0897
F_R_GLUDy 	 23.1617
R_GLUSy 	 21.1257
B_R_ICDHyr 	 2.036
R_ICL 	 9.16021
R_MALS 	 9.16021
R_ME2 	 3.37143
R_NADH16 	 14.9513
R_NADTRHD 	 3.60843
R_PDH 	 8.66457
R_PFK 	 5.15514
F_R_PGI 	 5.70214
B_R_PGK 	 7.00914
R_PGL 	 0.237
B_R_PGM 	 7.00914
B_R_PTAr 	 0.495643
F_R_TPI 	 1.33914
