B_R_ACONTa 	 0.86
F_R_ACONTb 	 6.959
F_R_ATPS4r 	 17.3631
R_CYTBD 	 11.7245
F_R_ENO 	 7.67
F_R_FBA 	 1.53075
R_FRD7 	 3.61
B_R_FUM 	 5.226
F_R_G6PDH2r 	 0.237
F_R_GAPD 	 3.0615
R_GLCpts 	 8.26075
R_GLNS 	 20.1556
F_R_GLUDy 	 2.036
R_GLUN 	 22.1916
B_R_ICDHyr 	 2.036
R_ICL 	 8.995
R_MALS 	 8.995
R_ME2 	 3.041
R_NADH16 	 15.3345
R_NADTRHD 	 3.278
R_PDH 	 8.995
R_PFK 	 5.34675
F_R_PGI 	 5.89375
B_R_PGK 	 7.67
R_PGL 	 0.237
B_R_PGM 	 7.67
R_PPS 	 0.269
R_PYK 	 0.73825
F_R_TPI 	 1.53075
