B_R_ACONTa 	 0.86
F_R_ACONTb 	 6.959
F_R_ADK1 	 5.52463
R_AKGDH 	 8.995
R_CYTBD 	 11.7245
F_R_ENO 	 7.67
F_R_FBA 	 1.53075
R_FRD7 	 3.61
B_R_FUM 	 5.226
F_R_G6PDH2r 	 0.237
F_R_GAPD 	 3.0615
R_GLCpts 	 8.26075
F_R_GLUDy 	 4.072
R_GLUSy 	 2.036
F_R_ICDHyr 	 6.959
B_R_MDH 	 6.26288
R_ME1 	 0.308875
R_NADH16 	 15.3345
R_NADTRHD 	 43.9583
R_PFK 	 5.34675
F_R_PGI 	 5.89375
B_R_PGK 	 7.67
R_PGL 	 0.237
B_R_PGM 	 7.67
R_PPC 	 6.26288
R_PPS 	 5.79363
B_R_SUCOAS 	 8.995
R_THD2 	 34.7263
F_R_TPI 	 1.53075
