M_glc__D_e	-8.093	-8.06914	-8.03958	-8.03958	-8.093	-8.093	-8.06914	-8.06914	-8.06914	-8.07276	-8.06914	-8.06914	-8.07276	-8.03958	-8.07276	-8.07276	-8.07276	-8.093	-8.093	-8.06914	-8.06914	-8.06914	-8.06914	-8.07276	-8.093	-8.06914	-8.06914	-8.093	-8.093	-8.03529	-8.03529	-8.03529	-8.26075	-8.26075	-8.26075	-8.26075	-8.26075	-8.26075	-8.26075	-8.26075	-8.26075	-8.26075	-8.26075	-8.26075	-8.26075	-8.26075	-8.26075	-8.26075	-8.26075	-8.26075	-8.26075	-8.26075	-8.26075	-8.26075	-8.26075	-8.26075	-8.26075	-8.26075	-8.26075	-8.26075	-8.26075	-8.26075	-8.26075	-8.26075	-8.26075	-8.26075	-8.26075	-8.26075	-8.26075	-8.26075	-8.26075	-8.26075	-8.26075	-8.26075	-8.26075	-8.26075	-8.26075	-8.26075	-8.26075	-8.26075	-8.26075	-8.26075	-8.26075	-8.26075	-8.26075	-8.26075	-8.26075	-8.26075	-8.26075	-8.26075	-8.26075	-8.26075	-8.26075	-8.26075	-8.26075	-8.26075	-8.26075	-8.26075	-8.26075	-8.26075	
M_gln__L_c	-2.036	-2.036	-2.036	-2.036	-2.036	-2.036	-2.036	-2.036	-2.036	-2.036	-2.036	-2.036	-2.036	-2.036	-2.036	-2.036	-2.036	-2.036	-2.036	-2.036	-2.036	-2.036	-2.036	-2.036	-2.036	-2.036	-2.036	-2.036	-2.036	-2.036	-2.036	-2.036	-2.036	-2.036	-2.036	-2.036	-2.036	-2.036	-2.036	-2.036	-2.036	-2.036	-2.036	-2.036	-2.036	-2.036	-2.036	-2.036	-2.036	-2.036	-2.036	-2.036	-2.036	-2.036	-2.036	-2.036	-2.036	-2.036	-2.036	-2.036	-2.036	-2.036	-2.036	-2.036	-2.036	-2.036	-2.036	-2.036	-2.036	-2.036	-2.036	-2.036	-2.036	-2.036	-2.036	-2.036	-2.036	-2.036	-2.036	-2.036	-2.036	-2.036	-2.036	-2.036	-2.036	-2.036	-2.036	-2.036	-2.036	-2.036	-2.036	-2.036	-2.036	-2.036	-2.036	-2.036	-2.036	-2.036	-2.036	-2.036	
M_gln__L_e	0	0	0	0	0	0	0	0	0	0	0	0	0	0	0	0	0	0	0	0	0	0	0	0	0	0	0	0	0	0	0	0	0	0	0	0	0	0	0	0	0	0	0	0	0	0	0	0	0	0	0	0	0	0	0	0	0	0	0	0	0	0	0	0	0	0	0	0	0	0	0	0	0	0	0	0	0	0	0	0	0	0	0	0	0	0	0	0	0	0	0	0	0	0	0	0	0	0	0	0	
M_glu__L_c	0	0	0	0	0	0	0	0	0	0	0	0	0	0	0	0	0	0	0	0	0	0	0	0	0	0	0	0	0	7.10543e-15	0	0	0	0	0	0	0	0	0	0	0	0	0	0	0	0	-1.77636e-15	0	0	0	0	0	0	0	0	0	0	0	0	0	0	0	0	0	0	0	0	0	0	0	0	0	0	0	0	0	0	0	0	0	0	0	0	0	7.10543e-15	0	0	0	0	0	0	0	0	0	0	0	0	0	0	0	
M_glu__L_e	0	0	0	0	0	0	0	0	0	0	0	0	0	0	0	0	0	0	0	0	0	0	0	0	0	0	0	0	0	0	0	0	0	0	0	0	0	0	0	0	0	0	0	0	0	0	0	0	0	0	0	0	0	0	0	0	0	0	0	0	0	0	0	0	0	0	0	0	0	0	0	0	0	0	0	0	0	0	0	0	0	0	0	0	0	0	0	0	0	0	0	0	0	0	0	0	0	0	0	0	
M_glx_c	0	0	0	0	0	0	0	0	0	0	0	0	0	0	0	0	0	0	0	0	0	0	0	0	0	0	0	0	0	0	0	0	0	0	0	0	0	0	0	0	0	0	0	0	0	0	0	0	0	0	0	0	0	0	0	0	0	0	0	0	0	0	0	0	0	0	0	0	0	0	0	0	0	0	0	0	0	0	0	0	0	0	0	0	0	0	0	0	0	0	0	0	0	0	0	0	0	0	0	0	
M_h2o_c	0	0	0	0	0	0	0	0	0	0	0	0	0	0	0	0	0	0	0	0	9.99999e-10	0	0	0	0	0	0	0	0	0	0	0	0.436	0.436	0.436	0.436	0.436	0.436	0.436	0.436	0.436	0.436	0.436	0.436	0.436	0.436	0.436	0.436	0.436	0.436	0.436	0.436	0.436	0.436	0.436	0.436	0.436	0.436	0.436	0.436	0.436	0.436	0.436	0.436	0.436	0.436	0.436	0.436	0.436	0.436	0.436	0.436	0.436	0.436	0.436	0.436	0.436	0.436	0.436	0.436	0.436	0.436	0.436	0.436	0.436	0.436	0.436	0.436	0.436	0.436	0.436	0.436	0.436	0.436	0.436	0.436	0.436	0.436	0.436	0.436	
M_h2o_e	0	0	0	0	0	0	0	0	0	0	0	0	0	0	0	0	0	0	0	0	0	0	0	0	0	0	0	0	0	0	0	0	0	0	0	0	0	0	0	0	0	0	0	0	0	0	0	0	0	0	0	0	0	0	0	0	0	0	0	0	0	0	0	0	0	0	0	0	0	0	0	0	0	0	0	0	0	0	0	0	0	0	0	0	0	0	0	0	0	0	0	0	0	0	0	0	0	0	0	0	
M_h_c	6.69325	6.67536	6.735	6.735	6.69325	6.69325	6.67536	6.67536	6.67536	6.735	6.735	6.67536	6.735	6.735	6.735	6.735	6.735	6.69325	6.69325	6.67536	6.67536	6.67536	6.735	6.735	6.69325	6.67536	6.67536	6.69325	6.69325	6.70921	6.70921	6.70921	7.171	7.171	7.171	7.171	7.171	7.171	7.171	7.171	7.171	7.171	7.171	7.171	7.171	7.171	7.171	7.171	7.171	7.171	7.171	7.171	7.171	7.171	7.171	7.171	7.171	7.171	7.171	7.171	7.171	7.171	7.171	7.171	7.171	7.171	7.171	7.171	7.171	7.171	7.171	7.171	7.171	7.171	7.171	7.171	7.171	7.171	7.171	7.171	7.171	7.171	7.171	7.171	7.171	7.171	7.171	7.171	7.171	7.171	7.171	7.171	7.171	7.171	7.171	7.171	7.171	7.171	7.171	7.171	
M_h_e	0	0	0	0	0	0	0	0	0	0	0	0	0	0	0	0	0	0	0	0	0	0	0	0	0	0	0	0	0	0	0	0	0	0	0	0	0	0	0	0	0	0	0	0	0	0	0	0	0	0	0	0	0	0	0	0	0	0	0	0	0	0	0	0	0	0	0	0	0	0	0	0	0	0	0	0	0	0	0	0	0	0	0	0	0	0	0	0	0	0	0	0	0	0	0	0	0	0	0	0	
M_icit_c	0	1.77636e-15	0	0	0	0	0	0	0	-7.10543e-15	0	0	0	1.77636e-15	0	0	0	0	0	0	0	0	0	0	0	0	0	0	0	0	0	0	0	0	0	0	0	0	0	0	0	0	0	0	0	0	0	0	0	0	0	0	0	0	0	0	0	0	0	0	0	0	0	0	0	0	0	0	2.66454e-15	0	0	0	0	0	0	0	0	0	0	0	0	0	0	0	0	0	0	0	0	0	0	0	0	0	1.77636e-15	-9.76996e-15	0	0	0	-8.88178e-15	
M_lac__D_c	0	0	0	0	0	0	0	0	0	0	0	0	0	0	0	0	0	0	0	0	0	0	0	0	0	0	0	0	0	0	0	0	0	0	0	0	0	0	0	0	0	0	0	0	0	0	0	0	0	0	0	0	0	0	0	0	0	0	0	0	0	0	0	0	0	0	0	0	0	0	0	0	0	0	0	0	0	0	0	0	0	0	0	0	0	0	0	0	0	0	0	0	0	0	0	0	0	0	0	0	
M_lac__D_e	0	0	0	0	0	0	0	0	0	0	0	0	0	0	0	0	0	0	0	0	0	0	0	0	0	0	0	0	0	0	0	0	0	0	0	0	0	0	0	0	0	0	0	0	0	0	0	0	0	0	0	0	0	0	0	0	0	0	0	0	0	0	0	0	0	0	0	0	0	0	0	0	0	0	0	0	0	0	0	0	0	0	0	0	0	0	0	0	0	0	0	0	0	0	0	0	0	0	0	0	
M_mal__L_c	0.728	0.728	0.728	0.728	0.728	0.728	0.728	0.728	0.728	0.728	0.728	0.728	0.728	0.728	0.728	0.728	0.728	0.728	0.728	0.728	0.728	0.728	0.728	0.728	0.728	0.728	0.728	0.728	0.728	0.728	0.728	0.728	0.728	0.728	0.728	0.728	0.728	0.728	0.728	0.728	0.728	0.728	0.728	0.728	0.728	0.728	0.728	0.728	0.728	0.728	0.728	0.728	0.728	0.728	0.728	0.728	0.728	0.728	0.728	0.728	0.728	0.728	0.728	0.728	0.728	0.728	0.728	0.728	0.728	0.728	0.728	0.728	0.728	0.728	0.728	0.728	0.728	0.728	0.728	0.728	0.728	0.728	0.728	0.728	0.728	0.728	0.728	0.728	0.728	0.728	0.728	0.728	0.728	0.728	0.728	0.728	0.728	0.728	0.728	0.728	
M_mal__L_e	0	0	0	0	0	0	0	0	0	0	0	0	0	0	0	0	0	0	0	0	0	0	0	0	0	0	0	0	0	0	0	0	0	0	0	0	0	0	0	0	0	0	0	0	0	0	0	0	0	0	0	0	0	0	0	0	0	0	0	0	0	0	0	0	0	0	0	0	0	0	0	0	0	0	0	0	0	0	0	0	0	0	0	0	0	0	0	0	0	0	0	0	0	0	0	0	0	0	0	0	
M_nad_c	0	0	0	0	0	0	0	0	0	0	0	0	0	0	0	0	0	0	0	0	0	0	0	0	0	0	0	0	0	0	0	0	0	0	0	0	0	0	0	0	0	0	0	0	0	0	0	0	0	0	0	0	0	0	0	0	0	0	0	0	0	0	0	0	0	0	0	0	0	0	0	0	0	0	0	0	0	0	0	0	0	0	0	0	0	0	0	0	0	0	0	0	0	0	0	0	0	0	0	0	
M_13dpg_c	-4.3905	-4.33086	-4.3905	-4.3905	-4.3905	-4.3905	-4.33086	-4.33086	-4.33086	-4.35255	-4.33086	-4.33086	-4.35255	-4.3905	-4.35255	-4.35255	-4.35255	-4.3905	-4.3905	-4.33086	-4.33086	-4.33086	-4.33086	-4.35255	-4.3905	-4.33086	-4.33086	-4.3905	-4.3905	-4.36471	-4.36471	-4.36471	-4.6085	-4.6085	-4.6085	-4.6085	-4.6085	-4.6085	-4.6085	-4.6085	-4.6085	-4.6085	-4.6085	-4.6085	-4.6085	-4.6085	-4.6085	-4.6085	-4.6085	-4.6085	-4.6085	-4.6085	-4.6085	-4.6085	-4.6085	-4.6085	-4.6085	-4.6085	-4.6085	-4.6085	-4.6085	-4.6085	-4.6085	-4.6085	-4.6085	-4.6085	-4.6085	-4.6085	-4.6085	-4.6085	-4.6085	-4.6085	-4.6085	-4.6085	-4.6085	-4.6085	-4.6085	-4.6085	-4.6085	-4.6085	-4.6085	-4.6085	-4.6085	-4.6085	-4.6085	-4.6085	-4.6085	-4.6085	-4.6085	-4.6085	-4.6085	-4.6085	-4.6085	-4.6085	-4.6085	-4.6085	-4.6085	-4.6085	-4.6085	-4.6085	
M_nadh_c	0	0	0	0	0	0	0	0	0	0	0	0	0	0	0	0	0	0	0	0	0	0	0	0	0	0	0	0	0	0	0	0	0	0	0	0	0	0	0	0	0	0	0	0	0	0	0	0	0	0	0	0	0	0	0	0	0	0	0	0	0	0	0	0	0	0	0	0	0	0	0	0	0	0	0	0	0	0	0	0	0	0	0	0	0	0	0	0	0	0	0	0	0	0	0	0	0	0	0	0	
M_nadp_c	0	0	0	0	0	0	0	0	1.42109e-14	-8.88178e-16	-1.11022e-16	0	0	0	0	0	0	0	-3.10862e-15	-3.10862e-15	0	0	0	0	0	-1.11022e-16	7.10543e-15	0	0	3.9968e-15	0	0	0	0	0	0	0	0	0	0	0	0	0	0	0	0	0	0	0	-7.10543e-15	0	-7.10543e-15	0	0	0	0	0	0	0	0	0	0	-1.11022e-16	0	0	0	0	0	2.13163e-14	0	0	7.10543e-15	0	0	1.77636e-15	0	0	-1.11022e-16	0	-7.10543e-15	0	8.88178e-16	0	0	4.44089e-16	0	0	0	0	7.10543e-15	0	0	0	0	3.55271e-15	0	0	0	0	-7.10543e-15	
M_nadph_c	0	0	0	0	0	0	0	0	-1.42109e-14	8.88178e-16	1.11022e-16	0	0	0	0	0	0	0	3.10862e-15	3.10862e-15	0	0	0	0	0	1.11022e-16	-7.10543e-15	0	0	-3.9968e-15	0	0	0	0	0	0	0	0	0	0	0	0	0	0	0	0	0	0	0	7.10543e-15	0	7.10543e-15	0	0	0	0	0	0	0	0	0	0	1.11022e-16	0	0	0	0	0	-2.13163e-14	0	0	-7.10543e-15	0	0	-1.77636e-15	0	0	1.11022e-16	0	7.10543e-15	0	-8.88178e-16	0	0	-4.44089e-16	0	0	0	0	-7.10543e-15	0	0	0	0	-3.55271e-15	0	0	0	0	7.10543e-15	
M_nh4_c	4.072	4.072	4.072	4.072	4.072	4.072	4.072	4.072	4.072	4.072	4.072	4.072	4.072	4.072	4.072	4.072	4.072	4.072	4.072	4.072	4.072	4.072	4.072	4.072	4.072	4.072	4.072	4.072	4.072	4.072	4.072	4.072	4.072	4.072	4.072	4.072	4.072	4.072	4.072	4.072	4.072	4.072	4.072	4.072	4.072	4.072	4.072	4.072	4.072	4.072	4.072	4.072	4.072	4.072	4.072	4.072	4.072	4.072	4.072	4.072	4.072	4.072	4.072	4.072	4.072	4.072	4.072	4.072	4.072	4.072	4.072	4.072	4.072	4.072	4.072	4.072	4.072	4.072	4.072	4.072	4.072	4.072	4.072	4.072	4.072	4.072	4.072	4.072	4.072	4.072	4.072	4.072	4.072	4.072	4.072	4.072	4.072	4.072	4.072	4.072	
M_nh4_e	0	0	0	0	0	0	0	0	0	0	0	0	0	0	0	0	0	0	0	0	0	0	0	0	0	0	0	0	0	0	0	0	0	0	0	0	0	0	0	0	0	0	0	0	0	0	0	0	0	0	0	0	0	0	0	0	0	0	0	0	0	0	0	0	0	0	0	0	0	0	0	0	0	0	0	0	0	0	0	0	0	0	0	0	0	0	0	0	0	0	0	0	0	0	0	0	0	0	0	0	
M_2pg_c	0	0	0	0	0	0	0	0	0	0	0	0	0	0	0	0	0	0	0	0	0	0	0	0	0	0	0	0	0	0	0	0	0	0	0	0	0	0	0	0	0	0	0	0	0	0	0	0	0	0	0	0	0	0	0	0	0	0	0	0	0	0	0	0	0	0	0	0	0	0	0	0	0	0	0	0	0	0	0	0	0	0	0	0	0	0	0	0	0	0	0	0	0	0	0	0	0	0	0	0	
M_o2_c	-5.75325	-5.75325	-5.75325	-5.75325	-5.75325	-5.75325	-5.75325	-5.75325	-5.75325	-5.77223	-5.78307	-5.75325	-5.77223	-5.75325	-5.77223	-5.77223	-5.77223	-5.75325	-5.75325	-5.75325	-5.75325	-5.75325	-5.78307	-5.77223	-5.75325	-5.75325	-5.75325	-5.75325	-5.75325	-5.75325	-5.75325	-5.75325	-5.86225	-5.86225	-5.86225	-5.86225	-5.86225	-5.86225	-5.86225	-5.86225	-5.86225	-5.86225	-5.86225	-5.86225	-5.86225	-5.86225	-5.86225	-5.86225	-5.86225	-5.86225	-5.86225	-5.86225	-5.86225	-5.86225	-5.86225	-5.86225	-5.86225	-5.86225	-5.86225	-5.86225	-5.86225	-5.86225	-5.86225	-5.86225	-5.86225	-5.86225	-5.86225	-5.86225	-5.86225	-5.86225	-5.86225	-5.86225	-5.86225	-5.86225	-5.86225	-5.86225	-5.86225	-5.86225	-5.86225	-5.86225	-5.86225	-5.86225	-5.86225	-5.86225	-5.86225	-5.86225	-5.86225	-5.86225	-5.86225	-5.86225	-5.86225	-5.86225	-5.86225	-5.86225	-5.86225	-5.86225	-5.86225	-5.86225	-5.86225	-5.86225	
M_3pg_c	0	0	0	0	0	0	0	0	0	0	0	0	0	0	0	0	0	0	0	0	0	0	0	0	0	0	0	0	0	0	0	0	0	0	0	0	0	0	0	0	0	0	0	0	0	0	0	0	0	0	0	0	0	0	0	0	0	0	0	0	0	0	0	0	0	0	0	0	0	0	0	0	0	0	0	0	0	0	0	0	0	0	0	0	0	0	0	0	0	0	0	0	0	0	0	0	0	0	0	0	
M_o2_e	0	0	0	0	0	0	0	0	0	0	0	0	0	0	0	0	0	0	0	0	0	0	0	0	0	0	0	0	0	0	0	0	0	0	0	0	0	0	0	0	0	0	0	0	0	0	0	0	0	0	0	0	0	0	0	0	0	0	0	0	0	0	0	0	0	0	0	0	0	0	0	0	0	0	0	0	0	0	0	0	0	0	0	0	0	0	0	0	0	0	0	0	0	0	0	0	0	0	0	0	
M_oaa_c	0	1.80431e-12	0	0	0	0	0	0	0	0	0	0	0	0	0	0	0	0	0	0	0	0	0	0	0	-8.44037e-13	0	0	0	0	0	0	0	0	0	0	0	0	0	0	0	0	0	0	0	0	0	0	0	0	0	0	8.88178e-16	0	0	0	0	0	0	1.77636e-15	0	0	0	0	0	0	0	0	0	0	0	0	0	0	0	0	0	0	0	0	0	0	0	0	0	0	0	0	0	0	0	0	0	0	0	0	0	0	0	0	
M_6pgc_c	0.237	0.237	0.237	0.237	0.237	0.237	0.237	0.237	0.237	0.237	0.237	0.237	0.237	0.237	0.237	0.237	0.237	0.237	0.237	0.237	0.237	0.237	0.237	0.237	0.237	0.237	0.237	0.237	0.237	0.237	0.237	0.237	0.237	0.237	0.237	0.237	0.237	0.237	0.237	0.237	0.237	0.237	0.237	0.237	0.237	0.237	0.237	0.237	0.237	0.237	0.237	0.237	0.237	0.237	0.237	0.237	0.237	0.237	0.237	0.237	0.237	0.237	0.237	0.237	0.237	0.237	0.237	0.237	0.237	0.237	0.237	0.237	0.237	0.237	0.237	0.237	0.237	0.237	0.237	0.237	0.237	0.237	0.237	0.237	0.237	0.237	0.237	0.237	0.237	0.237	0.237	0.237	0.237	0.237	0.237	0.237	0.237	0.237	0.237	0.237	
M_pep_c	-1.06	-1.06	-1.06	-1.06	-1.06	-1.06	-1.06	-1.06	-1.06	-1.06	-1.06	-1.06	-1.06	-1.06	-1.06	-1.06	-1.06	-1.06	-1.06	-1.06	-1.06	-1.06	-1.06	-1.06	-1.06	-1.06	-1.06	-1.06	-1.06	-1.06	-1.06	-1.06	-1.06	-1.06	-1.06	-1.06	-1.06	-1.06	-1.06	-1.06	-1.06	-1.06	-1.06	-1.06	-1.06	-1.06	-1.06	-1.06	-1.06	-1.06	-1.06	-1.06	-1.06	-1.06	-1.06	-1.06	-1.06	-1.06	-1.06	-1.06	-1.06	-1.06	-1.06	-1.06	-1.06	-1.06	-1.06	-1.06	-1.06	-1.06	-1.06	-1.06	-1.06	-1.06	-1.06	-1.06	-1.06	-1.06	-1.06	-1.06	-1.06	-1.06	-1.06	-1.06	-1.06	-1.06	-1.06	-1.06	-1.06	-1.06	-1.06	-1.06	-1.06	-1.06	-1.06	-1.06	-1.06	-1.06	-1.06	-1.06	
M_6pgl_c	0.04175	0	-1.22125e-15	-3.33067e-16	0.04175	0.04175	0	0	0	0	0	0	0	1.44329e-15	0	0	0	0.04175	0.04175	0	1e-09	0	0	0	0.04175	0	0	0.04175	0.04175	0	0	0	0	0	1.11022e-16	0	0	0	0	0	0	0	0	0	1.11022e-16	0	0	-2.22045e-16	-1.88738e-15	-3.55271e-15	0	0	1.11022e-16	0	1.11022e-16	1.11022e-16	0	0	0	0	0	0	0	0	0	1.11022e-16	0	0	0	0	0	0	0	0	0	0	0	0	0	0	0	0	0	9.42579e-14	0	0	0	0	0	0	1.11022e-16	1.11022e-16	0	0	-1.85629e-13	0	0	0	1.11022e-16	0	
M_pi_c	0	-0.0596429	0	0	0	0	-0.0596429	-0.0596429	-0.0596429	0	0	-0.0596429	0	0	0	0	0	0	0	-0.0596429	-0.0596429	-0.0596429	0	0	0	-0.0596429	-0.0596429	0	0	-0.0257857	-0.0257857	-0.0257857	0	0	0	0	0	0	0	0	0	0	0	0	0	0	0	0	0	0	0	0	0	0	0	0	0	0	0	0	0	0	0	0	0	0	0	0	0	0	0	0	0	0	0	0	0	0	0	0	0	0	0	0	0	0	0	0	0	0	0	0	0	0	0	0	0	0	0	0	
M_ac_c	0	0	0	0	0	0	0	0	0	0	0	0	0	0	0	0	0	0	0	0	0	0	0	0	0	0	0	0	0	0	0	0	0	0	0	0	0	0	0	0	0	0	0	0	0	0	0	0	0	0	0	0	0	0	0	0	0	0	0	0	0	0	0	0	0	0	0	0	0	0	0	0	0	0	0	0	0	0	0	0	0	0	0	0	0	0	0	0	0	0	0	0	0	0	0	0	0	0	0	0	
M_pi_e	0	0	0	0	0	0	0	0	0	0	0	0	0	0	0	0	0	0	0	0	0	0	0	0	0	0	0	0	0	0	0	0	0	0	0	0	0	0	0	0	0	0	0	0	0	0	0	0	0	0	0	0	0	0	0	0	0	0	0	0	0	0	0	0	0	0	0	0	0	0	0	0	0	0	0	0	0	0	0	0	0	0	0	0	0	0	0	0	0	0	0	0	0	0	0	0	0	0	0	0	
M_pyr_c	2.776	2.776	2.776	2.776	2.776	2.776	2.776	2.776	2.776	2.776	2.776	2.776	2.776	2.776	2.776	2.776	2.776	2.776	2.776	2.776	2.776	2.776	2.776	2.776	2.776	2.776	2.776	2.776	2.776	2.776	2.776	2.776	2.776	2.776	2.776	2.776	2.776	2.776	2.776	2.776	2.776	2.776	2.776	2.776	2.776	2.776	2.776	2.776	2.776	2.776	2.776	2.776	2.776	2.776	2.776	2.776	2.776	2.776	2.776	2.776	2.776	2.776	2.776	2.776	2.776	2.776	2.776	2.776	2.776	2.776	2.776	2.776	2.776	2.776	2.776	2.776	2.776	2.776	2.776	2.776	2.776	2.776	2.776	2.776	2.776	2.776	2.776	2.776	2.776	2.776	2.776	2.776	2.776	2.776	2.776	2.776	2.776	2.776	2.776	2.776	
M_pyr_e	0	0	0	0	0	0	0	0	0	0	0	0	0	0	0	0	0	0	0	0	0	0	0	0	0	0	0	0	0	0	0	0	0	0	0	0	0	0	0	0	0	0	0	0	0	0	0	0	0	0	0	0	0	0	0	0	0	0	0	0	0	0	0	0	0	0	0	0	0	0	0	0	0	0	0	0	0	0	0	0	0	0	0	0	0	0	0	0	0	0	0	0	0	0	0	0	0	0	0	0	
M_q8_c	0	0	-1.77636e-15	0	0	0	0	0	0	0	0	0	0	1.77636e-15	0	0	0	0	-1.77636e-15	0	0	0	0	0	0	0	0	1.77636e-15	0	0	0	0	0	0	0	0	0	0	0	1.77636e-15	0	0	0	-1.77636e-15	0	-1.77636e-15	5.32907e-15	0	0	0	0	0	0	0	0	0	0	1.77636e-15	1.77636e-15	0	0	0	0	0	0	0	0	0	0	0	0	0	0	1.77636e-15	0	0	0	0	0	0	0	0	0	-1.77636e-15	0	0	0	5.32907e-15	0	0	0	0	0	0	0	0	0	-1.77636e-15	1.77636e-15	0	
M_ac_e	0	0	0	0	0	0	0	0	0	0	0	0	0	0	0	0	0	0	0	0	0	0	0	0	0	0	0	0	0	0	0	0	0	0	0	0	0	0	0	0	0	0	0	0	0	0	0	0	0	0	0	0	0	0	0	0	0	0	0	0	0	0	0	0	0	0	0	0	0	0	0	0	0	0	0	0	0	0	0	0	0	0	0	0	0	0	0	0	0	0	0	0	0	0	0	0	0	0	0	0	
M_q8h2_c	0	0	1.77636e-15	0	0	0	0	0	0	0	0	0	0	-1.77636e-15	0	0	0	0	1.77636e-15	0	0	0	0	0	0	0	0	-1.77636e-15	0	0	0	0	0	0	0	0	0	0	0	-1.77636e-15	0	0	0	1.77636e-15	0	1.77636e-15	-5.32907e-15	0	0	0	0	0	0	0	0	0	0	-1.77636e-15	-1.77636e-15	0	0	0	0	0	0	0	0	0	0	0	0	0	0	-1.77636e-15	0	0	0	0	0	0	0	0	0	1.77636e-15	0	0	0	-5.32907e-15	0	0	0	0	0	0	0	0	0	1.77636e-15	-1.77636e-15	0	
M_acald_c	0	0	0	0	0	0	0	0	0	0	0	0	0	0	0	0	0	0	0	0	0	0	0	0	0	0	0	0	0	0	0	0	0	0	0	0	0	0	0	0	0	0	0	0	0	0	0	0	0	0	0	0	0	0	0	0	0	0	0	0	0	0	0	0	0	0	0	0	0	0	0	0	0	0	0	0	0	0	0	0	0	0	0	0	0	0	0	0	0	0	0	0	0	0	0	0	0	0	0	0	
M_r5p_c	0	0	0	0	0	0	0	0	0	0	0	0	0	0	0	0	0	0	0	0	0	0	0	0	0	0	0	0	0	0	0	0	0	0	0	0	0	0	0	0	0	0	0	0	0	0	0	0	0	0	0	0	0	0	0	0	0	0	0	0	0	0	0	0	0	0	0	0	0	0	0	0	0	0	0	0	0	0	0	0	0	0	0	0	0	0	0	0	0	0	0	0	0	0	0	0	0	0	0	0	
M_acald_e	0	0	0	0	0	0	0	0	0	0	0	0	0	0	0	0	0	0	0	0	0	0	0	0	0	0	0	0	0	0	0	0	0	0	0	0	0	0	0	0	0	0	0	0	0	0	0	0	0	0	0	0	0	0	0	0	0	0	0	0	0	0	0	0	0	0	0	0	0	0	0	0	0	0	0	0	0	0	0	0	0	0	0	0	0	0	0	0	0	0	0	0	0	0	0	0	0	0	0	0	
M_ru5p__D_c	0	0	0	0	0	0	0	0	0	0	0	0	0	0	0	0	0	0	0	0	0	0	0	0	0	0	0	0	0	0	0	0	0	0	0	0	0	0	0	0	0	0	0	0	0	0	0	0	0	0	0	0	0	0	0	0	0	0	0	0	0	0	0	0	0	0	0	0	0	0	0	0	0	0	0	0	0	0	0	0	0	0	0	0	0	0	0	0	0	0	0	0	0	0	0	0	0	0	0	0	
M_accoa_c	0	0	-5.32907e-15	0	0	3.55271e-15	0	0	0	-1.11022e-16	4.44089e-16	0	1.77636e-15	-4.44089e-16	4.44089e-15	-5.32907e-15	7.99361e-15	8.88178e-16	0	0	0	0	3.55271e-15	-8.88178e-15	0	0	0	1.77636e-15	-1.77636e-15	-1.11022e-15	0	0	0	0	0	-3.55271e-15	7.10543e-15	5.32907e-15	3.55271e-15	8.88178e-15	3.55271e-15	5.32907e-15	1.77636e-15	0	3.55271e-15	0	0	0	0	0	0	0	0	0	0	0	0	0	0	0	0	0	0	5.32907e-15	0	-1.77636e-15	0	0	0	0	-1.77636e-15	-1.77636e-15	-1.77636e-15	0	0	0	-8.88178e-15	0	5.32907e-15	0	0	0	-3.55271e-15	4.26326e-14	1.77636e-15	0	-1.77636e-15	0	-1.77636e-15	0	-1.77636e-15	-1.77636e-15	-1.77636e-15	-1.77636e-15	0	0	-1.77636e-15	0	0	1.59872e-14	
M_s7p_c	0	0	0	0	0	0	0	0	0	0	0	0	0	0	0	0	0	0	0	0	0	0	0	0	0	0	0	0	0	0	0	0	0	0	0	0	0	0	0	0	0	0	0	0	0	0	0	0	0	0	0	0	0	0	0	0	0	0	0	0	0	0	0	0	0	0	0	0	0	0	0	0	0	0	0	0	0	0	0	0	0	0	0	0	0	0	0	0	0	0	0	0	0	0	0	0	0	0	0	0	
M_succ_c	12.605	12.605	12.605	12.605	12.605	12.605	12.605	12.605	12.605	12.605	12.605	12.605	12.605	12.605	12.605	12.605	12.605	12.605	12.605	12.605	12.605	12.605	12.605	12.605	12.605	12.605	12.605	12.605	12.605	12.605	12.605	12.605	12.605	12.605	12.605	12.605	12.605	12.605	12.605	12.605	12.605	12.605	12.605	12.605	12.605	12.605	12.605	12.605	12.605	12.605	12.605	12.605	12.605	12.605	12.605	12.605	12.605	12.605	12.605	12.605	12.605	12.605	12.605	12.605	12.605	12.605	12.605	12.605	12.605	12.605	12.605	12.605	12.605	12.605	12.605	12.605	12.605	12.605	12.605	12.605	12.605	12.605	12.605	12.605	12.605	12.605	12.605	12.605	12.605	12.605	12.605	12.605	12.605	12.605	12.605	12.605	12.605	12.605	12.605	12.605	
M_acon_C_c	-7.97825	-7.98421	-7.80633	-7.80633	-7.97825	-7.97825	-7.98421	-7.98421	-7.98421	-7.96433	-7.96433	-7.98421	-7.96433	-7.80633	-7.96433	-7.96433	-7.96433	-7.97825	-7.97825	-7.98421	-7.98421	-7.98421	-7.96433	-7.96433	-7.97825	-7.98421	-7.98421	-7.97825	-7.97825	-7.81493	-7.81493	-7.81493	-7.819	-7.819	-7.819	-7.819	-7.819	-7.819	-7.819	-7.819	-7.819	-7.819	-7.819	-7.819	-7.819	-7.819	-7.819	-7.819	-7.819	-7.819	-7.819	-7.819	-7.819	-7.819	-7.819	-7.819	-7.819	-7.819	-7.819	-7.819	-7.819	-7.819	-7.819	-7.819	-7.819	-7.819	-7.819	-7.819	-7.819	-7.819	-7.819	-7.819	-7.819	-7.819	-7.819	-7.819	-7.819	-7.819	-7.819	-7.819	-7.819	-7.819	-7.819	-7.819	-7.819	-7.819	-7.819	-7.819	-7.819	-7.819	-7.819	-7.819	-7.819	-7.819	-7.819	-7.819	-7.819	-7.819	-7.819	-7.819	
M_succ_e	0	0	0	0	0	0	0	0	0	0	0	0	0	0	0	0	0	0	0	0	0	0	0	0	0	0	0	0	0	0	0	0	0	0	0	0	0	0	0	0	0	0	0	0	0	0	0	0	0	0	0	0	0	0	0	0	0	0	0	0	0	0	0	0	0	0	0	0	0	0	0	0	0	0	0	0	0	0	0	0	0	0	0	0	0	0	0	0	0	0	0	0	0	0	0	0	0	0	0	0	
M_actp_c	-0.47775	-0.495643	-0.436	-0.436	-0.47775	-0.47775	-0.495643	-0.495643	-0.495643	-0.511909	-0.555286	-0.495643	-0.511909	-0.436	-0.511909	-0.511909	-0.511909	-0.47775	-0.47775	-0.495643	-0.495643	-0.495643	-0.555286	-0.511909	-0.47775	-0.495643	-0.495643	-0.47775	-0.47775	-0.461786	-0.461786	-0.461786	0	0	0	0	0	0	0	0	0	0	0	0	0	0	0	0	0	0	1.43263e-12	5.03153e-13	0	0	0	0	0	0	0	0	0	0	0	0	0	0	0	0	0	0	0	0	0	0	0	0	0	0	0	0	0	0	0	0	0	0	0	0	0	0	0	0	0	0	-1.84741e-13	0	0	0	0	0	
M_succoa_c	0	0	0	0	0	0	0	0	0	0	0	0	0	0	0	0	0	0	0	0	0	0	0	0	0	0	0	0	0	0	0	0	0	0	0	0	0	0	0	0	0	0	0	1.77636e-15	0	1.77636e-15	0	0	0	0	0	0	0	0	0	0	0	0	0	-1.77636e-15	0	0	0	0	0	0	0	0	0	0	0	0	0	0	0	0	0	0	0	0	0	0	0	0	0	0	0	0	0	0	0	0	0	0	0	0	0	0	0	0	
M_adp_c	-0.269	-0.269	-0.269	-0.269	-0.269	-0.269	-0.269	-0.269	-0.269	-0.269	-0.269	-0.269	-0.269	-0.269	-0.269	-0.269	-0.269	-0.269	-0.269	-0.269	-0.269	-0.269	-0.269	-0.269	-0.269	-0.269	-0.269	-0.269	-0.269	-0.269	-0.269	-0.269	-0.269	-0.269	-0.269	-0.269	-0.269	-0.269	-0.269	-0.269	-0.269	-0.269	-0.269	-0.269	-0.269	-0.269	-0.269	-0.269	-0.269	-0.269	-0.269	-0.269	-0.269	-0.269	-0.269	-0.269	-0.269	-0.269	-0.269	-0.269	-0.269	-0.269	-0.269	-0.269	-0.269	-0.269	-0.269	-0.269	-0.269	-0.269	-0.269	-0.269	-0.269	-0.269	-0.269	-0.269	-0.269	-0.269	-0.269	-0.269	-0.269	-0.269	-0.269	-0.269	-0.269	-0.269	-0.269	-0.269	-0.269	-0.269	-0.269	-0.269	-0.269	-0.269	-0.269	-0.269	-0.269	-0.269	-0.269	-0.269	
M_xu5p__D_c	0	0	0	0	0	0	0	0	0	0	0	0	0	0	0	0	0	0	0	0	0	0	0	0	0	0	0	0	0	0	0	0	0	0	0	0	0	0	0	0	0	0	0	0	0	0	0	0	0	0	0	0	0	0	0	0	0	0	0	0	0	0	0	0	0	0	0	0	0	0	0	0	0	0	0	0	0	0	0	0	0	0	0	0	0	0	0	0	0	0	0	0	0	0	0	0	0	0	0	0	
M_akg_c	0	0	-0.237	-0.237	0	0	0	0	-4.44089e-16	0	0	0	0	-0.237	0	0	0	-4.44089e-16	1.33227e-15	1.33227e-15	0	0	0	0	0	0	0	0	0	-0.237	-0.237	-0.237	0	0	0	0	0	0	0	0	0	0	0	0	0	0	0	0	0	0	0	6.21725e-15	0	0	0	0	0	0	0	0	0	0	0	0	0	0	0	0	-2.66454e-15	0	0	0	0	0	0	-2.66454e-15	0	0	0	0	1.77636e-15	0	0	-4.44089e-16	-2.22045e-15	0	0	0	0	0	0	0	0	0	0	0	0	0	0	9.32587e-15	
M_akg_e	0	0	0	0	0	0	0	0	0	0	0	0	0	0	0	0	0	0	0	0	0	0	0	0	0	0	0	0	0	0	0	0	0	0	0	0	0	0	0	0	0	0	0	0	0	0	0	0	0	0	0	0	0	0	0	0	0	0	0	0	0	0	0	0	0	0	0	0	0	0	0	0	0	0	0	0	0	0	0	0	0	0	0	0	0	0	0	0	0	0	0	0	0	0	0	0	0	0	0	0	
M_amp_c	0.269	0.269	0.269	0.269	0.269	0.269	0.269	0.269	0.269	0.269	0.269	0.269	0.269	0.269	0.269	0.269	0.269	0.269	0.269	0.269	0.269	0.269	0.269	0.269	0.269	0.269	0.269	0.269	0.269	0.269	0.269	0.269	0.269	0.269	0.269	0.269	0.269	0.269	0.269	0.269	0.269	0.269	0.269	0.269	0.269	0.269	0.269	0.269	0.269	0.269	0.269	0.269	0.269	0.269	0.269	0.269	0.269	0.269	0.269	0.269	0.269	0.269	0.269	0.269	0.269	0.269	0.269	0.269	0.269	0.269	0.269	0.269	0.269	0.269	0.269	0.269	0.269	0.269	0.269	0.269	0.269	0.269	0.269	0.269	0.269	0.269	0.269	0.269	0.269	0.269	0.269	0.269	0.269	0.269	0.269	0.269	0.269	0.269	0.269	0.269	
M_atp_c	0	0	0	0	0	0	0	0	0	0	0	0	0	0	0	0	0	0	0	0	0	0	0	0	0	0	0	0	0	0	0	0	0	0	0	0	0	0	0	0	0	0	0	0	0	0	0	0	0	0	0	0	0	0	0	0	0	0	0	0	0	0	0	0	0	0	0	0	0	0	0	0	0	0	0	0	0	0	0	0	0	0	0	0	0	0	0	0	0	0	0	0	0	0	0	0	0	0	0	0	
M_cit_c	0.86	0.86	0.86	0.86	0.86	0.86	0.86	0.86	0.86	0.86	0.86	0.86	0.86	0.86	0.86	0.86	0.86	0.86	0.86	0.86	0.86	0.86	0.86	0.86	0.86	0.86	0.86	0.86	0.86	0.86	0.86	0.86	0.86	0.86	0.86	0.86	0.86	0.86	0.86	0.86	0.86	0.86	0.86	0.86	0.86	0.86	0.86	0.86	0.86	0.86	0.86	0.86	0.86	0.86	0.86	0.86	0.86	0.86	0.86	0.86	0.86	0.86	0.86	0.86	0.86	0.86	0.86	0.86	0.86	0.86	0.86	0.86	0.86	0.86	0.86	0.86	0.86	0.86	0.86	0.86	0.86	0.86	0.86	0.86	0.86	0.86	0.86	0.86	0.86	0.86	0.86	0.86	0.86	0.86	0.86	0.86	0.86	0.86	0.86	0.86	
M_co2_c	10	10	10	10	10	10	10	10	10	10	10	10	10	10	10	10	10	10	10	10	10	10	10	10	10	10	10	10	10	10	10	10	10	10	10	10	10	10	10	10	10	10	10	10	10	10	10	10	10	10	10	10	10	10	10	10	10	10	10	10	10	10	10	10	10	10	10	10	10	10	10	10	10	10	10	10	10	10	10	10	10	10	10	10	10	10	10	10	10	10	10	10	10	10	10	10	10	10	10	10	
M_co2_e	0	0	0	0	0	0	0	0	0	0	0	0	0	0	0	0	0	0	0	0	0	0	0	0	0	0	0	0	0	0	0	0	0	0	0	0	0	0	0	0	0	0	0	0	0	0	0	0	0	0	0	0	0	0	0	0	0	0	0	0	0	0	0	0	0	0	0	0	0	0	0	0	0	0	0	0	0	0	0	0	0	0	0	0	0	0	0	0	0	0	0	0	0	0	0	0	0	0	0	0	
M_coa_c	0	0	5.55112e-15	0	0	-3.55271e-15	0	0	0	1.11022e-16	-4.44089e-16	0	-1.77636e-15	4.44089e-16	-4.44089e-15	5.32907e-15	-7.99361e-15	-8.88178e-16	0	0	0	0	-3.55271e-15	8.88178e-15	0	0	0	-1.77636e-15	1.77636e-15	1.11022e-15	0	0	0	0	0	3.55271e-15	-7.10543e-15	-5.32907e-15	-3.55271e-15	-8.88178e-15	-3.55271e-15	-5.32907e-15	-1.77636e-15	-1.77636e-15	-3.55271e-15	-1.77636e-15	0	0	0	0	-1.77636e-15	0	0	0	0	0	0	0	0	1.77636e-15	0	0	0	-5.32907e-15	0	1.77636e-15	0	0	0	0	1.77636e-15	1.77636e-15	1.77636e-15	0	0	0	8.88178e-15	0	-5.32907e-15	0	0	0	3.55271e-15	-4.26326e-14	-1.77636e-15	0	1.77636e-15	0	1.77636e-15	0	1.77636e-15	1.77636e-15	1.77636e-15	1.77636e-15	0	0	1.77636e-15	0	0	-1.59872e-14	
M_dhap_c	0	0	0	0	0	0	0	0	0	0	0	0	0	0	0	0	0	0	0	0	0	0	0	0	0	0	0	0	0	0	0	0	0	0	0	0	0	0	0	0	0	0	0	0	0	0	0	0	0	0	0	0	0	0	0	0	0	0	0	0	0	0	0	0	0	0	0	0	0	0	0	0	0	0	0	0	0	0	0	0	0	0	0	0	0	0	0	0	0	0	0	0	0	0	0	0	0	0	0	0	
M_e4p_c	0	0	0	0	0	0	0	0	0	0	0	0	0	0	0	0	0	0	0	0	0	0	0	0	0	0	0	0	0	0	0	0	0	0	0	0	0	0	0	0	0	0	0	0	0	0	0	0	0	0	0	0	0	0	0	0	0	0	0	0	0	0	0	0	0	0	0	0	0	0	0	0	0	0	0	0	0	0	0	0	0	0	0	0	0	0	0	0	0	0	0	0	0	0	0	0	0	0	0	0	
M_etoh_c	0	0	0	0	0	0	0	0	0	0	0	0	0	0	0	0	0	0	0	0	0	0	0	0	0	0	0	0	0	0	0	0	0	0	0	0	0	0	0	0	0	0	0	0	0	0	0	0	0	0	0	0	0	0	0	0	0	0	0	0	0	0	0	0	0	0	0	0	0	0	0	0	0	0	0	0	0	0	0	0	0	0	0	0	0	0	0	0	0	0	0	0	0	0	0	0	0	0	0	0	
M_etoh_e	0	0	0	0	0	0	0	0	0	0	0	0	0	0	0	0	0	0	0	0	0	0	0	0	0	0	0	0	0	0	0	0	0	0	0	0	0	0	0	0	0	0	0	0	0	0	0	0	0	0	0	0	0	0	0	0	0	0	0	0	0	0	0	0	0	0	0	0	0	0	0	0	0	0	0	0	0	0	0	0	0	0	0	0	0	0	0	0	0	0	0	0	0	0	0	0	0	0	0	0	
M_f6p_c	0.547	0.547	0.547	0.547	0.547	0.547	0.547	0.547	0.547	0.547	0.547	0.547	0.547	0.547	0.547	0.547	0.547	0.547	0.547	0.547	0.547	0.547	0.547	0.547	0.547	0.547	0.547	0.547	0.547	0.547	0.547	0.547	0.547	0.547	0.547	0.547	0.547	0.547	0.547	0.547	0.547	0.547	0.547	0.547	0.547	0.547	0.547	0.547	0.547	0.547	0.547	0.547	0.547	0.547	0.547	0.547	0.547	0.547	0.547	0.547	0.547	0.547	0.547	0.547	0.547	0.547	0.547	0.547	0.547	0.547	0.547	0.547	0.547	0.547	0.547	0.547	0.547	0.547	0.547	0.547	0.547	0.547	0.547	0.547	0.547	0.547	0.547	0.547	0.547	0.547	0.547	0.547	0.547	0.547	0.547	0.547	0.547	0.547	0.547	0.547	
M_fdp_c	3.816	3.816	3.816	3.816	3.816	3.816	3.816	3.816	3.816	3.816	3.816	3.816	3.816	3.816	3.816	3.816	3.816	3.816	3.816	3.816	3.816	3.816	3.816	3.816	3.816	3.816	3.816	3.816	3.816	3.816	3.816	3.816	3.816	3.816	3.816	3.816	3.816	3.816	3.816	3.816	3.816	3.816	3.816	3.816	3.816	3.816	3.816	3.816	3.816	3.816	3.816	3.816	3.816	3.816	3.816	3.816	3.816	3.816	3.816	3.816	3.816	3.816	3.816	3.816	3.816	3.816	3.816	3.816	3.816	3.816	3.816	3.816	3.816	3.816	3.816	3.816	3.816	3.816	3.816	3.816	3.816	3.816	3.816	3.816	3.816	3.816	3.816	3.816	3.816	3.816	3.816	3.816	3.816	3.816	3.816	3.816	3.816	3.816	3.816	3.816	
M_for_c	0	0	0	0	0	0	0	0	0	0	0	0	0	0	0	0	0	0	0	0	0	0	0	0	0	0	0	0	0	0	0	0	0	0	0	0	0	0	0	0	0	0	0	0	0	0	0	0	0	0	0	0	0	0	0	0	0	0	0	0	0	0	0	0	0	0	0	0	0	0	0	0	0	0	0	0	0	0	0	0	0	0	0	0	0	0	0	0	0	0	0	0	0	0	0	0	0	0	0	0	
M_for_e	0	0	0	0	0	0	0	0	0	0	0	0	0	0	0	0	0	0	0	0	0	0	0	0	0	0	0	0	0	0	0	0	0	0	0	0	0	0	0	0	0	0	0	0	0	0	0	0	0	0	0	0	0	0	0	0	0	0	0	0	0	0	0	0	0	0	0	0	0	0	0	0	0	0	0	0	0	0	0	0	0	0	0	0	0	0	0	0	0	0	0	0	0	0	0	0	0	0	0	0	
M_fru_e	0	0	0	0	0	0	0	0	0	0	0	0	0	0	0	0	0	0	0	0	0	0	0	0	0	0	0	0	0	0	0	0	0	0	0	0	0	0	0	0	0	0	0	0	0	0	0	0	0	0	0	0	0	0	0	0	0	0	0	0	0	0	0	0	0	0	0	0	0	0	0	0	0	0	0	0	0	0	0	0	0	0	0	0	0	0	0	0	0	0	0	0	0	0	0	0	0	0	0	0	
M_fum_c	1.616	1.616	1.616	1.616	1.616	1.616	1.616	1.616	1.616	1.616	1.616	1.616	1.616	1.616	1.616	1.616	1.616	1.616	1.616	1.616	1.616	1.616	1.616	1.616	1.616	1.616	1.616	1.616	1.616	1.616	1.616	1.616	1.616	1.616	1.616	1.616	1.616	1.616	1.616	1.616	1.616	1.616	1.616	1.616	1.616	1.616	1.616	1.616	1.616	1.616	1.616	1.616	1.616	1.616	1.616	1.616	1.616	1.616	1.616	1.616	1.616	1.616	1.616	1.616	1.616	1.616	1.616	1.616	1.616	1.616	1.616	1.616	1.616	1.616	1.616	1.616	1.616	1.616	1.616	1.616	1.616	1.616	1.616	1.616	1.616	1.616	1.616	1.616	1.616	1.616	1.616	1.616	1.616	1.616	1.616	1.616	1.616	1.616	1.616	1.616	
M_fum_e	0	0	0	0	0	0	0	0	0	0	0	0	0	0	0	0	0	0	0	0	0	0	0	0	0	0	0	0	0	0	0	0	0	0	0	0	0	0	0	0	0	0	0	0	0	0	0	0	0	0	0	0	0	0	0	0	0	0	0	0	0	0	0	0	0	0	0	0	0	0	0	0	0	0	0	0	0	0	0	0	0	0	0	0	0	0	0	0	0	0	0	0	0	0	0	0	0	0	0	0	
M_g3p_c	8.88178e-16	0	0	0	0	0	0	0	0	0	4.44089e-16	0	0	0	0	0	0	-4.44089e-16	0	0	0	0	0	0	0	0	0	2.66454e-17	0	4.44089e-16	0	0	0	5.32907e-15	0	0	0	0	0	0	0	0	0	0	0	0	0	0	0	0	0	0	0	0	0	0	0	0	4.44089e-16	-8.88178e-16	0	0	0	0	0	8.88178e-16	0	0	0	0	0	0	0	0	0	0	8.88178e-16	0	-8.88178e-16	0	8.88178e-16	0	0	0	0	-4.44089e-16	-8.88178e-16	0	0	0	8.88178e-16	-8.88178e-16	0	0	0	0	0	0	0	0	
M_g6p_c	2.13	2.13	2.13	2.13	2.13	2.13	2.13	2.13	2.13	2.13	2.13	2.13	2.13	2.13	2.13	2.13	2.13	2.13	2.13	2.13	2.13	2.13	2.13	2.13	2.13	2.13	2.13	2.13	2.13	2.13	2.13	2.13	2.13	2.13	2.13	2.13	2.13	2.13	2.13	2.13	2.13	2.13	2.13	2.13	2.13	2.13	2.13	2.13	2.13	2.13	2.13	2.13	2.13	2.13	2.13	2.13	2.13	2.13	2.13	2.13	2.13	2.13	2.13	2.13	2.13	2.13	2.13	2.13	2.13	2.13	2.13	2.13	2.13	2.13	2.13	2.13	2.13	2.13	2.13	2.13	2.13	2.13	2.13	2.13	2.13	2.13	2.13	2.13	2.13	2.13	2.13	2.13	2.13	2.13	2.13	2.13	2.13	2.13	2.13	2.13	
M_biomass_c	0	0	0	0	0	0	0	0	0	0	0	0	0	0	0	0	0	0	0	0	0	0	0	0	0	0	0	0	0	0	0	0	0	0	0	0	0	0	0	0	0	0	0	0	0	0	0	0	0	0	0	0	0	0	0	0	0	0	0	0	0	0	0	0	0	0	0	0	0	0	0	0	0	0	0	0	0	0	0	0	0	0	0	0	0	0	0	0	0	0	0	0	0	0	0	0	0	0	0	0	
