Reactions	ColorReaction
R_ACONTa	-10
R_ACONTb	10
R_ADK1	10
R_AKGDH	10
R_ATPS4r	10
R_CYTBD	10
R_ENO	10
R_FBA	10
R_FRD7	10
R_FUM	-10
R_G6PDH2r	10
R_GAPD	10
R_GLCpts	10
R_GLNS	10
R_GLUDy	10
R_GLUN	10
R_ICDHyr	10
R_MDH	-10
R_NADH16	10
R_NADTRHD	10
R_PFK	10
R_PGI	10
R_PGK	-10
R_PGL	10
R_PGM	-10
R_PPC	10
R_PPS	10
R_SUCOAS	-10
R_TPI	10
