F_R_ACONTa 	 8.70056
F_R_ACONTb 	 7.01372
F_R_ADK1 	 6.78678
F_R_ATPS4r 	 28.2519
R_BIOMASS_Ecoli_core_w_GAM 	 0.12544
R_CS 	 10.3806
R_CYTBD 	 28.5982
B_R_ENO 	 7.09442
B_R_FBA 	 4.10232
R_FBP 	 4.82522
F_R_FUM 	 9.72239
F_R_G6PDH2r 	 1.01928
B_R_GAPD 	 6.90676
F_R_GLUDy 	 4.14408
R_GLUN 	 0.855925
R_GND 	 0.2745
B_R_ICDHyr 	 4.66066
R_ICL 	 9.99439
R_MALS 	 4.99439
F_R_MDH 	 14.1458
R_NADH16 	 18.6038
R_PDH 	 10.8451
R_PFL 	 5
F_R_PGK 	 6.90676
F_R_PGM 	 7.09442
R_PPC 	 1.4589
R_PPS 	 7.55844
B_R_RPE 	 1.19746
B_R_RPI 	 1.47196
R_SUCDi 	 9.99439
B_R_TALA 	 2.51152
F_R_TKT1 	 1.35935
B_R_TKT2 	 2.55681
B_R_TPI 	 4.10232
