F_R_ACONTa 	 6.5097
F_R_ACONTb 	 5.34706
F_R_ADK1 	 5.68087
F_R_ATPS4r 	 24.469
R_BIOMASS_Ecoli_core_w_GAM 	 0.12544
R_CS 	 8.1897
R_CYTBD 	 24.5718
B_R_ENO 	 5.52337
B_R_FBA 	 2.15028
R_FBP 	 2.87318
F_R_FUM 	 8.05572
F_R_G6PDH2r 	 4.09028
B_R_GAPD 	 4.36202
F_R_GLUDy 	 4.14408
R_GLUN 	 0.855925
R_GND 	 0.2745
B_R_ICDHyr 	 4.66066
R_ICL 	 8.32772
B_R_LDH_D 	 4.85275
R_MALS 	 3.32772
F_R_MDH 	 10.8124
R_NADH16 	 16.2441
R_NADTRHD 	 2.21397
R_PDH 	 11.9875
B_R_PGI 	 3.071
F_R_PGK 	 5.33571
F_R_PGM 	 5.52337
R_PPC 	 2.60139
R_PPS 	 7.12987
R_SUCDi 	 8.32772
B_R_TKT2 	 0.0452839
B_R_TPI 	 2.15028
