F_R_ACONTa 	 7.4595
F_R_ACONTb 	 6.47142
F_R_ADK1 	 6.08893
F_R_ATPS4r 	 26.625
R_BIOMASS_Ecoli_core_w_GAM 	 0.12544
R_CS 	 9.1395
R_CYTBD 	 26.9712
B_R_ENO 	 6.86321
B_R_FBA 	 3.25074
R_FBP 	 3.97364
F_R_FUM 	 9.18008
F_R_G6PDH2r 	 1.87631
B_R_GAPD 	 6.67555
F_R_GLUDy 	 4.14408
R_GLUN 	 0.855924
R_GND 	 0.2745
B_R_ICDHyr 	 4.66066
R_ICL 	 9.45208
R_MALS 	 4.45208
F_R_MDH 	 13.0612
R_NADH16 	 17.5192
R_PDH 	 10.6886
R_PFL 	 3.37309
B_R_PGI 	 0.857024
F_R_PGK 	 6.67555
F_R_PGM 	 6.86321
R_PPC 	 1.30245
R_PPS 	 7.17078
R_SUCDi 	 9.45208
B_R_TALA 	 1.65722
B_R_TKT1 	 0.112608
B_R_TKT2 	 1.7025
B_R_TPI 	 3.25074
