F_R_ACONTa 	 7.24165
F_R_ACONTb 	 7.01372
F_R_ADK1 	 6.11251
F_R_ATPS4r 	 28.3653
R_BIOMASS_Ecoli_core_w_GAM 	 0.12544
R_CS 	 8.92165
R_CYTBD 	 28.6889
B_R_ENO 	 8.55639
B_R_FBA 	 4.17229
R_FBP 	 4.89519
F_R_FUM 	 9.72239
F_R_G6PDH2r 	 5
B_R_GAPD 	 8.40605
F_R_GLUDy 	 5
R_GLUSy 	 0.855925
R_GND 	 0.2745
B_R_ICDHyr 	 4.66066
R_ICL 	 9.99439
R_MALS 	 4.99439
F_R_MDH 	 14.1458
R_NADH16 	 18.6945
R_NADTRHD 	 3.12369
R_PDH 	 9.38616
R_PFL 	 5
B_R_PGI 	 3.98072
F_R_PGK 	 8.36874
F_R_PGM 	 8.55639
R_PPS 	 7.56151
B_R_RPI 	 0.2745
R_SUCDi 	 9.99439
B_R_TALA 	 0.55615
B_R_TKT2 	 0.601434
B_R_TPI 	 4.17229
