F_R_ACONTa 	 7.66355
F_R_ACONTb 	 5.34706
F_R_ADK1 	 7.98856
F_R_ATPS4r 	 30.2383
R_BIOMASS_Ecoli_core_w_GAM 	 0.12544
R_CS 	 9.34355
R_CYTBD 	 29.1872
B_R_ENO 	 6.67721
B_R_FBA 	 2.91951
R_FBP 	 3.64241
F_R_FUM 	 8.05572
F_R_G6PDH2r 	 4.85951
B_R_GAPD 	 5.90048
F_R_GLUDy 	 5
R_GLUSy 	 0.855925
R_GND 	 0.2745
B_R_ICDHyr 	 4.66066
R_ICL 	 8.32772
B_R_LDH_D 	 0.621984
R_MALS 	 3.32772
F_R_MDH 	 10.8124
R_NADH16 	 20.8595
R_NADTRHD 	 2.9832
R_PDH 	 13.1414
B_R_PGI 	 3.84023
F_R_PGK 	 6.48956
F_R_PGM 	 6.67721
R_PPC 	 3.75523
R_PPS 	 9.43756
R_SUCDi 	 8.32772
B_R_TKT2 	 0.0452839
B_R_TPI 	 2.91951
