F_R_ACONTa 	 10.1208
F_R_ACONTb 	 10.1208
F_R_ADK1 	 10.4304
F_R_ATPS4r 	 34.8137
R_BIOMASS_Ecoli_core_w_GAM 	 0.12544
R_CS 	 11.8008
R_CYTBD 	 32.9155
B_R_ENO 	 6.36911
B_R_FBA 	 3.05999
R_FBP 	 3.78289
F_R_FUM 	 8.16883
F_R_G6PDH2r 	 5
B_R_GAPD 	 6.18145
F_R_GLUDy 	 5
R_GLUSy 	 0.855925
R_GND 	 0.2745
R_ICL 	 8.44083
B_R_LDH_D 	 1.16448
R_MALS 	 3.44083
F_R_MDH 	 11.0387
R_NADH16 	 24.4746
R_NADTRHD 	 9.62519
R_PDH 	 10.7118
R_PFL 	 5
B_R_PGI 	 3.98072
F_R_PGK 	 6.18145
F_R_PGM 	 6.36911
R_PPC 	 5.98629
R_PPS 	 11.3605
R_SUCDi 	 8.44083
B_R_TKT2 	 0.0452839
B_R_TPI 	 3.05999
