F_R_ACONTa 	 7.18321
F_R_ACONTb 	 5.34706
F_R_ADK1 	 7.02789
F_R_ATPS4r 	 27.8366
R_BIOMASS_Ecoli_core_w_GAM 	 0.12544
R_CS 	 8.86321
R_CYTBD 	 27.2659
B_R_ENO 	 6.19688
B_R_FBA 	 2.87904
R_FBP 	 3.60194
F_R_FUM 	 8.05572
F_R_G6PDH2r 	 1.87631
B_R_GAPD 	 4.98027
F_R_GLUDy 	 5
R_GLUSy 	 0.855925
R_GND 	 0.2745
B_R_ICDHyr 	 4.66066
R_ICL 	 8.32772
R_MALS 	 3.32772
F_R_MDH 	 10.8124
R_NADH16 	 18.9382
R_PDH 	 12.6611
B_R_PGI 	 0.857024
F_R_PGK 	 6.00922
F_R_PGM 	 6.19688
R_PPC 	 3.27489
R_PPS 	 8.47689
B_R_RPE 	 0.67738
B_R_RPI 	 0.95188
R_SUCDi 	 8.32772
B_R_TALA 	 1.47137
F_R_TKT1 	 0.839272
B_R_TKT2 	 1.51665
B_R_TPI 	 2.87904
