F_R_ACONTa 	 7.45252
F_R_ACONTb 	 5.34706
F_R_ADK1 	 8.28845
F_R_ATPS4r 	 30.627
R_BIOMASS_Ecoli_core_w_GAM 	 0.12544
R_CS 	 9.13252
R_CYTBD 	 29.4982
B_R_ENO 	 7.18813
B_R_FBA 	 3.01947
R_FBP 	 3.74237
F_R_FUM 	 8.05572
F_R_G6PDH2r 	 4.95948
B_R_GAPD 	 6.1004
F_R_GLUDy 	 4.14408
R_GLUN 	 0.855925
R_GND 	 0.2745
B_R_ICDHyr 	 4.66066
R_ICL 	 8.32772
R_MALS 	 3.32772
F_R_MDH 	 10.8124
R_NADH16 	 21.1705
R_NADTRHD 	 3.08317
R_PDH 	 12.9304
B_R_PGI 	 3.94019
F_R_PGK 	 6.27852
F_R_PGM 	 7.18813
R_PPC 	 3.5442
R_PPS 	 9.73745
B_R_RPI 	 0.2745
R_SUCDi 	 8.32772
B_R_TPI 	 3.01947
