F_R_ACONTa 	 10.1208
F_R_ACONTb 	 10.1208
F_R_ADK1 	 10.2719
F_R_ATPS4r 	 34.2703
R_BIOMASS_Ecoli_core_w_GAM 	 0.12544
R_CS 	 11.8008
R_CYTBD 	 32.4808
B_R_ENO 	 6.14269
B_R_FBA 	 2.96943
R_FBP 	 3.69233
F_R_FUM 	 8.16883
F_R_G6PDH2r 	 5
B_R_GAPD 	 5.95503
F_R_GLUDy 	 4.14408
R_GLUN 	 0.855925
R_GND 	 0.2745
R_ICL 	 8.44083
B_R_LDH_D 	 1.91619
R_MALS 	 3.44083
F_R_MDH 	 11.0387
R_NADH16 	 24.0399
R_NADTRHD 	 7.78435
R_PDH 	 10.7118
R_PFL 	 5
B_R_PGI 	 3.98072
F_R_PGK 	 5.95503
F_R_PGM 	 6.14269
R_PPC 	 5.98629
R_PPS 	 11.1341
R_SUCDi 	 8.44083
F_R_TALA 	 0.0452839
B_R_TPI 	 2.96943
