F_R_ACONTa 	 7.551
F_R_ACONTb 	 6.51717
F_R_ADK1 	 6.15756
F_R_ATPS4r 	 26.7622
R_BIOMASS_Ecoli_core_w_GAM 	 0.12544
R_CS 	 9.231
R_CYTBD 	 27.1085
B_R_ENO 	 6.86321
B_R_FBA 	 3.38799
R_FBP 	 4.11089
F_R_FUM 	 9.22583
F_R_G6PDH2r 	 1.87631
B_R_GAPD 	 6.67555
F_R_GLUDy 	 5
R_GLUSy 	 0.855925
R_GND 	 0.2745
B_R_ICDHyr 	 4.66066
R_ICL 	 9.49783
R_MALS 	 4.49783
F_R_MDH 	 13.1527
R_NADH16 	 17.6107
R_PDH 	 10.6886
R_PFL 	 3.51034
B_R_PGI 	 0.857024
F_R_PGK 	 6.67555
F_R_PGM 	 6.86321
R_PPC 	 1.30245
R_PPS 	 7.17078
B_R_RPI 	 0.2745
R_SUCDi 	 9.49783
B_R_TALA 	 1.72584
F_R_TKT1 	 0.161892
B_R_TKT2 	 1.77113
B_R_TPI 	 3.38799
