F_R_ACONTa 	 7.17042
F_R_ACONTb 	 5.34706
F_R_ADK1 	 5.87213
F_R_ATPS4r 	 23.2519
R_BIOMASS_Ecoli_core_w_GAM 	 0.12544
R_CS 	 8.85042
R_CYTBD 	 23.5982
B_R_ENO 	 3.92373
B_R_FBA 	 1.8373
R_FBP 	 2.5602
F_R_FUM 	 8.05572
F_R_G6PDH2r 	 1.87631
B_R_GAPD 	 3.73607
F_R_GLUDy 	 5
R_GLUSy 	 0.855925
R_GND 	 0.2745
B_R_ICDHyr 	 4.66066
R_ICL 	 8.32772
B_R_LDH_D 	 4.89914
R_MALS 	 3.32772
F_R_MDH 	 10.8124
R_NADH16 	 15.2704
R_PDH 	 12.6483
B_R_PGI 	 0.857024
F_R_PGK 	 3.73607
F_R_PGM 	 3.92373
R_PPC 	 3.26211
R_PPS 	 6.19095
B_R_RPI 	 0.2745
R_SUCDi 	 8.32772
B_R_TALA 	 0.950501
B_R_TKT2 	 0.995784
B_R_TPI 	 1.8373
